﻿


EVENT   1
 PAGE   1
  281(1)
  250(bytes(0x04,0x08,0x6f,0x3a,0x0c,0x52,0x50,0x47,0x3a,0x3a,0x53,0x45,0x08,0x3a,0x0a,0x40,0x6e,0x61,0x6d,0x65,0x49,0x22,0x09,0x4d,0x6f,0x76,0x65,0x06,0x3a,0x06,0x45,0x54,0x3a,0x0b,0x40,0x70,0x69,0x74,0x63,0x68,0x69,0x69,0x3a,0x0c,0x40,0x76,0x6f,0x6c,0x75,0x6d,0x65,0x69,0x55))
  TeleportPlayer(0,31,22,12,0,0)
  0()



EVENT   3
 PAGE   1
  0()



EVENT   4
 PAGE   1
  0()



EVENT   8
 PAGE   1
  0()



EVENT   9
 PAGE   1
  0()



EVENT   10
 PAGE   1
  0()



EVENT   11
 PAGE   1
  0()



EVENT   12
 PAGE   1
  0()



EVENT   14
 PAGE   1
  0()



EVENT   15
 PAGE   1
  0()



EVENT   16
 PAGE   1
  0()



EVENT   17
 PAGE   1
  0()



EVENT   18
 PAGE   1
  0()



EVENT   19
 PAGE   1
  0()



EVENT   2
 PAGE   1
  281(1)
  250(bytes(0x04,0x08,0x6f,0x3a,0x0c,0x52,0x50,0x47,0x3a,0x3a,0x53,0x45,0x08,0x3a,0x0a,0x40,0x6e,0x61,0x6d,0x65,0x49,0x22,0x09,0x4d,0x6f,0x76,0x65,0x06,0x3a,0x06,0x45,0x54,0x3a,0x0b,0x40,0x70,0x69,0x74,0x63,0x68,0x69,0x69,0x3a,0x0c,0x40,0x76,0x6f,0x6c,0x75,0x6d,0x65,0x69,0x55))
  TeleportPlayer(0,31,31,6,0,0)
  0()



EVENT   5
 PAGE   1
  281(1)
  250(bytes(0x04,0x08,0x6f,0x3a,0x0c,0x52,0x50,0x47,0x3a,0x3a,0x53,0x45,0x08,0x3a,0x0a,0x40,0x6e,0x61,0x6d,0x65,0x49,0x22,0x09,0x4d,0x6f,0x76,0x65,0x06,0x3a,0x06,0x45,0x54,0x3a,0x0b,0x40,0x70,0x69,0x74,0x63,0x68,0x69,0x69,0x3a,0x0c,0x40,0x76,0x6f,0x6c,0x75,0x6d,0x65,0x69,0x55))
  TeleportPlayer(0,31,40,14,0,0)
  0()



EVENT   7
 PAGE   1
  281(1)
  250(bytes(0x04,0x08,0x6f,0x3a,0x0c,0x52,0x50,0x47,0x3a,0x3a,0x53,0x45,0x08,0x3a,0x0a,0x40,0x6e,0x61,0x6d,0x65,0x49,0x22,0x09,0x4d,0x6f,0x76,0x65,0x06,0x3a,0x06,0x45,0x54,0x3a,0x0b,0x40,0x70,0x69,0x74,0x63,0x68,0x69,0x69,0x3a,0x0c,0x40,0x76,0x6f,0x6c,0x75,0x6d,0x65,0x69,0x55))
  TeleportPlayer(0,31,15,27,0,0)
  0()



EVENT   22
 PAGE   1
  281(1)
  250(bytes(0x04,0x08,0x6f,0x3a,0x0c,0x52,0x50,0x47,0x3a,0x3a,0x53,0x45,0x08,0x3a,0x0a,0x40,0x6e,0x61,0x6d,0x65,0x49,0x22,0x09,0x4d,0x6f,0x76,0x65,0x06,0x3a,0x06,0x45,0x54,0x3a,0x0b,0x40,0x70,0x69,0x74,0x63,0x68,0x69,0x69,0x3a,0x0c,0x40,0x76,0x6f,0x6c,0x75,0x6d,0x65,0x69,0x55))
  TeleportPlayer(0,31,28,34,0,0)
  0()



EVENT   6
 PAGE   1
  281(1)
  250(bytes(0x04,0x08,0x6f,0x3a,0x0c,0x52,0x50,0x47,0x3a,0x3a,0x53,0x45,0x08,0x3a,0x0a,0x40,0x6e,0x61,0x6d,0x65,0x49,0x22,0x09,0x4d,0x6f,0x76,0x65,0x06,0x3a,0x06,0x45,0x54,0x3a,0x0b,0x40,0x70,0x69,0x74,0x63,0x68,0x69,0x69,0x3a,0x0c,0x40,0x76,0x6f,0x6c,0x75,0x6d,0x65,0x69,0x55))
  TeleportPlayer(0,31,40,22,0,0)
  0()



EVENT   13
 PAGE   1
  281(1)
  250(bytes(0x04,0x08,0x6f,0x3a,0x0c,0x52,0x50,0x47,0x3a,0x3a,0x53,0x45,0x08,0x3a,0x0a,0x40,0x6e,0x61,0x6d,0x65,0x49,0x22,0x09,0x4d,0x6f,0x76,0x65,0x06,0x3a,0x06,0x45,0x54,0x3a,0x0b,0x40,0x70,0x69,0x74,0x63,0x68,0x69,0x69,0x3a,0x0c,0x40,0x76,0x6f,0x6c,0x75,0x6d,0x65,0x69,0x55))
  TeleportPlayer(0,31,17,34,0,0)
  0()



EVENT   21
 PAGE   1
  250(bytes(0x04,0x08,0x6f,0x3a,0x0c,0x52,0x50,0x47,0x3a,0x3a,0x53,0x45,0x08,0x3a,0x0a,0x40,0x6e,0x61,0x6d,0x65,0x49,0x22,0x09,0x4d,0x6f,0x76,0x65,0x06,0x3a,0x06,0x45,0x54,0x3a,0x0b,0x40,0x70,0x69,0x74,0x63,0x68,0x69,0x69,0x3a,0x0c,0x40,0x76,0x6f,0x6c,0x75,0x6d,0x65,0x69,0x55))
  TeleportPlayer(0,32,28,49,0,0)
  0()



EVENT   20
 PAGE   1
  250(bytes(0x04,0x08,0x6f,0x3a,0x0c,0x52,0x50,0x47,0x3a,0x3a,0x53,0x45,0x08,0x3a,0x0a,0x40,0x6e,0x61,0x6d,0x65,0x49,0x22,0x09,0x4d,0x6f,0x76,0x65,0x06,0x3a,0x06,0x45,0x54,0x3a,0x0b,0x40,0x70,0x69,0x74,0x63,0x68,0x69,0x69,0x3a,0x0c,0x40,0x76,0x6f,0x6c,0x75,0x6d,0x65,0x69,0x55))
  TeleportPlayer(0,32,26,25,0,0)
  0()



EVENT   25
 PAGE   1
  ShowMessageFace("",0,0,2,1)
  ShowMessage("\\n<Goldsmith>If you've come for goldsmithing, you're in the right place... assuming you brought your own raw gold.")
  ShowMessageFace("",0,0,2,2)
  ShowMessage("\\n<Goldsmith>You should be able to dig some out of the mines to the northwest, but you might have to go in pretty deep.")
  If(4,62,0)
   ShowMessageFace("gob_fc1",0,0,2,3)
   ShowMessage("\\n<Gob>All right! Let's get to it!")
   0()
  EndIf()
  ShowMessageFace("",0,0,2,4)
  ShowMessage("\\n<Goldsmith>Since you're here, let me show you my regular wares, at least. There isn't much variety, but it's all of high quality.")
  Shop(1,476,0,0,false)
  605(1,845,0,0)
  605(2,20,0,0)
  605(2,181,0,0)
  605(2,259,0,0)
  If(1,1017,0,2,2)
   ShowMessageFace("",0,0,2,5)
   ShowMessage("\\n<Goldsmith>I assume you're going to search for gold in the mines, but before that, could you help me out with something else? Help the whole village out, actually.")
   ShowMessageFace("",0,0,2,6)
   ShowMessage("\\n<Goldsmith>You've seen all the slugs infesting our village, right? Of course you have. If you think you're up to it, we need something done about them...")
   If(4,64,0)
    ShowMessageFace("pramia_fc1",0,0,2,7)
    ShowMessage("\\n<Teeny>Pest control? I can't back down from that if I want to be a maid.")
    0()
   EndIf()
   ShowMessageFace("",0,0,2,8)
   ShowMessage("\\n<Goldsmith>Ask Flora for the details if you're interested. She lives in the northern house. She defeated the boss of the slugs once before, you see.")
   0()
  EndIf()
  0()
 PAGE   2
  // condition: player has item #152
  ChangeVariable(1015,1015,0,0,2)
  ShowMessageFace("",0,0,2,1)
  ShowMessage("\\n<Goldsmith>Oooh, that's a mighty fine lump of gold you've got there. I can make all the gold equipment you want with that.")
  ShowChoices(strings("Browse normal wares","Craft golden equipment","Talk to the smith"),5)
  IfPlayerPicksChoice(0,null)
   Shop(1,476,0,0,false)
   605(1,845,0,0)
   605(2,20,0,0)
   605(2,181,0,0)
   605(2,259,0,0)
   0()
  IfPlayerPicksChoice(1,null)
   Shop(1,5,0,0,false)
   605(1,87,0,0)
   605(1,147,0,0)
   605(1,208,0,0)
   605(1,294,0,0)
   605(1,337,0,0)
   605(1,366,0,0)
   605(1,405,0,0)
   605(1,445,0,0)
   605(1,477,0,0)
   605(1,513,0,0)
   605(1,552,0,0)
   605(1,593,0,0)
   605(1,625,0,0)
   605(1,662,0,0)
   605(1,702,0,0)
   605(1,729,0,0)
   605(1,756,0,0)
   605(1,776,0,0)
   605(1,798,0,0)
   605(1,824,0,0)
   605(1,846,0,0)
   605(2,33,0,0)
   605(2,69,0,0)
   605(2,106,0,0)
   605(2,203,0,0)
   605(2,237,0,0)
   605(2,294,0,0)
   0()
  IfPlayerPicksChoice(2,null)
   If(1,1007,0,0,0)
    If(4,68,0)
     If(2,"B",1)
      ChangeSelfSwitch("B",0)
      ShowMessageFace("dragonp_fc1",0,0,2,2)
      ShowMessage("\\n<Papi>Excuse me, but... Please teach me how to work gold!")
      ShowMessageFace("",0,0,2,3)
      ShowMessage("\\n<Goldsmith>Oh, the little dragon girl wants to be a goldsmith? Hmm, I can't just spill the secrets of goldsmithing to everybody...")
      ShowMessageFace("dragonp_fc1",2,0,2,4)
      ShowMessage("\\n<Papi>Pretty please...")
      ShowMessageFace("",0,0,2,5)
      ShowMessage("\\n<Goldsmith>Awww don't cry. All right, look, I've got an idea.")
      ShowMessageFace("",0,0,2,6)
      ShowMessage("\\n<Goldsmith>I've heard that some strange rocks have been found inside Tartarus. They've got my smith sense tingling.")
      ShowMessageFace("",0,0,2,7)
      ShowMessage("\\n<Goldsmith>So here's the deal: you bring me one of those rocks, and I'll show you how to work gold.")
      ShowMessageFace("dragonp_fc1",3,0,2,8)
      ShowMessage("\\n<Papi>Yes, sir!")
      EndEventProcessing()
      0()
     Else()
      ShowMessageFace("",0,0,2,9)
      ShowMessage("\\n<Goldsmith>Remember, bring me one of those rocks from Tartarus and I'll show you how to work gold.")
      If(8,166)
       ShowMessageFace("",0,0,2,10)
       ShowMessage("Hand over 1 \\ii[166]?")
       ShowChoices(strings("Yes","No"),2)
       IfPlayerPicksChoice(0,null)
        ChangeInventory_Item(166,1,0,1)
        ShowMessageFace("",0,0,2,11)
        ShowMessage("\\ii[166] handed over!")
        JumpToLabel("教える")
        0()
       IfPlayerPicksChoice(1,null)
        0()
       404()
       0()
      EndIf()
      If(8,172)
       ShowMessageFace("",0,0,2,12)
       ShowMessage("Hand over 1 \\ii[172]?")
       ShowChoices(strings("Yes","No"),2)
       IfPlayerPicksChoice(0,null)
        ChangeInventory_Item(172,1,0,1)
        ShowMessageFace("",0,0,2,13)
        ShowMessage("\\ii[172] handed over!")
        JumpToLabel("教える")
        0()
       IfPlayerPicksChoice(1,null)
        0()
       404()
       0()
      EndIf()
      EndEventProcessing()
      DefineLabel("教える")
      ShowMessageFace("",0,0,2,14)
      ShowMessage("\\n<Goldsmith>Okay, a deal's a deal. I'll teach you how to work gold, but whether you can do it or not is up to you.")
      ShowMessageFace("dragonp_fc1",0,0,2,15)
      ShowMessage("\\n<Papi>My master drilled the basics into me! I'll work as hard as I have to!")
      221()
      Wait(60)
      250(bytes(0x04,0x08,0x6f,0x3a,0x0c,0x52,0x50,0x47,0x3a,0x3a,0x53,0x45,0x08,0x3a,0x0a,0x40,0x6e,0x61,0x6d,0x65,0x49,0x22,0x0d,0x6d,0x6f,0x6e,0x5f,0x6b,0x61,0x7a,0x69,0x06,0x3a,0x06,0x45,0x54,0x3a,0x0b,0x40,0x70,0x69,0x74,0x63,0x68,0x69,0x69,0x3a,0x0c,0x40,0x76,0x6f,0x6c,0x75,0x6d,0x65,0x69,0x69))
      Wait(60)
      250(bytes(0x04,0x08,0x6f,0x3a,0x0c,0x52,0x50,0x47,0x3a,0x3a,0x53,0x45,0x08,0x3a,0x0a,0x40,0x6e,0x61,0x6d,0x65,0x49,0x22,0x0d,0x6d,0x6f,0x6e,0x5f,0x6b,0x61,0x7a,0x69,0x06,0x3a,0x06,0x45,0x54,0x3a,0x0b,0x40,0x70,0x69,0x74,0x63,0x68,0x69,0x69,0x3a,0x0c,0x40,0x76,0x6f,0x6c,0x75,0x6d,0x65,0x69,0x69))
      Wait(60)
      222()
      ShowMessageFace("dragonp_fc1",0,0,2,16)
      ShowMessage("\\n<Papi>...I got it. Like this!?")
      ShowMessageFace("",0,0,2,17)
      ShowMessage("\\n<Goldsmith>Wow, very nice! You're good, little lady. Your fundamentals are strong, and I don't see any bad habits.")
      ShowMessageFace("",0,0,2,18)
      ShowMessage("\\n<Goldsmith>You must have learned from an excellent teacher. All you need now is more practice.")
      ShowMessageFace("dragonp_fc1",3,0,2,19)
      ShowMessage("\\n<Papi>Thank you so much! I'm very grateful for your help!")
      ShowMessageFace("",0,0,2,20)
      ShowMessage("\\n<Goldsmith>Keep up the good work!")
      249(bytes(0x04,0x08,0x6f,0x3a,0x0c,0x52,0x50,0x47,0x3a,0x3a,0x4d,0x45,0x08,0x3a,0x0a,0x40,0x6e,0x61,0x6d,0x65,0x49,0x22,0x0c,0x66,0x61,0x6e,0x66,0x61,0x6c,0x65,0x06,0x3a,0x06,0x45,0x54,0x3a,0x0b,0x40,0x70,0x69,0x74,0x63,0x68,0x69,0x69,0x3a,0x0c,0x40,0x76,0x6f,0x6c,0x75,0x6d,0x65,0x69,0x69))
      ShowMessageFace("",0,0,2,21)
      ShowMessage("Papi learned how to craft golden equipment!")
      ChangeVariable(1007,1007,0,0,1)
      Wait(60)
      355("gain_medal(1511)")
      EndEventProcessing()
      0()
     EndIf()
     0()
    EndIf()
    0()
   EndIf()
   ShowMessageFace("",0,0,2,22)
   ShowMessage("\\n<Goldsmith>All these slugs are hanging around like they have been. They're going to become this village's new claim to fame at this rate.")
   EndEventProcessing()
   0()
  IfPlayerCancelsChoice()
   0()
  404()
  If(1,1017,0,2,2)
   ShowMessageFace("",0,0,2,23)
   ShowMessage("\\n<Goldsmith>By the way, can you help me, or rather the village, out? It shouldn't be too hard for someone who was able to explore deep into the mines.")
   ShowMessageFace("",0,0,2,24)
   ShowMessage("\\n<Goldsmith>You've seen all the slugs infesting our village, right? Of course you have. If you think you're up to it, we need something done about them...")
   If(4,64,0)
    ShowMessageFace("pramia_fc1",0,0,2,25)
    ShowMessage("\\n<Teeny>Pest control? I can't back down from that if I want to be a maid.")
    0()
   EndIf()
   ShowMessageFace("",0,0,2,26)
   ShowMessage("\\n<Goldsmith>Ask Flora for the details if you're interested. She lives in the northern house. She defeated the boss of the slugs once before, you see.")
   EndEventProcessing()
   0()
  EndIf()
  If(1,1001,0,10,0)
   If(2,"A",1)
    ChangeSelfSwitch("A",0)
    If(0,4,0)
     ShowMessageFace("alice_fc5",1,0,2,27)
     ShowMessage("\\n<Alice>Okay, I think we're good on gear now. Off to the eastern Tartarus rift!")
     0()
    EndIf()
    If(0,5,0)
     ShowMessageFace("iriasu_fc4",0,0,2,28)
     ShowMessage("\\n<Ilias>I believe we are adequately equipped now. To the eastern Tartarus rift!")
     0()
    EndIf()
    If(0,6,0)
     ShowMessageFace("sonia_fc1",0,0,2,29)
     ShowMessage("\\n<Sonya>First we have to cross the mountain range. There should be a cave through it north of Pornof.")
     0()
    Else()
     ShowMessageFace("ruka_fc1",0,0,2,30)
     ShowMessage("\\n<Luka>First we have to cross the mountain range. There should be a cave through it north of Pornof.")
     0()
    EndIf()
    If(4,68,0)
     ShowMessageFace("dragonp_fc1",0,0,2,31)
     ShowMessage("\\n<Papi>It's a long way! I'm looking forward to proving myself!")
     0()
    EndIf()
    If(4,72,0)
     ShowMessageFace("phoenix_fc1",1,0,2,32)
     ShowMessage("\\n<Mini>I'm here to help!")
     0()
    EndIf()
    EndEventProcessing()
    0()
   EndIf()
   0()
  EndIf()
  0()



EVENT   24
 PAGE   1
  ShowMessageFace("",0,0,2,1)
  ShowMessage("\\n<Shopkeeper>Argh, I can't keep this damn shop dry. My apologies for the state of my store, but please shop here anyway.")
  Shop(0,1,0,0,false)
  605(0,11,0,0)
  605(0,13,0,0)
  605(0,14,0,0)
  605(0,17,0,0)
  605(0,23,0,0)
  605(0,35,0,0)
  0()



EVENT   26
 PAGE   1
  ShowMessageFace("name_fc1",0,0,2,1)
  ShowMessage("\\n<Slug Girl>This inn is nice and calm. It'd be perfect if it were a bit more humid though...")
  RunCommonEvent(315)
  0()



EVENT   27
 PAGE   1
  ShowMessageFace("name_fc1",0,0,2,1)
  ShowMessage("\\n<Slug Girl>Is there anything in this pot...")
  RunCommonEvent(315)
  0()



EVENT   28
 PAGE   1
  ShowMessageFace("",0,0,2,1)
  ShowMessage("\\n<Innkeeper>The slug girls are paying customers so they're here to stay, just so you know.  It's 10G a night, would you like a room?")
  ShowChoices(strings("Yes","No"),2)
  IfPlayerPicksChoice(0,null)
   If(7,10,0)
    125(1,0,10)
    221()
    249(bytes(0x04,0x08,0x6f,0x3a,0x0c,0x52,0x50,0x47,0x3a,0x3a,0x4d,0x45,0x08,0x3a,0x0a,0x40,0x6e,0x61,0x6d,0x65,0x49,0x22,0x08,0x49,0x6e,0x6e,0x06,0x3a,0x06,0x45,0x54,0x3a,0x0b,0x40,0x70,0x69,0x74,0x63,0x68,0x69,0x69,0x3a,0x0c,0x40,0x76,0x6f,0x6c,0x75,0x6d,0x65,0x69,0x69))
    Wait(150)
    314(0,0)
    222()
    0()
   Else()
    ShowMessageFace("",0,0,2,2)
    ShowMessage("\\n<Innkeeper>Oh, you don't have enough money...")
    0()
   EndIf()
   0()
  IfPlayerPicksChoice(1,null)
   0()
  404()
  0()



EVENT   29
 PAGE   1
  ShowMessageFace("name_fc1",0,0,2,1)
  ShowMessage("\\n<Slug Girl>Is there anything in this pot...")
  RunCommonEvent(315)
  0()



EVENT   31
 PAGE   1
  ShowMessageFace("name_fc1",0,0,2,1)
  ShowMessage("\\n<Slug Girl>Nice and slimy, nice and sticky...")
  RunCommonEvent(315)
  0()



EVENT   32
 PAGE   1
  ShowMessageFace("name_fc1",0,0,2,1)
  ShowMessage("\\n<Slug Girl>I won't let you buy salt...")
  RunCommonEvent(315)
  0()



EVENT   33
 PAGE   1
  0()



EVENT   34
 PAGE   1
  ShowMessageFace("name_fc1",0,0,2,1)
  ShowMessage("\\n<Slug Girl>This store doesn't feel slimy enough.")
  RunCommonEvent(315)
  0()



EVENT   35
 PAGE   1
  ShowMessageFace("name_fc1",0,0,2,1)
  ShowMessage("\\n<Slug Girl>Nice and damp...")
  RunCommonEvent(315)
  0()



EVENT   36
 PAGE   1
  ShowMessageFace("name_fc1",0,0,2,1)
  ShowMessage("\\n<Slug Girl>I hope it rains...")
  RunCommonEvent(315)
  0()



EVENT   37
 PAGE   1
  ShowMessageFace("name_fc1",0,0,2,1)
  ShowMessage("\\n<Slug Girl>Spare any lettuce?")
  RunCommonEvent(315)
  0()



EVENT   38
 PAGE   1
  ShowMessageFace("name_fc1",0,0,2,1)
  ShowMessage("\\n<Slug Girl>The vegetables in this village are delicious. *Munch* *munch* *munch*")
  RunCommonEvent(315)
  0()



EVENT   39
 PAGE   1
  ShowMessageFace("name_fc1",0,0,2,1)
  ShowMessage("\\n<Slug Girl>Nice and slimy...")
  RunCommonEvent(315)
  0()



EVENT   40
 PAGE   1
  ShowMessageFace("name_fc1",0,0,2,1)
  ShowMessage("\\n<Slug Girl>Vegetables... *munch* *munch* *crunch*")
  ShowMessageFace("",0,0,2,2)
  ShowMessage("\\n<Goldsmith>Not again! That's not yours, damn it! Get out of here!")
  ShowMessageFace("name_fc1",0,0,2,3)
  ShowMessage("\\n<Slug Girl>……………………")
  205(0,bytes(0x04,0x08,0x6f,0x3a,0x13,0x52,0x50,0x47,0x3a,0x3a,0x4d,0x6f,0x76,0x65,0x52,0x6f,0x75,0x74,0x65,0x09,0x3a,0x0c,0x40,0x72,0x65,0x70,0x65,0x61,0x74,0x46,0x3a,0x0f,0x40,0x73,0x6b,0x69,0x70,0x70,0x61,0x62,0x6c,0x65,0x46,0x3a,0x0a,0x40,0x77,0x61,0x69,0x74,0x54,0x3a,0x0a,0x40,0x6c,0x69,0x73,0x74,0x5b,0x10,0x6f,0x3a,0x15,0x52,0x50,0x47,0x3a,0x3a,0x4d,0x6f,0x76,0x65,0x43,0x6f,0x6d,0x6d,0x61,0x6e,0x64,0x07,0x3a,0x0a,0x40,0x63,0x6f,0x64,0x65,0x69,0x22,0x3a,0x10,0x40,0x70,0x61,0x72,0x61,0x6d,0x65,0x74,0x65,0x72,0x73,0x5b,0x06,0x69,0x09,0x6f,0x3b,0x0a,0x07,0x3b,0x0b,0x69,0x23,0x3b,0x0c,0x5b,0x06,0x69,0x09,0x6f,0x3b,0x0a,0x07,0x3b,0x0b,0x69,0x2a,0x3b,0x0c,0x5b,0x00,0x6f,0x3b,0x0a,0x07,0x3b,0x0b,0x69,0x08,0x3b,0x0c,0x5b,0x00,0x6f,0x3b,0x0a,0x07,0x3b,0x0b,0x69,0x08,0x3b,0x0c,0x5b,0x00,0x6f,0x3b,0x0a,0x07,0x3b,0x0b,0x69,0x06,0x3b,0x0c,0x5b,0x00,0x6f,0x3b,0x0a,0x07,0x3b,0x0b,0x69,0x06,0x3b,0x0c,0x5b,0x00,0x6f,0x3b,0x0a,0x07,0x3b,0x0b,0x69,0x06,0x3b,0x0c,0x5b,0x00,0x6f,0x3b,0x0a,0x07,0x3b,0x0b,0x69,0x06,0x3b,0x0c,0x5b,0x00,0x6f,0x3b,0x0a,0x07,0x3b,0x0b,0x69,0x06,0x3b,0x0c,0x5b,0x00,0x6f,0x3b,0x0a,0x07,0x3b,0x0b,0x69,0x00,0x3b,0x0c,0x5b,0x00))
  250(bytes(0x04,0x08,0x6f,0x3a,0x0c,0x52,0x50,0x47,0x3a,0x3a,0x53,0x45,0x08,0x3a,0x0a,0x40,0x6e,0x61,0x6d,0x65,0x49,0x22,0x09,0x4d,0x6f,0x76,0x65,0x06,0x3a,0x06,0x45,0x54,0x3a,0x0b,0x40,0x70,0x69,0x74,0x63,0x68,0x69,0x69,0x3a,0x0c,0x40,0x76,0x6f,0x6c,0x75,0x6d,0x65,0x69,0x55))
  TemporaryRemoveEvent()
  ShowMessageFace("",0,0,2,4)
  ShowMessage("\\n<Goldsmith>I swear... Why are there so many slugs here this year? There's gotta be some reason for it.")
  355("actor_label_jump")
  EndEventProcessing()
  DefineLabel("70")
  ShowMessageFace("nezumi_fc1",0,0,2,5)
  ShowMessage("\\n<Ratty>Snitching food? What a gluttonous slug...")
  EndEventProcessing()
  0()
 PAGE   2
  // condition: variable 1017 >= 2
  0()



EVENT   43
 PAGE   1
  ShowMessageFace("",0,0,2,1)
  ShowMessage("\\n<Man>This slug infestation has really become a problem. They're tearing up our fields and inviting themselves into our houses.")
  355("actor_label_jump")
  EndEventProcessing()
  DefineLabel("61")
  ShowMessageFace("mimizu_fc1",2,0,2,2)
  ShowMessage("\\n<Mimi>I don't approve of fields being torn up by anyone other than earthworms!")
  EndEventProcessing()
  DefineLabel("70")
  ShowMessageFace("nezumi_fc1",0,0,2,3)
  ShowMessage("\\n<Ratty>We rats invite ourselves into others' houses too though...")
  EndEventProcessing()
  DefineLabel("87")
  ShowMessageFace("name2_fc2",1,0,2,4)
  ShowMessage("\\n<Melty>Our apologies for the trouble our family has caused you...")
  EndEventProcessing()
  0()



EVENT   44
 PAGE   1
  ShowMessageFace("name_fc1",0,0,2,1)
  ShowMessage("\\n<Slug Girl>I can't find a single good book to read...")
  ShowMessageFace("name_fc1",0,0,2,2)
  ShowMessage("\\n<Slug Girl>[How to Prevent Slugs from Eating Your Food]?\nInto the trash you go...")
  RunCommonEvent(315)
  0()



EVENT   45
 PAGE   1
  ShowMessageFace("name_fc1",0,0,2,1)
  ShowMessage("\\n<Slug Girl>Is there something in this barrel...")
  RunCommonEvent(315)
  0()



EVENT   23
 PAGE   1
  ShowMessageFace("name_fc1",0,0,2,1)
  ShowMessage("\\n<Slug Girl>Hello, I live here with my husband. Despite appearances, I'm actually good at housework.")
  355("actor_label_jump")
  EndEventProcessing()
  DefineLabel("86")
  ShowMessageFace("name_s_fc1",0,0,2,2)
  ShowMessage("\\n<Rosary>Congratulations on the marriage! I hope you two live long and happy lives together.")
  EndEventProcessing()
  DefineLabel("108")
  ShowMessageFace("kai_fc1",0,0,2,3)
  ShowMessage("\\n<Shelly>It appears you lucked into a wonderful husband.")
  EndEventProcessing()
  0()



EVENT   42
 PAGE   1
  ShowMessageFace("name_fc1",0,0,2,1)
  ShowMessage("\\n<Slug Girl>Is there something in this barrel...")
  RunCommonEvent(315)
  0()



EVENT   47
 PAGE   1
  // condition: switch 2037 is ON
  0()



EVENT   48
 PAGE   1
  If(1,1017,0,0,0)
   If(2,"A",1)
    ChangeSelfSwitch("A",0)
    ShowMessageFace("",0,0,2,1)
    ShowMessage("\\n<Flora>Welcome, travelers. I am Flora. I served as a maid for many a year in my prime.")
    If(4,64,0)
     ShowMessageFace("pramia_fc1",0,0,2,2)
     ShowMessage("\\n<Teeny>She's gotten old, but wow, what an elegant and soothing aura! So this is a legendary maid...")
     0()
    EndIf()
    ShowMessageFace("",0,0,2,3)
    ShowMessage("\\n<Flora>I presume you are familiar with my reputation. Are you disappointed to find me so aged?")
    ShowChoices(strings("Absolutely not","Kind of","This village is mine!"),0)
    IfPlayerPicksChoice(0,null)
     ShowMessageFace("",0,0,2,4)
     ShowMessage("\\n<Flora>Huhu, very suave. Would you like tea? It's quite good.")
     0()
    IfPlayerPicksChoice(1,null)
     ShowMessageFace("",0,0,2,5)
     ShowMessage("\\n<Flora>Huhu, an honest man, I see. Would you like tea? it's quite good.")
     0()
    IfPlayerPicksChoice(2,null)
     RunCommonEvent(303)
     ShowMessageFace("",0,0,2,6)
     ShowMessage("\\n<Flora>Oh my, has the long journey gotten to you? You shouldn't push yourself so hard...")
     0()
    404()
    250(bytes(0x04,0x08,0x6f,0x3a,0x0c,0x52,0x50,0x47,0x3a,0x3a,0x53,0x45,0x08,0x3a,0x0a,0x40,0x6e,0x61,0x6d,0x65,0x49,0x22,0x09,0x4d,0x6f,0x76,0x65,0x06,0x3a,0x06,0x45,0x54,0x3a,0x0b,0x40,0x70,0x69,0x74,0x63,0x68,0x69,0x69,0x3a,0x0c,0x40,0x76,0x6f,0x6c,0x75,0x6d,0x65,0x69,0x55))
    ChangeSwitch(2037,2037,0)
    205(47,bytes(0x04,0x08,0x6f,0x3a,0x13,0x52,0x50,0x47,0x3a,0x3a,0x4d,0x6f,0x76,0x65,0x52,0x6f,0x75,0x74,0x65,0x09,0x3a,0x0c,0x40,0x72,0x65,0x70,0x65,0x61,0x74,0x46,0x3a,0x0f,0x40,0x73,0x6b,0x69,0x70,0x70,0x61,0x62,0x6c,0x65,0x46,0x3a,0x0a,0x40,0x77,0x61,0x69,0x74,0x54,0x3a,0x0a,0x40,0x6c,0x69,0x73,0x74,0x5b,0x0b,0x6f,0x3a,0x15,0x52,0x50,0x47,0x3a,0x3a,0x4d,0x6f,0x76,0x65,0x43,0x6f,0x6d,0x6d,0x61,0x6e,0x64,0x07,0x3a,0x0a,0x40,0x63,0x6f,0x64,0x65,0x69,0x22,0x3a,0x10,0x40,0x70,0x61,0x72,0x61,0x6d,0x65,0x74,0x65,0x72,0x73,0x5b,0x06,0x69,0x09,0x6f,0x3b,0x0a,0x07,0x3b,0x0b,0x69,0x23,0x3b,0x0c,0x5b,0x06,0x69,0x09,0x6f,0x3b,0x0a,0x07,0x3b,0x0b,0x69,0x09,0x3b,0x0c,0x5b,0x00,0x6f,0x3b,0x0a,0x07,0x3b,0x0b,0x69,0x09,0x3b,0x0c,0x5b,0x00,0x6f,0x3b,0x0a,0x07,0x3b,0x0b,0x69,0x17,0x3b,0x0c,0x5b,0x00,0x6f,0x3b,0x0a,0x07,0x3b,0x0b,0x69,0x00,0x3b,0x0c,0x5b,0x00))
    ShowMessageFace("name_fc1",0,0,2,7)
    ShowMessage("\\n<Slug Girl>Ah, nice and warm...")
    205(0,bytes(0x04,0x08,0x6f,0x3a,0x13,0x52,0x50,0x47,0x3a,0x3a,0x4d,0x6f,0x76,0x65,0x52,0x6f,0x75,0x74,0x65,0x09,0x3a,0x0c,0x40,0x72,0x65,0x70,0x65,0x61,0x74,0x46,0x3a,0x0f,0x40,0x73,0x6b,0x69,0x70,0x70,0x61,0x62,0x6c,0x65,0x46,0x3a,0x0a,0x40,0x77,0x61,0x69,0x74,0x54,0x3a,0x0a,0x40,0x6c,0x69,0x73,0x74,0x5b,0x07,0x6f,0x3a,0x15,0x52,0x50,0x47,0x3a,0x3a,0x4d,0x6f,0x76,0x65,0x43,0x6f,0x6d,0x6d,0x61,0x6e,0x64,0x07,0x3a,0x0a,0x40,0x63,0x6f,0x64,0x65,0x69,0x15,0x3a,0x10,0x40,0x70,0x61,0x72,0x61,0x6d,0x65,0x74,0x65,0x72,0x73,0x5b,0x00,0x6f,0x3b,0x0a,0x07,0x3b,0x0b,0x69,0x00,0x3b,0x0c,0x5b,0x00))
    ShowMessageFace("",0,0,2,8)
    ShowMessage("\\n<Flora>Oh my, no knock first? That's quite unladylike, young miss.")
    205(47,bytes(0x04,0x08,0x6f,0x3a,0x13,0x52,0x50,0x47,0x3a,0x3a,0x4d,0x6f,0x76,0x65,0x52,0x6f,0x75,0x74,0x65,0x09,0x3a,0x0c,0x40,0x72,0x65,0x70,0x65,0x61,0x74,0x46,0x3a,0x0f,0x40,0x73,0x6b,0x69,0x70,0x70,0x61,0x62,0x6c,0x65,0x46,0x3a,0x0a,0x40,0x77,0x61,0x69,0x74,0x54,0x3a,0x0a,0x40,0x6c,0x69,0x73,0x74,0x5b,0x07,0x6f,0x3a,0x15,0x52,0x50,0x47,0x3a,0x3a,0x4d,0x6f,0x76,0x65,0x43,0x6f,0x6d,0x6d,0x61,0x6e,0x64,0x07,0x3a,0x0a,0x40,0x63,0x6f,0x64,0x65,0x69,0x18,0x3a,0x10,0x40,0x70,0x61,0x72,0x61,0x6d,0x65,0x74,0x65,0x72,0x73,0x5b,0x00,0x6f,0x3b,0x0a,0x07,0x3b,0x0b,0x69,0x00,0x3b,0x0c,0x5b,0x00))
    ShowMessageFace("name_fc1",0,0,2,9)
    ShowMessage("\\n<Slug Girl>I'm sorry...")
    205(47,bytes(0x04,0x08,0x6f,0x3a,0x13,0x52,0x50,0x47,0x3a,0x3a,0x4d,0x6f,0x76,0x65,0x52,0x6f,0x75,0x74,0x65,0x09,0x3a,0x0c,0x40,0x72,0x65,0x70,0x65,0x61,0x74,0x46,0x3a,0x0f,0x40,0x73,0x6b,0x69,0x70,0x70,0x61,0x62,0x6c,0x65,0x46,0x3a,0x0a,0x40,0x77,0x61,0x69,0x74,0x54,0x3a,0x0a,0x40,0x6c,0x69,0x73,0x74,0x5b,0x0d,0x6f,0x3a,0x15,0x52,0x50,0x47,0x3a,0x3a,0x4d,0x6f,0x76,0x65,0x43,0x6f,0x6d,0x6d,0x61,0x6e,0x64,0x07,0x3a,0x0a,0x40,0x63,0x6f,0x64,0x65,0x69,0x22,0x3a,0x10,0x40,0x70,0x61,0x72,0x61,0x6d,0x65,0x74,0x65,0x72,0x73,0x5b,0x06,0x69,0x09,0x6f,0x3b,0x0a,0x07,0x3b,0x0b,0x69,0x23,0x3b,0x0c,0x5b,0x06,0x69,0x09,0x6f,0x3b,0x0a,0x07,0x3b,0x0b,0x69,0x2a,0x3b,0x0c,0x5b,0x00,0x6f,0x3b,0x0a,0x07,0x3b,0x0b,0x69,0x06,0x3b,0x0c,0x5b,0x00,0x6f,0x3b,0x0a,0x07,0x3b,0x0b,0x69,0x06,0x3b,0x0c,0x5b,0x00,0x6f,0x3b,0x0a,0x07,0x3b,0x0b,0x69,0x06,0x3b,0x0c,0x5b,0x00,0x6f,0x3b,0x0a,0x07,0x3b,0x0b,0x69,0x06,0x3b,0x0c,0x5b,0x00,0x6f,0x3b,0x0a,0x07,0x3b,0x0b,0x69,0x00,0x3b,0x0c,0x5b,0x00))
    250(bytes(0x04,0x08,0x6f,0x3a,0x0c,0x52,0x50,0x47,0x3a,0x3a,0x53,0x45,0x08,0x3a,0x0a,0x40,0x6e,0x61,0x6d,0x65,0x49,0x22,0x09,0x4d,0x6f,0x76,0x65,0x06,0x3a,0x06,0x45,0x54,0x3a,0x0b,0x40,0x70,0x69,0x74,0x63,0x68,0x69,0x69,0x3a,0x0c,0x40,0x76,0x6f,0x6c,0x75,0x6d,0x65,0x69,0x55))
    ChangeSwitch(2037,2037,1)
    205(0,bytes(0x04,0x08,0x6f,0x3a,0x13,0x52,0x50,0x47,0x3a,0x3a,0x4d,0x6f,0x76,0x65,0x52,0x6f,0x75,0x74,0x65,0x09,0x3a,0x0c,0x40,0x72,0x65,0x70,0x65,0x61,0x74,0x46,0x3a,0x0f,0x40,0x73,0x6b,0x69,0x70,0x70,0x61,0x62,0x6c,0x65,0x46,0x3a,0x0a,0x40,0x77,0x61,0x69,0x74,0x54,0x3a,0x0a,0x40,0x6c,0x69,0x73,0x74,0x5b,0x07,0x6f,0x3a,0x15,0x52,0x50,0x47,0x3a,0x3a,0x4d,0x6f,0x76,0x65,0x43,0x6f,0x6d,0x6d,0x61,0x6e,0x64,0x07,0x3a,0x0a,0x40,0x63,0x6f,0x64,0x65,0x69,0x1e,0x3a,0x10,0x40,0x70,0x61,0x72,0x61,0x6d,0x65,0x74,0x65,0x72,0x73,0x5b,0x00,0x6f,0x3b,0x0a,0x07,0x3b,0x0b,0x69,0x00,0x3b,0x0c,0x5b,0x00))
    ShowMessageFace("",0,0,2,10)
    ShowMessage("\\n<Flora>I swear, what a pain. They may not attack anyone, but they sure are making nuisances of themselves.")
    ShowMessageFace("",0,0,2,11)
    ShowMessage("\\n<Flora>I am positive that the source of all these slugs is the Slug Tower to the west. They may have gotten a new boss...")
    If(0,6,0)
     ShowMessageFace("sonia_fc2",2,0,2,12)
     ShowMessage("\\n<Sonya>A new boss? Was there an old boss?")
     0()
    EndIf()
    ShowMessageFace("",0,0,2,13)
    ShowMessage("\\n<Flora>There was a similar slug infestation about 50 years ago. I'm embarrassed to admit it, but I was the one who defeated their boss back then.")
    If(0,6,0)
     ShowMessageFace("sonia_fc3",7,0,2,14)
     ShowMessage("\\n<Sonya>Whaaa!? YOU fought monsters!?")
     0()
    EndIf()
    ShowMessageFace("",0,0,2,15)
    ShowMessage("\\n<Flora>I was in my twenties then and in active military service. Pest control is part of a maid's duty too, after all.")
    ShowMessageFace("",0,0,2,16)
    ShowMessage("\\n<Flora>But now I'm an old lady who can barely walk. There's nothing I can do to help...")
    If(4,64,0)
     ShowMessageFace("pramia_fc1",0,0,2,17)
     ShowMessage("\\n<Teeny>Luka, let's exterminate the boss of the Slug Girls! I have to do my duty as a maid!")
     0()
    EndIf()
    DefineLabel("本題")
    ShowChoices(strings("Offer to deal with the slugs","Decline to help"),2)
    IfPlayerPicksChoice(0,null)
     ChangeVariable(1017,1017,0,0,1)
     ShowMessageFace("",0,0,2,18)
     ShowMessage("\\n<Flora>Oh my, you'll go there in my stead? Let me give you these to protect you.")
     250(bytes(0x04,0x08,0x6f,0x3a,0x0c,0x52,0x50,0x47,0x3a,0x3a,0x53,0x45,0x08,0x3a,0x0a,0x40,0x6e,0x61,0x6d,0x65,0x49,0x22,0x0a,0x49,0x74,0x65,0x6d,0x31,0x06,0x3a,0x06,0x45,0x54,0x3a,0x0b,0x40,0x70,0x69,0x74,0x63,0x68,0x69,0x69,0x3a,0x0c,0x40,0x76,0x6f,0x6c,0x75,0x6d,0x65,0x69,0x55))
     ChangeInventoryArmor(1580,0,0,2,false)
     ShowMessageFace("",0,0,2,19)
     ShowMessage("\\n<Flora>You'll take significant pleasure damage when slimed so please be careful.")
     DefineLabel("了承")
     ShowMessageFace("",0,0,2,20)
     ShowMessage("\\n<Flora>Please return here if you succeed. I will reward you with the \\ii[618].")
     ShowMessageFace("",0,0,2,21)
     ShowMessage("\\n<Flora>The Slug Tower is to the west from here. Cross the bridge west of the shrine and then head northwest.")
     If(4,64,0)
      ShowMessageFace("pramia_fc1",0,0,2,22)
      ShowMessage("\\n<Teeny>Okay, leave it to us! The slug boss is as good as gone!")
      0()
     EndIf()
     ShowMessageFace("",0,0,2,23)
     ShowMessage("\\n<Flora>Again, please take care. Don't do anything reckless.")
     EndEventProcessing()
     0()
    IfPlayerPicksChoice(1,null)
     ShowMessageFace("",0,0,2,24)
     ShowMessage("\\n<Flora>Ah, pardon me. I just can't help but complain about them when I see such strong, reliable, capable-looking travelers like yourselves.")
     EndEventProcessing()
     0()
    404()
    0()
   Else()
    ShowMessageFace("",0,0,2,25)
    ShowMessage("\\n<Flora>I swear, what a pain. These slugs sure are making nuisances of themselves.")
    JumpToLabel("本題")
    0()
   EndIf()
   0()
  EndIf()
  If(1,1017,0,1,0)
   JumpToLabel("了承")
   0()
  EndIf()
  If(1,1017,0,2,0)
   ShowMessageFace("",0,0,2,26)
   ShowMessage("\\n<Flora>I heard you managed to defeat the slug boss. I knew I could count on you.")
   If(4,64,0)
    ShowMessageFace("pramia_fc1",0,0,2,27)
    ShowMessage("\\n<Teeny>Ehehe... Am I on the road to becoming a legendary maid now?")
    ShowMessageFace("",0,0,2,28)
    ShowMessage("\\n<Flora>If you devote yourself to service and never waver, I'm sure you will succeed.")
    0()
   EndIf()
   If(0,6,0)
    ShowMessageFace("sonia_fc2",2,0,2,29)
    ShowMessage("\\n<Sonya>The village is still full of slugs though...")
    0()
   Else()
    ShowMessageFace("ruka_fc1",0,0,2,30)
    ShowMessage("\\n<Luka>The village is still full of slugs though...")
    0()
   EndIf()
   ShowMessageFace("",0,0,2,31)
   ShowMessage("\\n<Flora>Their numbers didn't immediately go down after I defeated their boss 50 years ago either.")
   ShowMessageFace("",0,0,2,32)
   ShowMessage("\\n<Flora>However, more of them won't be showing up, and by next year, we'll be back to normal.")
   If(4,53,0)
    ShowMessageFace("slime_fc1",2,0,2,33)
    ShowMessage("\\n<Lime>Everyone will have to wait a year then...")
    0()
   EndIf()
   ShowMessageFace("",0,0,2,34)
   ShowMessage("\\n<Flora>Now then, for your reward. As promised, here is the \\ii[618].")
   250(bytes(0x04,0x08,0x6f,0x3a,0x0c,0x52,0x50,0x47,0x3a,0x3a,0x53,0x45,0x08,0x3a,0x0a,0x40,0x6e,0x61,0x6d,0x65,0x49,0x22,0x0a,0x49,0x74,0x65,0x6d,0x31,0x06,0x3a,0x06,0x45,0x54,0x3a,0x0b,0x40,0x70,0x69,0x74,0x63,0x68,0x69,0x69,0x3a,0x0c,0x40,0x76,0x6f,0x6c,0x75,0x6d,0x65,0x69,0x55))
   ChangeInventory_Item(618,0,0,1)
   ShowMessageFace("",0,0,2,35)
   ShowMessage("\\n<Flora>With this, you can change your job to [Maid] at Ilias Temple. You can get more details about the job from someone there.")
   ShowMessageFace("",0,0,2,36)
   ShowMessage("\\n<Flora>Again, thank you so much. I pray for your continued success...")
   ChangeVariable(1017,1017,0,0,3)
   355("gain_medal(13)")
   EndEventProcessing()
   0()
  EndIf()
  If(1,1017,0,3,0)
   ShowMessageFace("",0,0,2,37)
   ShowMessage("\\n<Flora>How wonderful to see you! I'd love to offer you tea, but...")
   ShowMessageFace("",0,0,2,38)
   ShowMessage("\\n<Flora>The slugs were careless and ruined the tea leaves. I apologize for the inconvenience.")
   355("actor_label_jump")
   EndEventProcessing()
   DefineLabel("64")
   ShowMessageFace("pramia_fc1",0,0,2,39)
   ShowMessage("\\n<Teeny>Can I talk to you for a minute? There are lots of things you can teach me, I bet...")
   ShowMessageFace("",0,0,2,40)
   ShowMessage("\\n<Flora>Of course, I don't mind at all.")
   ShowMessageFace("",0,0,2,41)
   ShowMessage("Teeny asked Flora for help and learned a lot of new things!")
   EndEventProcessing()
   DefineLabel("87")
   ShowMessageFace("name2_fc2",1,0,2,42)
   ShowMessage("\\n<Melty>Ah, you were my predecessor's adversary I presume, Maid Flora?")
   ShowMessageFace("",0,0,2,43)
   ShowMessage("\\n<Flora>You are the slug bosses... Have you come here for revenge?")
   ShowMessageFace("name2_fc2",1,0,2,44)
   ShowMessage("\\n<Melty>That road has no end... We'd rather focus on having fun.")
   ShowMessageFace("",0,0,2,45)
   ShowMessage("\\n<Flora>It's pointless to fight when you don't have to, isn't it? It's admirable of you to not hold a grudge.")
   ShowMessageFace("name2_fc2",1,0,2,46)
   ShowMessage("\\n<Melty>It's nothing worth praising us over. We are neighbors, after all, and should get along.")
   EndEventProcessing()
   0()
  EndIf()
  0()



EVENT   49
 PAGE   1
  250(bytes(0x04,0x08,0x6f,0x3a,0x0c,0x52,0x50,0x47,0x3a,0x3a,0x53,0x45,0x08,0x3a,0x0a,0x40,0x6e,0x61,0x6d,0x65,0x49,0x22,0x0a,0x49,0x74,0x65,0x6d,0x31,0x06,0x3a,0x06,0x45,0x54,0x3a,0x0b,0x40,0x70,0x69,0x74,0x63,0x68,0x69,0x69,0x3a,0x0c,0x40,0x76,0x6f,0x6c,0x75,0x6d,0x65,0x69,0x55))
  ChangeSelfSwitch("A",0)
  ChangeInventory_Item(165,0,0,1)
  0()
 PAGE   2
  // condition: self-switch A is ON
  0()



EVENT   50
 PAGE   1
  250(bytes(0x04,0x08,0x6f,0x3a,0x0c,0x52,0x50,0x47,0x3a,0x3a,0x53,0x45,0x08,0x3a,0x0a,0x40,0x6e,0x61,0x6d,0x65,0x49,0x22,0x0a,0x49,0x74,0x65,0x6d,0x31,0x06,0x3a,0x06,0x45,0x54,0x3a,0x0b,0x40,0x70,0x69,0x74,0x63,0x68,0x69,0x69,0x3a,0x0c,0x40,0x76,0x6f,0x6c,0x75,0x6d,0x65,0x69,0x55))
  ChangeSelfSwitch("A",0)
  ChangeInventory_Item(21,0,0,1)
  0()
 PAGE   2
  // condition: self-switch A is ON
  0()



EVENT   51
 PAGE   1
  250(bytes(0x04,0x08,0x6f,0x3a,0x0c,0x52,0x50,0x47,0x3a,0x3a,0x53,0x45,0x08,0x3a,0x0a,0x40,0x6e,0x61,0x6d,0x65,0x49,0x22,0x0a,0x49,0x74,0x65,0x6d,0x31,0x06,0x3a,0x06,0x45,0x54,0x3a,0x0b,0x40,0x70,0x69,0x74,0x63,0x68,0x69,0x69,0x3a,0x0c,0x40,0x76,0x6f,0x6c,0x75,0x6d,0x65,0x69,0x55))
  ChangeSelfSwitch("A",0)
  ChangeInventory_Item(32,0,0,1)
  0()
 PAGE   2
  // condition: self-switch A is ON
  0()



EVENT   52
 PAGE   1
  250(bytes(0x04,0x08,0x6f,0x3a,0x0c,0x52,0x50,0x47,0x3a,0x3a,0x53,0x45,0x08,0x3a,0x0a,0x40,0x6e,0x61,0x6d,0x65,0x49,0x22,0x0a,0x49,0x74,0x65,0x6d,0x31,0x06,0x3a,0x06,0x45,0x54,0x3a,0x0b,0x40,0x70,0x69,0x74,0x63,0x68,0x69,0x69,0x3a,0x0c,0x40,0x76,0x6f,0x6c,0x75,0x6d,0x65,0x69,0x55))
  ChangeSelfSwitch("A",0)
  ChangeInventory_Item(7,0,0,1)
  0()
 PAGE   2
  // condition: self-switch A is ON
  0()



EVENT   53
 PAGE   1
  250(bytes(0x04,0x08,0x6f,0x3a,0x0c,0x52,0x50,0x47,0x3a,0x3a,0x53,0x45,0x08,0x3a,0x0a,0x40,0x6e,0x61,0x6d,0x65,0x49,0x22,0x0a,0x49,0x74,0x65,0x6d,0x31,0x06,0x3a,0x06,0x45,0x54,0x3a,0x0b,0x40,0x70,0x69,0x74,0x63,0x68,0x69,0x69,0x3a,0x0c,0x40,0x76,0x6f,0x6c,0x75,0x6d,0x65,0x69,0x55))
  ChangeSelfSwitch("A",0)
  ChangeInventory_Item(31,0,0,1)
  0()
 PAGE   2
  // condition: self-switch A is ON
  0()



EVENT   30
 PAGE   1
  ShowMessageFace("name_fc1",0,0,2,1)
  ShowMessage("\\n<Slug Girl>Nice and wet...")
  RunCommonEvent(315)
  0()



EVENT   54
 PAGE   1
  ShowMessageFace("",0,0,2,1)
  ShowMessage("\\n<Female Mage>You should hold on to any equipment with elemental resistances. You never know when you might need it again.")
  ShowMessageFace("",0,0,2,2)
  ShowMessage("\\n<Female Mage>For example, keep a Wind Shield around for whenever you fight enemies that use wind spells or abilities.")
  355("actor_label_jump")
  EndEventProcessing()
  DefineLabel("56")
  ShowMessageFace("inp_fc1",0,0,2,3)
  ShowMessage("\\n<Rami>Succubi have strong wind skills. If you're up against a powerful succubus, wind resist gear can really come in handy. ♪")
  EndEventProcessing()
  DefineLabel("74")
  ShowMessageFace("usagi_fc1",0,0,2,4)
  ShowMessage("\\n<Barnny>Yeah, you should definitely keep any shield with a resistance. They'll always be useful during the adventure.")
  EndEventProcessing()
  0()



EVENT   55
 PAGE   1
  ShowMessageFace("",0,0,2,1)
  ShowMessage("\\n<Guard>Thunder attribute attacks are extremely effective against slug type monsters. Since they're slimy, their bodies conduct electricity well.")
  355("actor_label_jump")
  EndEventProcessing()
  DefineLabel("55")
  ShowMessageFace("name_fc1",0,0,2,2)
  ShowMessage("\\n<Melk>Don't tell everyone about our weakness...")
  EndEventProcessing()
  DefineLabel("78")
  ShowMessageFace("syesta_fc1",0,0,2,3)
  ShowMessage("\\n<Shesta>I'll blow them away with my thunder magic.")
  EndEventProcessing()
  DefineLabel("85")
  ShowMessageFace("highslag_fc1",0,0,2,4)
  ShowMessage("\\n<Elizabeth>...could you keep that to yourself?")
  EndEventProcessing()
  0()



EVENT   56
 PAGE   1
  250(bytes(0x04,0x08,0x6f,0x3a,0x0c,0x52,0x50,0x47,0x3a,0x3a,0x53,0x45,0x08,0x3a,0x0a,0x40,0x6e,0x61,0x6d,0x65,0x49,0x22,0x0a,0x49,0x74,0x65,0x6d,0x31,0x06,0x3a,0x06,0x45,0x54,0x3a,0x0b,0x40,0x70,0x69,0x74,0x63,0x68,0x69,0x69,0x3a,0x0c,0x40,0x76,0x6f,0x6c,0x75,0x6d,0x65,0x69,0x55))
  ChangeSelfSwitch("A",0)
  ChangeInventory_Item(165,0,0,1)
  0()
 PAGE   2
  // condition: self-switch A is ON
  0()



EVENT   46
 PAGE   1
  ShowMessageFace("",0,0,2,1)
  ShowMessage("\\n<Youth>It's kind of annoying that they wander into houses like they belong here. Their slimy bodies are such a turn-on too...")
  ShowMessageFace("",0,0,2,2)
  ShowMessage("\\n<Youth>Last night one of them brushed up against my crotch... It was so slimy... and sticky...")
  ShowMessageFace("",0,0,2,3)
  ShowMessage("\\n<Youth>Well anyway, I might have helped increase their number even further... Ilias forgive me.")
  355("actor_label_jump")
  EndEventProcessing()
  DefineLabel("26")
  ShowMessageFace("iriasu_fc4",2,0,2,4)
  ShowMessage("\\n<Ilias>I will not. Instead, I shall prepare a special slug hell for you.")
  EndEventProcessing()
  DefineLabel("55")
  ShowMessageFace("name_fc1",0,0,2,5)
  ShowMessage("\\n<Melk>A momentary indiscretion eh... Well, you better take responsibility for it.")
  EndEventProcessing()
  DefineLabel("83")
  ShowMessageFace("hapy_a_fc1",0,0,2,6)
  ShowMessage("\\n<Reina>Ahaha, guess you got laid. ♪")
  EndEventProcessing()
  DefineLabel("87")
  ShowMessageFace("name2_fc2",1,0,2,7)
  ShowMessage("\\n<Melty>Ah, so you helped us reproduce...")
  EndEventProcessing()
  0()



EVENT   41
 PAGE   1
  ShowMessageFace("",0,0,2,1)
  ShowMessage("\\n<Youth>The huge number of slugs is certainly a nuisance, but it also led to a chance encounter for me.")
  ShowMessageFace("",0,0,2,2)
  ShowMessage("\\n<Youth>The slug across from me is my wife. Our first daughter is going to be born soon too.")
  ShowMessageFace("",0,0,2,3)
  ShowMessage("\\n<Youth>...oh, the random slug fishing through that barrel isn't related to us. My wife just won't let me put out any salt...")
  355("actor_label_jump")
  EndEventProcessing()
  DefineLabel("26")
  ShowMessageFace("iriasu_fc5",0,0,2,4)
  ShowMessage("\\n<Ilias>You MARRIED a Slug Girl!? I hope you enjoy slug hell after you die!")
  ShowMessageFace("iriasu_fc4",2,0,2,5)
  ShowMessage("\\n<Ilias>I'll have to get Eden to prepare a huge number of slugs. What a pain...")
  EndEventProcessing()
  0()
