
DisplayName "San Ilia Castle"



EVENT   1
 PAGE   1
  0()



EVENT   2
 PAGE   1
  0()



EVENT   3
 PAGE   1
  0()



EVENT   4
 PAGE   1
  0()



EVENT   5
 PAGE   1
  0()



EVENT   6
 PAGE   1
  0()



EVENT   7
 PAGE   1
  0()



EVENT   8
 PAGE   1
  0()



EVENT   15
 PAGE   1
  281(0)
  250(bytes(0x04,0x08,0x6f,0x3a,0x0c,0x52,0x50,0x47,0x3a,0x3a,0x53,0x45,0x08,0x3a,0x0a,0x40,0x6e,0x61,0x6d,0x65,0x49,0x22,0x09,0x4d,0x6f,0x76,0x65,0x06,0x3a,0x06,0x45,0x54,0x3a,0x0b,0x40,0x70,0x69,0x74,0x63,0x68,0x69,0x69,0x3a,0x0c,0x40,0x76,0x6f,0x6c,0x75,0x6d,0x65,0x69,0x55))
  TeleportPlayer(0,357,4,42,0,0)
  0()



EVENT   16
 PAGE   1
  281(0)
  250(bytes(0x04,0x08,0x6f,0x3a,0x0c,0x52,0x50,0x47,0x3a,0x3a,0x53,0x45,0x08,0x3a,0x0a,0x40,0x6e,0x61,0x6d,0x65,0x49,0x22,0x09,0x4d,0x6f,0x76,0x65,0x06,0x3a,0x06,0x45,0x54,0x3a,0x0b,0x40,0x70,0x69,0x74,0x63,0x68,0x69,0x69,0x3a,0x0c,0x40,0x76,0x6f,0x6c,0x75,0x6d,0x65,0x69,0x55))
  TeleportPlayer(0,356,19,1,0,0)
  0()



EVENT   20
 PAGE   1
  281(0)
  250(bytes(0x04,0x08,0x6f,0x3a,0x0c,0x52,0x50,0x47,0x3a,0x3a,0x53,0x45,0x08,0x3a,0x0a,0x40,0x6e,0x61,0x6d,0x65,0x49,0x22,0x09,0x4d,0x6f,0x76,0x65,0x06,0x3a,0x06,0x45,0x54,0x3a,0x0b,0x40,0x70,0x69,0x74,0x63,0x68,0x69,0x69,0x3a,0x0c,0x40,0x76,0x6f,0x6c,0x75,0x6d,0x65,0x69,0x55))
  TeleportPlayer(0,27,40,12,0,0)
  0()



EVENT   17
 PAGE   1
  281(0)
  250(bytes(0x04,0x08,0x6f,0x3a,0x0c,0x52,0x50,0x47,0x3a,0x3a,0x53,0x45,0x08,0x3a,0x0a,0x40,0x6e,0x61,0x6d,0x65,0x49,0x22,0x09,0x4d,0x6f,0x76,0x65,0x06,0x3a,0x06,0x45,0x54,0x3a,0x0b,0x40,0x70,0x69,0x74,0x63,0x68,0x69,0x69,0x3a,0x0c,0x40,0x76,0x6f,0x6c,0x75,0x6d,0x65,0x69,0x55))
  TeleportPlayer(0,356,19,1,0,0)
  0()



EVENT   18
 PAGE   1
  281(0)
  250(bytes(0x04,0x08,0x6f,0x3a,0x0c,0x52,0x50,0x47,0x3a,0x3a,0x53,0x45,0x08,0x3a,0x0a,0x40,0x6e,0x61,0x6d,0x65,0x49,0x22,0x09,0x4d,0x6f,0x76,0x65,0x06,0x3a,0x06,0x45,0x54,0x3a,0x0b,0x40,0x70,0x69,0x74,0x63,0x68,0x69,0x69,0x3a,0x0c,0x40,0x76,0x6f,0x6c,0x75,0x6d,0x65,0x69,0x55))
  TeleportPlayer(0,356,19,1,0,0)
  0()



EVENT   19
 PAGE   1
  281(0)
  250(bytes(0x04,0x08,0x6f,0x3a,0x0c,0x52,0x50,0x47,0x3a,0x3a,0x53,0x45,0x08,0x3a,0x0a,0x40,0x6e,0x61,0x6d,0x65,0x49,0x22,0x09,0x4d,0x6f,0x76,0x65,0x06,0x3a,0x06,0x45,0x54,0x3a,0x0b,0x40,0x70,0x69,0x74,0x63,0x68,0x69,0x69,0x3a,0x0c,0x40,0x76,0x6f,0x6c,0x75,0x6d,0x65,0x69,0x55))
  TeleportPlayer(0,356,19,1,0,0)
  0()



EVENT   11
 PAGE   1
  281(0)
  250(bytes(0x04,0x08,0x6f,0x3a,0x0c,0x52,0x50,0x47,0x3a,0x3a,0x53,0x45,0x08,0x3a,0x0a,0x40,0x6e,0x61,0x6d,0x65,0x49,0x22,0x09,0x4d,0x6f,0x76,0x65,0x06,0x3a,0x06,0x45,0x54,0x3a,0x0b,0x40,0x70,0x69,0x74,0x63,0x68,0x69,0x69,0x3a,0x0c,0x40,0x76,0x6f,0x6c,0x75,0x6d,0x65,0x69,0x55))
  TeleportPlayer(0,357,4,42,0,0)
  0()



EVENT   12
 PAGE   1
  281(0)
  250(bytes(0x04,0x08,0x6f,0x3a,0x0c,0x52,0x50,0x47,0x3a,0x3a,0x53,0x45,0x08,0x3a,0x0a,0x40,0x6e,0x61,0x6d,0x65,0x49,0x22,0x09,0x4d,0x6f,0x76,0x65,0x06,0x3a,0x06,0x45,0x54,0x3a,0x0b,0x40,0x70,0x69,0x74,0x63,0x68,0x69,0x69,0x3a,0x0c,0x40,0x76,0x6f,0x6c,0x75,0x6d,0x65,0x69,0x55))
  TeleportPlayer(0,357,4,42,0,0)
  0()



EVENT   13
 PAGE   1
  281(0)
  250(bytes(0x04,0x08,0x6f,0x3a,0x0c,0x52,0x50,0x47,0x3a,0x3a,0x53,0x45,0x08,0x3a,0x0a,0x40,0x6e,0x61,0x6d,0x65,0x49,0x22,0x09,0x4d,0x6f,0x76,0x65,0x06,0x3a,0x06,0x45,0x54,0x3a,0x0b,0x40,0x70,0x69,0x74,0x63,0x68,0x69,0x69,0x3a,0x0c,0x40,0x76,0x6f,0x6c,0x75,0x6d,0x65,0x69,0x55))
  TeleportPlayer(0,357,4,42,0,0)
  0()



EVENT   14
 PAGE   1
  281(0)
  250(bytes(0x04,0x08,0x6f,0x3a,0x0c,0x52,0x50,0x47,0x3a,0x3a,0x53,0x45,0x08,0x3a,0x0a,0x40,0x6e,0x61,0x6d,0x65,0x49,0x22,0x09,0x4d,0x6f,0x76,0x65,0x06,0x3a,0x06,0x45,0x54,0x3a,0x0b,0x40,0x70,0x69,0x74,0x63,0x68,0x69,0x69,0x3a,0x0c,0x40,0x76,0x6f,0x6c,0x75,0x6d,0x65,0x69,0x55))
  TeleportPlayer(0,357,4,42,0,0)
  0()



EVENT   21
 PAGE   1
  281(0)
  250(bytes(0x04,0x08,0x6f,0x3a,0x0c,0x52,0x50,0x47,0x3a,0x3a,0x53,0x45,0x08,0x3a,0x0a,0x40,0x6e,0x61,0x6d,0x65,0x49,0x22,0x09,0x4d,0x6f,0x76,0x65,0x06,0x3a,0x06,0x45,0x54,0x3a,0x0b,0x40,0x70,0x69,0x74,0x63,0x68,0x69,0x69,0x3a,0x0c,0x40,0x76,0x6f,0x6c,0x75,0x6d,0x65,0x69,0x55))
  TeleportPlayer(0,27,40,12,0,0)
  0()



EVENT   22
 PAGE   1
  281(0)
  250(bytes(0x04,0x08,0x6f,0x3a,0x0c,0x52,0x50,0x47,0x3a,0x3a,0x53,0x45,0x08,0x3a,0x0a,0x40,0x6e,0x61,0x6d,0x65,0x49,0x22,0x09,0x4d,0x6f,0x76,0x65,0x06,0x3a,0x06,0x45,0x54,0x3a,0x0b,0x40,0x70,0x69,0x74,0x63,0x68,0x69,0x69,0x3a,0x0c,0x40,0x76,0x6f,0x6c,0x75,0x6d,0x65,0x69,0x55))
  TeleportPlayer(0,27,40,12,0,0)
  0()



EVENT   23
 PAGE   1
  281(0)
  250(bytes(0x04,0x08,0x6f,0x3a,0x0c,0x52,0x50,0x47,0x3a,0x3a,0x53,0x45,0x08,0x3a,0x0a,0x40,0x6e,0x61,0x6d,0x65,0x49,0x22,0x09,0x4d,0x6f,0x76,0x65,0x06,0x3a,0x06,0x45,0x54,0x3a,0x0b,0x40,0x70,0x69,0x74,0x63,0x68,0x69,0x69,0x3a,0x0c,0x40,0x76,0x6f,0x6c,0x75,0x6d,0x65,0x69,0x55))
  TeleportPlayer(0,27,40,12,0,0)
  0()



EVENT   24
 PAGE   1
  281(0)
  250(bytes(0x04,0x08,0x6f,0x3a,0x0c,0x52,0x50,0x47,0x3a,0x3a,0x53,0x45,0x08,0x3a,0x0a,0x40,0x6e,0x61,0x6d,0x65,0x49,0x22,0x09,0x4d,0x6f,0x76,0x65,0x06,0x3a,0x06,0x45,0x54,0x3a,0x0b,0x40,0x70,0x69,0x74,0x63,0x68,0x69,0x69,0x3a,0x0c,0x40,0x76,0x6f,0x6c,0x75,0x6d,0x65,0x69,0x55))
  TeleportPlayer(0,27,40,12,0,0)
  0()



EVENT   25
 PAGE   1
  281(0)
  250(bytes(0x04,0x08,0x6f,0x3a,0x0c,0x52,0x50,0x47,0x3a,0x3a,0x53,0x45,0x08,0x3a,0x0a,0x40,0x6e,0x61,0x6d,0x65,0x49,0x22,0x09,0x4d,0x6f,0x76,0x65,0x06,0x3a,0x06,0x45,0x54,0x3a,0x0b,0x40,0x70,0x69,0x74,0x63,0x68,0x69,0x69,0x3a,0x0c,0x40,0x76,0x6f,0x6c,0x75,0x6d,0x65,0x69,0x55))
  TeleportPlayer(0,27,40,12,0,0)
  0()



EVENT   29
 PAGE   1
  281(0)
  250(bytes(0x04,0x08,0x6f,0x3a,0x0c,0x52,0x50,0x47,0x3a,0x3a,0x53,0x45,0x08,0x3a,0x0a,0x40,0x6e,0x61,0x6d,0x65,0x49,0x22,0x09,0x4d,0x6f,0x76,0x65,0x06,0x3a,0x06,0x45,0x54,0x3a,0x0b,0x40,0x70,0x69,0x74,0x63,0x68,0x69,0x69,0x3a,0x0c,0x40,0x76,0x6f,0x6c,0x75,0x6d,0x65,0x69,0x55))
  TeleportPlayer(0,588,3,14,6,0)
  0()



EVENT   30
 PAGE   1
  ShowMessageFace("",0,0,2,1)
  ShowMessage("\\n<Guard>Welcome to San Ilia Castle. We're open to all citizens.")
  355("actor_label_jump")
  EndEventProcessing()
  DefineLabel("531")
  ShowMessageFace("saniria_fc2",0,0,2,2)
  ShowMessage("\\n<King of San Ilia>Mhm, keep up the good work.")
  EndEventProcessing()
  0()



EVENT   31
 PAGE   1
  If(1,1001,0,14,2)
   ChangeVariable(1001,1001,0,0,14)
   0()
  EndIf()
  205(-1,bytes(0x04,0x08,0x6f,0x3a,0x13,0x52,0x50,0x47,0x3a,0x3a,0x4d,0x6f,0x76,0x65,0x52,0x6f,0x75,0x74,0x65,0x09,0x3a,0x0c,0x40,0x72,0x65,0x70,0x65,0x61,0x74,0x46,0x3a,0x0f,0x40,0x73,0x6b,0x69,0x70,0x70,0x61,0x62,0x6c,0x65,0x46,0x3a,0x0a,0x40,0x77,0x61,0x69,0x74,0x54,0x3a,0x0a,0x40,0x6c,0x69,0x73,0x74,0x5b,0x07,0x6f,0x3a,0x15,0x52,0x50,0x47,0x3a,0x3a,0x4d,0x6f,0x76,0x65,0x43,0x6f,0x6d,0x6d,0x61,0x6e,0x64,0x07,0x3a,0x0a,0x40,0x63,0x6f,0x64,0x65,0x69,0x16,0x3a,0x10,0x40,0x70,0x61,0x72,0x61,0x6d,0x65,0x74,0x65,0x72,0x73,0x5b,0x00,0x6f,0x3b,0x0a,0x07,0x3b,0x0b,0x69,0x00,0x3b,0x0c,0x5b,0x00))
  ShowMessageFace("",0,0,0,1)
  ShowMessage("\\n<Guard>Do you desire an audience with His Holiness the Pope? If you have been baptized, please tell me the name of your hometown is and when your baptism took place.")
  ShowMessageFace("ruka_fc1",0,0,0,2)
  ShowMessage("\\n<Luka>Luka, born in Iliasville, baptized on the 1st of May, 1455.")
  ShowMessageFace("",0,0,0,3)
  ShowMessage("\\n<Guard>Looks like you're on the list. Wait, this is... a special audience permission?!")
  ShowMessageFace("",0,0,0,4)
  ShowMessage("\\n<Guard>Um, please this way. His Holiness considers your audience a top priority.")
  If(0,6,0)
   ShowMessageFace("sonia_fc1",4,0,0,5)
   ShowMessage("\\n<Sonya>Oh, I get it. The higher-ups must've been told that Ilias descended for your baptism.")
   ShowMessageFace("sonia_fc1",3,0,0,6)
   ShowMessage("\\n<Sonya>The VIP treatment feels kinda good. ♪")
   0()
  Else()
   ShowMessageFace("ruka_fc1",0,0,0,7)
   ShowMessage("\\n<Luka>Eh? Ah, I see, someone must have informed the higher-ups that Ilias descended for my baptism.")
   0()
  EndIf()
  If(4,66,0)
   ShowMessageFace("vgirl_fc1",0,0,2,8)
   ShowMessage("\\n<Vanilla>Makes me feel important! Maybe there's a business opportunity in this...")
   0()
  EndIf()
  ShowMessageFace("",0,0,0,9)
  ShowMessage("And so, we were taken to the King of San Ilia.")
  221()
  Wait(60)
  TeleportPlayer(0,355,7,19,8,2)
  222()
  Wait(30)
  PictureDisplay(5,"80_saniria_st01",0,0,0,0,100,100,0,0)
  PictureMove(5,null,0,0,0,0,100,100,255,0,30,true)
  ShowMessageFace("saniria_fc1",0,0,2,10)
  ShowMessage("\\n<King of San Ilia>I am Peter the 14th, the ruler of San Ilia. I have heard that Ilias herself descended during your baptism.")
  If(0,6,0)
   ShowMessageFace("sonia_fc7",4,0,2,11)
   ShowMessage("\\n<Sonya>We are truly honored beyond measure to be granted an audience with Your Holiness. Meeting you in person is a joy incomparable to any other.")
   ShowMessageFace("ruka_fc1",0,0,2,12)
   ShowMessage("\\n<Luka>(When did she get so formal?!)")
   0()
  Else()
   ShowMessageFace("ruka_fc1",0,0,2,13)
   ShowMessage("\\n<Luka>Um, we're grateful for the audience, and, er, we feel very lucky to have met you in p–")
   0()
  EndIf()
  If(0,4,0)
   ShowMessageFace("alice_fc5",0,0,2,14)
   ShowMessage("\\n<Alice>Let's put aside the hellos and pleasantries and get to the point. Pete, do you have any information on a white rabbit monster?")
   0()
  EndIf()
  If(0,5,0)
   ShowMessageFace("iriasu_fc4",0,0,2,15)
   ShowMessage("\\n<Ilias>Leave the sophist greetings for later. King of San Ilia, do you know anything concerning a white rabbit monster?")
   0()
  EndIf()
  ShowMessageFace("saniria_fc1",0,0,2,16)
  ShowMessage("\\n<King of San Ilia>A white rabbit? Unfortunately, this is the first time I've heard of such a monster. I'll consult our archives later, but I doubt I'll find anything.")
  If(0,4,0)
   ShowMessageFace("alice_fc5",3,0,2,17)
   ShowMessage("\\n<Alice>Well, I suspected as much. If she's a mystery to me, the Monster Lord, there's no way humans would know about her.")
   ShowMessageFace("alice_fc5",0,0,2,18)
   ShowMessage("\\n<Alice>What about Luka's father, the hero Marcellus? He was pretty famous a few decades ago, so there should be some records of him.")
   0()
  EndIf()
  If(0,5,0)
   ShowMessageFace("iriasu_fc4",2,0,2,19)
   ShowMessage("\\n<Ilias>I can't imagine that there will be any information about the White Rabbit in human literature. Which means her current whereabouts remain unknown... ")
   ShowMessageFace("iriasu_fc4",0,0,2,20)
   ShowMessage("\\n<Ilias>Then, how about Luka's father, Marcellus? He was a famous hero a few decades ago, so he should have left some records behind.")
   0()
  EndIf()
  ShowMessageFace("saniria_fc1",0,0,2,21)
  ShowMessage("\\n<King of San Ilia>The hero Marcellus... We've investigated him quite a bit, actually. After all, there was a chance he was connected to my attempted assassination a few years ago.")
  If(0,6,0)
   ShowMessageFace("sonia_fc6",2,0,2,22)
   ShowMessage("\\n<Sonya>Oh right, after that assassination attempt, Uncle Lazarus became a suspect, so his friends were investigated as well.")
   ShowMessageFace("sonia_fc8",0,0,2,23)
   ShowMessage("\\n<Sonya>...Of course, Uncle Lazarus is innocent. People just easily misjudge him.")
   0()
  Else()
   ShowMessageFace("ruka_fc1",0,0,2,24)
   ShowMessage("\\n<Luka>Oh right, the assassination attempt. Since Uncle Lazarus was a suspect, you also investigated his friends.")
   0()
  EndIf()
  ShowMessageFace("saniria_fc1",0,0,2,25)
  ShowMessage("\\n<King of San Ilia>Lazarus is something of a surrogate parent to you, correct? Strange how our lives can intersect. But that's not important right now.")
  ShowMessageFace("saniria_fc1",0,0,2,26)
  ShowMessage("\\n<King of San Ilia>While we did acquire some information back then, I suspect it's nothing you don't already know.")
  ShowMessageFace("saniria_fc1",0,0,2,27)
  ShowMessage("\\n<King of San Ilia>He was a man of high morals, and he helped many people during his journey. There was nothing suspicious about him. A model hero, so to speak.")
  ShowMessageFace("saniria_fc1",0,0,2,28)
  ShowMessage("\\n<King of San Ilia>But, several years ago, he left on another journey, alone, this time, and then vanished completely.")
  If(4,118,0)
   ShowMessageFace("meia_fc1",1,0,2,29)
   ShowMessage("\\n<Meia>Well, he seems like a wonderful person.")
   0()
  EndIf()
  If(0,4,0)
   ShowMessageFace("alice_fc5",0,0,2,30)
   ShowMessage("\\n<Alice>Nothing new there. Still, to think that before he started his second journey there was practically nothing suspicious about him...")
   0()
  EndIf()
  If(0,5,0)
   ShowMessageFace("iriasu_fc4",2,0,2,31)
   ShowMessage("\\n<Ilias>No new information, then. As I thought, before setting out on his second journey there was nothing suspicious about him.")
   0()
  EndIf()
  ShowMessageFace("saniria_fc1",0,0,2,32)
  ShowMessage("\\n<King of San Ilia>However, recently he's been sighted in several far-flung places.")
  ShowMessageFace("saniria_fc1",0,0,2,33)
  ShowMessage("\\n<King of San Ilia>The east of Ilias Continent, the Tartarus north of Sabasa... The man has made a number of curious appearances.")
  ShowMessageFace("ruka_fc1",0,0,2,34)
  ShowMessage("\\n<Luka>So, he's in Tartarus after all...")
  If(4,41,0)
   ShowMessageFace("stein_fc2",0,0,2,35)
   ShowMessage("\\n<Promestein>As we thought, he's moving between different worlds. But why?")
   0()
  EndIf()
  ShowMessageFace("saniria_fc1",0,0,2,36)
  ShowMessage("\\n<King of San Ilia>There was also one sighting that may concern you directly. Some have reported seeing him in this castle's library, the Underground Library.")
  ShowMessageFace("ruka_fc1",0,0,2,37)
  ShowMessage("\\n<Luka>Eh?! Here?! When did that happen?")
  ShowMessageFace("saniria_fc1",0,0,2,38)
  ShowMessage("\\n<King of San Ilia>A year ago. Moreover, it seems he donated a book to the Library, or at least left it behind.")
  ShowMessageFace("saniria_fc1",0,0,2,39)
  ShowMessage("\\n<King of San Ilia>It's an old tome called [Four Animists and their Sources]. I honestly couldn't tell you why he left it, though.")
  If(0,4,0)
   ShowMessageFace("alice_fc5",0,0,2,40)
   ShowMessage("\\n<Alice>He left a book about the worship of the Four Spirits? That's... pretty odd.")
   0()
  EndIf()
  If(0,5,0)
   ShowMessageFace("iriasu_fc4",2,0,2,41)
   ShowMessage("\\n<Ilias>A book about the pagan faith in those abominable spirits? I'm unable to read his intentions at all.")
   0()
  EndIf()
  If(4,79,0)
   ShowMessageFace("nuruko_fc1",0,0,2,42)
   ShowMessage("\\n<Nuruko>Kyuu! Kyukyukyuu!")
   0()
  EndIf()
  ShowMessageFace("ruka_fc1",0,0,2,43)
  ShowMessage("\\n<Luka>Is that book still in the Underground Library?")
  ShowMessageFace("saniria_fc1",0,0,2,44)
  ShowMessage("\\n<King of San Ilia>It's stored in the Library's deepest section. I wouldn't mind giving it to you, since you're his relative, but...")
  PictureDisplay(5,"80_saniria_st03",0,0,0,0,100,100,255,0)
  ShowMessageFace("saniria_fc1",2,0,2,45)
  ShowMessage("\\n<King of San Ilia>Vexingly enough, much of the Underground Library has been occupied by monsters and turned into a dungeon. It's very dangerous to enter it now.")
  If(0,4,0)
   ShowMessageFace("alice_fc5",3,0,2,46)
   ShowMessage("\\n<Alice>That, too, must be because of the recent anomalies. How very unsightly for the heart of Ilias's faith to be invaded like this.")
   0()
  EndIf()
  If(0,5,0)
   ShowMessageFace("iriasu_fc4",2,0,2,47)
   ShowMessage("\\n<Ilias>This, too, must be a result of the recent aberrations. For the very center of my faith to be subjugated by demons is...")
   0()
  EndIf()
  ShowMessageFace("ruka_fc1",0,0,2,48)
  ShowMessage("\\n<Luka>Don't worry, we'll get that book!")
  If(4,68,0)
   ShowMessageFace("dragonp_fc1",0,0,2,49)
   ShowMessage("\\n<Papi>Uga! Let's beat up anyone who stands in our way!")
   0()
  EndIf()
  PictureDisplay(5,"80_saniria_st01",0,0,0,0,100,100,255,0)
  ShowMessageFace("saniria_fc1",0,0,2,50)
  ShowMessage("\\n<King of San Ilia>Hmm. Be careful. I pray that the information you obtain is useful to you.")
  If(0,4,0)
   ShowMessageFace("alice_fc5",1,0,2,51)
   ShowMessage("\\n<Alice>All right, let's go right away! Marcellus might have left a message for Luka down there!")
   0()
  EndIf()
  If(0,5,0)
   ShowMessageFace("iriasu_fc4",0,0,2,52)
   ShowMessage("\\n<Ilias>Let us go immediately! That tome may contain a message intended for Luka!")
   0()
  EndIf()
  If(0,6,0)
   ShowMessageFace("sonia_fc6",2,0,2,53)
   ShowMessage("\\n<Sonya>Um, wait a sec. Our business may be done here, but shouldn't we also ask His Holiness if we can help him with anything?")
   0()
  Else()
   ShowMessageFace("ruka_fc1",0,0,2,54)
   ShowMessage("\\n<Luka>Er, wait a moment. After all he's done for us, shouldn't we also ask the Pope if he could use our help as well?")
   0()
  EndIf()
  If(4,72,0)
   ShowMessageFace("phoenix_fc1",3,0,2,55)
   ShowMessage("\\n<Mini>Pooope needs something? Go on, say it, I'll listen.")
   0()
  EndIf()
  ShowMessageFace("saniria_fc1",0,0,2,56)
  ShowMessage("\\n<King of San Ilia>Mm, there is actually something I would like to request of you, but you should finish your own business here first.")
  ShowMessageFace("saniria_fc1",0,0,2,57)
  ShowMessage("\\n<King of San Ilia>Return after you retrieve your book, and I will tell you the details of my request.")
  ShowMessageFace("ruka_fc1",0,0,2,58)
  ShowMessage("\\n<Luka>Understood. We'll come back as soon as possible.")
  If(4,62,0)
   ShowMessageFace("gob_fc1",0,0,2,59)
   ShowMessage("\\n<Gob>Let's rush through the Library!")
   0()
  EndIf()
  If(4,79,0)
   ShowMessageFace("nuruko_fc1",0,0,2,60)
   ShowMessage("\\n<Nuruko>Kyukyuu!!")
   0()
  EndIf()
  PictureClear(5)
  ShowMessageFace("",0,0,2,61)
  ShowMessage("In the Underground Library is a book Dad my left behind.")
  ShowMessageFace("",0,0,2,62)
  ShowMessage("If I can get that, then maybe I'll understand his actions. Our next goal is to get that tome!")
  0()
 PAGE   2
  // condition: variable 1001 >= 14
  0()



EVENT   32
 PAGE   1
  PictureDisplay(5,"80_saniria_st01",0,0,0,0,100,100,0,0)
  PictureMove(5,null,0,0,0,0,100,100,255,0,30,true)
  If(6,-1,4)
   ShowMessageFace("saniria_fc1",3,0,2,1)
   ShowMessage("\\n<King of San Ilia>Why would you approach me from that direction? I'm sorry, but could you please speak with me from the front?")
   PictureClear(5)
   EndEventProcessing()
   0()
  EndIf()
  If(6,-1,6)
   ShowMessageFace("saniria_fc1",3,0,2,2)
   ShowMessage("\\n<King of San Ilia>Why would you approach me from that direction? I'm sorry, but could you please speak with me from the front?")
   PictureClear(5)
   EndEventProcessing()
   0()
  EndIf()
  If(1,1022,0,0,0)
   ShowMessageFace("saniria_fc1",0,0,2,3)
   ShowMessage("\\n<King of San Ilia>There is something I want to request of you, but you should finish your own business here first.")
   ShowMessageFace("saniria_fc1",0,0,2,4)
   ShowMessage("\\n<King of San Ilia>After you retrieve your book, come talk with me again, and I shall tell you the details of my request. ")
   PictureClear(5)
   EndEventProcessing()
   0()
  EndIf()
  If(1,1022,0,1,0)
   If(2,"A",1)
    ChangeSelfSwitch("A",0)
    ShowMessageFace("saniria_fc1",0,0,2,5)
    ShowMessage("\\n<King of San Ilia>It appears that you have found your path. Seems that the book was indeed useful to you.")
    ShowMessageFace("saniria_fc1",0,0,2,6)
    ShowMessage("\\n<King of San Ilia>Now, as I told you before, there is something I wish to urgently request of you.")
    If(4,72,0)
     ShowMessageFace("phoenix_fc1",1,0,2,7)
     ShowMessage("\\n<Mini>Whatever you want! If you have nowhere to live, you can live in our place!")
     0()
    EndIf()
    If(0,2066,1)
     PictureClear(5)
     Wait(15)
     ChangeSwitch(2067,2067,0)
     205(36,bytes(0x04,0x08,0x6f,0x3a,0x13,0x52,0x50,0x47,0x3a,0x3a,0x4d,0x6f,0x76,0x65,0x52,0x6f,0x75,0x74,0x65,0x09,0x3a,0x0c,0x40,0x72,0x65,0x70,0x65,0x61,0x74,0x46,0x3a,0x0f,0x40,0x73,0x6b,0x69,0x70,0x70,0x61,0x62,0x6c,0x65,0x46,0x3a,0x0a,0x40,0x77,0x61,0x69,0x74,0x54,0x3a,0x0a,0x40,0x6c,0x69,0x73,0x74,0x5b,0x07,0x6f,0x3a,0x15,0x52,0x50,0x47,0x3a,0x3a,0x4d,0x6f,0x76,0x65,0x43,0x6f,0x6d,0x6d,0x61,0x6e,0x64,0x07,0x3a,0x0a,0x40,0x63,0x6f,0x64,0x65,0x69,0x07,0x3a,0x10,0x40,0x70,0x61,0x72,0x61,0x6d,0x65,0x74,0x65,0x72,0x73,0x5b,0x00,0x6f,0x3b,0x0a,0x07,0x3b,0x0b,0x69,0x00,0x3b,0x0c,0x5b,0x00))
     205(0,bytes(0x04,0x08,0x6f,0x3a,0x13,0x52,0x50,0x47,0x3a,0x3a,0x4d,0x6f,0x76,0x65,0x52,0x6f,0x75,0x74,0x65,0x09,0x3a,0x0c,0x40,0x72,0x65,0x70,0x65,0x61,0x74,0x46,0x3a,0x0f,0x40,0x73,0x6b,0x69,0x70,0x70,0x61,0x62,0x6c,0x65,0x46,0x3a,0x0a,0x40,0x77,0x61,0x69,0x74,0x54,0x3a,0x0a,0x40,0x6c,0x69,0x73,0x74,0x5b,0x07,0x6f,0x3a,0x15,0x52,0x50,0x47,0x3a,0x3a,0x4d,0x6f,0x76,0x65,0x43,0x6f,0x6d,0x6d,0x61,0x6e,0x64,0x07,0x3a,0x0a,0x40,0x63,0x6f,0x64,0x65,0x69,0x17,0x3a,0x10,0x40,0x70,0x61,0x72,0x61,0x6d,0x65,0x74,0x65,0x72,0x73,0x5b,0x00,0x6f,0x3b,0x0a,0x07,0x3b,0x0b,0x69,0x00,0x3b,0x0c,0x5b,0x00))
     ShowMessageFace("",0,0,2,8)
     ShowMessage("\\n<Knight Commander>Your Holiness, my apologies for intruding, but going with these people is far too dangerous!")
     If(4,62,0)
      ShowMessageFace("gob_fc1",3,0,2,9)
      ShowMessage("\\n<Gob>First they ask for us to come talk with them, then they tell us to get lost. C'mon, which is it?!")
      0()
     EndIf()
     205(36,bytes(0x04,0x08,0x6f,0x3a,0x13,0x52,0x50,0x47,0x3a,0x3a,0x4d,0x6f,0x76,0x65,0x52,0x6f,0x75,0x74,0x65,0x09,0x3a,0x0c,0x40,0x72,0x65,0x70,0x65,0x61,0x74,0x46,0x3a,0x0f,0x40,0x73,0x6b,0x69,0x70,0x70,0x61,0x62,0x6c,0x65,0x46,0x3a,0x0a,0x40,0x77,0x61,0x69,0x74,0x54,0x3a,0x0a,0x40,0x6c,0x69,0x73,0x74,0x5b,0x07,0x6f,0x3a,0x15,0x52,0x50,0x47,0x3a,0x3a,0x4d,0x6f,0x76,0x65,0x43,0x6f,0x6d,0x6d,0x61,0x6e,0x64,0x07,0x3a,0x0a,0x40,0x63,0x6f,0x64,0x65,0x69,0x15,0x3a,0x10,0x40,0x70,0x61,0x72,0x61,0x6d,0x65,0x74,0x65,0x72,0x73,0x5b,0x00,0x6f,0x3b,0x0a,0x07,0x3b,0x0b,0x69,0x00,0x3b,0x0c,0x5b,0x00))
     ShowMessageFace("",0,0,2,10)
     ShowMessage("\\n<Knight Commander>My apologies if I've soured your mood. However, this is an extremely dangerous mission.")
     ShowMessageFace("",0,0,2,11)
     ShowMessage("\\n<Knight Commander>Normally, at least an entire platoon would have been assigned this task. To do it with less than ten people is...")
     205(36,bytes(0x04,0x08,0x6f,0x3a,0x13,0x52,0x50,0x47,0x3a,0x3a,0x4d,0x6f,0x76,0x65,0x52,0x6f,0x75,0x74,0x65,0x09,0x3a,0x0c,0x40,0x72,0x65,0x70,0x65,0x61,0x74,0x46,0x3a,0x0f,0x40,0x73,0x6b,0x69,0x70,0x70,0x61,0x62,0x6c,0x65,0x46,0x3a,0x0a,0x40,0x77,0x61,0x69,0x74,0x54,0x3a,0x0a,0x40,0x6c,0x69,0x73,0x74,0x5b,0x07,0x6f,0x3a,0x15,0x52,0x50,0x47,0x3a,0x3a,0x4d,0x6f,0x76,0x65,0x43,0x6f,0x6d,0x6d,0x61,0x6e,0x64,0x07,0x3a,0x0a,0x40,0x63,0x6f,0x64,0x65,0x69,0x16,0x3a,0x10,0x40,0x70,0x61,0x72,0x61,0x6d,0x65,0x74,0x65,0x72,0x73,0x5b,0x00,0x6f,0x3b,0x0a,0x07,0x3b,0x0b,0x69,0x00,0x3b,0x0c,0x5b,0x00))
     ShowMessageFace("",0,0,2,12)
     ShowMessage("\\n<Knight Commander>Your Holiness, this is far too risky for them! Please, reconsider.")
     ShowMessageFace("saniria_fc1",0,0,2,13)
     ShowMessage("\\n<King of San Ilia>...Then allow me ask you, Knight Commander, what, in your estimation, they would require to preform this mission?")
     ShowMessageFace("",0,0,2,14)
     ShowMessage("\\n<Knight Commander>It's merely my opinion, but, if they are to stand any chance, they must at least have Mithril equipment.")
     205(0,bytes(0x04,0x08,0x6f,0x3a,0x13,0x52,0x50,0x47,0x3a,0x3a,0x4d,0x6f,0x76,0x65,0x52,0x6f,0x75,0x74,0x65,0x09,0x3a,0x0c,0x40,0x72,0x65,0x70,0x65,0x61,0x74,0x46,0x3a,0x0f,0x40,0x73,0x6b,0x69,0x70,0x70,0x61,0x62,0x6c,0x65,0x46,0x3a,0x0a,0x40,0x77,0x61,0x69,0x74,0x54,0x3a,0x0a,0x40,0x6c,0x69,0x73,0x74,0x5b,0x07,0x6f,0x3a,0x15,0x52,0x50,0x47,0x3a,0x3a,0x4d,0x6f,0x76,0x65,0x43,0x6f,0x6d,0x6d,0x61,0x6e,0x64,0x07,0x3a,0x0a,0x40,0x63,0x6f,0x64,0x65,0x69,0x15,0x3a,0x10,0x40,0x70,0x61,0x72,0x61,0x6d,0x65,0x74,0x65,0x72,0x73,0x5b,0x00,0x6f,0x3b,0x0a,0x07,0x3b,0x0b,0x69,0x00,0x3b,0x0c,0x5b,0x00))
     PictureDisplay(5,"80_saniria_st01",0,0,0,0,100,100,0,0)
     PictureMove(5,null,0,0,0,0,100,100,255,0,30,true)
     ShowMessageFace("saniria_fc1",0,0,2,15)
     ShowMessage("\\n<King of San Ilia>Hm... Well, Luka, that's how it is. The Knight Commander feels the prerequisite is to at least have some Mithril equipment.")
     ShowMessageFace("saniria_fc1",0,0,2,16)
     ShowMessage("\\n<King of San Ilia>I'm very sorry, but I can't tell you the details of this mission until you're in a position to accept it.")
     If(4,72,0)
      ShowMessageFace("phoenix_fc1",3,0,2,17)
      ShowMessage("\\n<Mini>Pooope, don't tease us... Are you targeted by bad guys or something?")
      0()
     EndIf()
     ShowMessageFace("saniria_fc1",0,0,2,18)
     ShowMessage("\\n<King of San Ilia>If you feel are already prepared, I shall accept that decision as well. Either way, once you've finished your preparations, come speak to me again.")
     ShowMessageFace("saniria_fc1",0,0,2,19)
     ShowMessage("\\n<King of San Ilia>To learn more about Mithril equipment, you should speak with the Knight Commander.")
     ShowMessageFace("ruka_fc1",0,0,2,20)
     ShowMessage("\\n<Luka>I understand. Please, let us think about it.")
     PictureClear(5)
     205(36,bytes(0x04,0x08,0x6f,0x3a,0x13,0x52,0x50,0x47,0x3a,0x3a,0x4d,0x6f,0x76,0x65,0x52,0x6f,0x75,0x74,0x65,0x09,0x3a,0x0c,0x40,0x72,0x65,0x70,0x65,0x61,0x74,0x46,0x3a,0x0f,0x40,0x73,0x6b,0x69,0x70,0x70,0x61,0x62,0x6c,0x65,0x46,0x3a,0x0a,0x40,0x77,0x61,0x69,0x74,0x54,0x3a,0x0a,0x40,0x6c,0x69,0x73,0x74,0x5b,0x08,0x6f,0x3a,0x15,0x52,0x50,0x47,0x3a,0x3a,0x4d,0x6f,0x76,0x65,0x43,0x6f,0x6d,0x6d,0x61,0x6e,0x64,0x07,0x3a,0x0a,0x40,0x63,0x6f,0x64,0x65,0x69,0x08,0x3a,0x10,0x40,0x70,0x61,0x72,0x61,0x6d,0x65,0x74,0x65,0x72,0x73,0x5b,0x00,0x6f,0x3b,0x0a,0x07,0x3b,0x0b,0x69,0x16,0x3b,0x0c,0x5b,0x00,0x6f,0x3b,0x0a,0x07,0x3b,0x0b,0x69,0x00,0x3b,0x0c,0x5b,0x00))
     ShowMessageFace("",0,0,2,21)
     ShowMessage("Either we do as the Knight Commander says and prepare Mithril equipment in advance, or we simply trust in our abilities and accept the request as we are.")
     ShowMessageFace("",0,0,2,22)
     ShowMessage("Now, what should we do?")
     PictureClear(5)
     EndEventProcessing()
     0()
    Else()
     DefineLabel("本題")
     If(1,1021,0,0,0)
      ChangeVariable(1021,1021,0,0,1)
      0()
     EndIf()
     ChangeVariable(1022,1022,0,0,2)
     ShowMessageFace("saniria_fc1",0,0,2,23)
     ShowMessage("\\n<King of San Ilia>In a few days, a certain ritual shall have to be preformed. A prayer to Ilias must be conducted in the depths of the Ancient Temple's Ruins, deep in the forest.")
     ShowMessageFace("saniria_fc1",0,0,2,24)
     ShowMessage("\\n<King of San Ilia>Of course, the one praying will be me. However, the Ruins are infested with extremely dangerous monsters.")
     ShowMessageFace("ruka_fc1",0,0,2,25)
     ShowMessage("\\n<Luka>I see. So you need an escort.")
     ShowMessageFace("saniria_fc1",0,0,2,26)
     ShowMessage("\\n<King of San Ilia>Since our country has sent an expeditionary force to aid in the current war, all of our elite knights are no longer here.")
     ShowMessageFace("saniria_fc1",0,0,2,27)
     ShowMessage("\\n<King of San Ilia>This ritual must remain secret, so my escort has to be someone absolutely trustworthy. You, Hero Luka, are trustworthy.")
     If(0,6,0)
      ShowMessageFace("sonia_fc1",0,0,2,28)
      ShowMessage("\\n<Sonya>So, in other words, we are to escort Your Holiness to the deepest part of the Ancient Temple's Ruins.")
      0()
     Else()
      ShowMessageFace("ruka_fc1",0,0,2,29)
      ShowMessage("\\n<Luka>So, in short, we have to escort Your Holiness to the deepest part of the Ancient Temple's Ruins.")
      0()
     EndIf()
     If(4,72,0)
      ShowMessageFace("phoenix_fc1",1,0,2,30)
      ShowMessage("\\n<Mini>So we just need to protect Pooope! Let's do our best!")
      0()
     EndIf()
     ShowMessageFace("saniria_fc1",0,0,2,31)
     ShowMessage("\\n<King of San Ilia>Strong monsters lurk within the Ruins. Please protect me during the journey, both as we enter, and as we leave.")
     ShowMessageFace("ruka_fc1",0,0,2,32)
     ShowMessage("\\n<Luka>Understood, leave it to us! When will the ritual take place?")
     ShowMessageFace("saniria_fc1",0,0,2,33)
     ShowMessage("\\n<King of San Ilia>The sooner, the better. I want you to go to the Ruins in Luddite Village right away. I shall finish my own preparations and immediately go there as well.")
     ShowMessageFace("saniria_fc1",0,0,2,34)
     ShowMessage("\\n<King of San Ilia>Once you arrive in Luddite Village, speak with the local priest. He will help us reunite.")
     If(0,2068,0)
      If(0,6,0)
       ShowMessageFace("sonia_fc2",2,0,2,35)
       ShowMessage("\\n<Sonya>We have already met that priest, Your Holiness. He got mad at us and told us to leave.")
       0()
      Else()
       ShowMessageFace("ruka_fc1",0,0,2,36)
       ShowMessage("\\n<Luka>We've met that priest. He got angry with us and told us to get lost.")
       0()
      EndIf()
      ShowMessageFace("saniria_fc1",0,0,2,37)
      ShowMessage("\\n<King of San Ilia>Actually, he's from our church. He's merely pretending to be part of the anti-machina faction.")
      If(0,6,0)
       ShowMessageFace("sonia_fc2",2,0,2,38)
       ShowMessage("\\n<Sonya>So, he's a spy? Is this ritual classified as top-secret within the church as well?")
       0()
      Else()
       ShowMessageFace("ruka_fc1",0,0,2,39)
       ShowMessage("\\n<Luka>In other words, he's a spy? Is this ritual even a secret within the church?")
       0()
      EndIf()
      0()
     Else()
      If(0,6,0)
       ShowMessageFace("sonia_fc2",2,0,2,40)
       ShowMessage("\\n<Sonya>It sounds like we're being stealthy. Is this ritual classified as top-secret within the church as well? Er, my sincerest apologies, Your Holiness, I did not mean to pry.")
       0()
      Else()
       ShowMessageFace("ruka_fc1",0,0,2,41)
       ShowMessage("\\n<Luka>That sounds a bit sneaky... Is this ritual even a secret within the church? Wait, sorry, I didn't mean to pry.")
       0()
      EndIf()
      0()
     EndIf()
     ShowMessageFace("saniria_fc1",0,0,2,42)
     ShowMessage("\\n<King of San Ilia>It's a very delicate ritual. Since it will take place near Luddite Village, it's best to take all possible precautions.")
     ShowMessageFace("saniria_fc1",0,0,2,43)
     ShowMessage("\\n<King of San Ilia>Now, please go on ahead. And please do everything in your power to not reveal anything concerning this mission to anyone else.")
     If(4,62,0)
      ShowMessageFace("gob_fc1",0,0,2,44)
      ShowMessage("\\n<Gob>Yup! It'll be secret to everyone else!")
      0()
     EndIf()
     ShowMessageFace("ruka_fc1",0,0,2,45)
     ShowMessage("\\n<Luka>Understood. We'll go ahead of you.")
     PictureClear(5)
     ShowMessageFace("",0,0,2,46)
     ShowMessage("No matter how I think about it, this mission is really weird... Still, I think we can trust the His Holiness.")
     ShowMessageFace("",0,0,2,47)
     ShowMessage("Our destination is Luddite Village, northeast of here. We need to meet the local priest and then reunite with the Pope by the Ancient Temple's Ruins.")
     EndEventProcessing()
     0()
    EndIf()
    0()
   Else()
    ShowMessageFace("saniria_fc1",0,0,2,48)
    ShowMessage("\\n<King of San Ilia>It seems that you are determined to help me. Then, will you accept my request for aid?")
    ShowChoices(strings("Yes","No"),2)
    IfPlayerPicksChoice(0,null)
     ShowMessageFace("saniria_fc1",0,0,2,49)
     ShowMessage("\\n<King of San Ilia>Thank you! I am very grateful. Now, let's discuss the details.")
     JumpToLabel("本題")
     0()
    IfPlayerPicksChoice(1,null)
     ShowMessageFace("saniria_fc1",0,0,2,50)
     ShowMessage("\\n<King of San Ilia>So you require a little more time to make preparations. That, or you don't intend to assist me, which I would also accept.")
     ShowMessageFace("saniria_fc1",0,0,2,51)
     ShowMessage("\\n<King of San Ilia>I shall leave the decision to you. When you are ready and have steeled yourself, come speak with me again.")
     PictureClear(5)
     EndEventProcessing()
     0()
    404()
    0()
   EndIf()
   0()
  EndIf()
  If(1,1022,0,2,0)
   ShowMessageFace("saniria_fc1",0,0,2,52)
   ShowMessage("\\n<King of San Ilia>Please go to the Ruins in Luddite Village right away. I shall finish my own preparations and immediately go there as well.")
   ShowMessageFace("saniria_fc1",0,0,2,53)
   ShowMessage("\\n<King of San Ilia>Once you arrive in Luddite Village, speak with the local priest. He will help us reunite.")
   PictureClear(5)
   EndEventProcessing()
   0()
  EndIf()
  0()
 PAGE   2
  // condition: variable 1022 >= 3
  0()
 PAGE   3
  // condition: variable 1022 >= 6
  PictureDisplay(5,"80_saniria_st01",0,0,0,0,100,100,0,0)
  PictureMove(5,null,0,0,0,0,100,100,255,0,30,true)
  250(bytes(0x04,0x08,0x6f,0x3a,0x0c,0x52,0x50,0x47,0x3a,0x3a,0x53,0x45,0x08,0x3a,0x0a,0x40,0x6e,0x61,0x6d,0x65,0x49,0x22,0x0c,0x4d,0x61,0x63,0x68,0x69,0x6e,0x65,0x06,0x3a,0x06,0x45,0x54,0x3a,0x0b,0x40,0x70,0x69,0x74,0x63,0x68,0x69,0x69,0x3a,0x0c,0x40,0x76,0x6f,0x6c,0x75,0x6d,0x65,0x69,0x55))
  ShowMessageFace("saniria_fc1",0,0,2,1)
  ShowMessage("\\n<Mecha Pope>Travelers, thank you for coming here. Now, allow me to help guide you...")
  If(0,6,0)
   ShowMessageFace("sonia_fc4",0,0,2,2)
   ShowMessage("\\n<Sonya>......")
   0()
  Else()
   ShowMessageFace("ruka_fc1",0,0,2,3)
   ShowMessage("\\n<Luka>......")
   0()
  EndIf()
  PictureClear(5)
  EndEventProcessing()
  0()
 PAGE   4
  // condition: switch 31 is ON
  // condition: variable 1022 >= 6
  0()



EVENT   33
 PAGE   1
  ShowMessageFace("",0,0,2,1)
  ShowMessage("\\n<Guard>Ahead of here is the Underground Library. Book-type monsters have occupied it from the second floor down, so be careful in there.")
  355("actor_label_jump")
  EndEventProcessing()
  DefineLabel("56")
  ShowMessageFace("inp_fc1",0,0,2,2)
  ShowMessage("\\n<Rami>Just set fire to the book monsters. ♪")
  EndEventProcessing()
  DefineLabel("91")
  ShowMessageFace("candle_fc1",1,0,2,3)
  ShowMessage("\\n<Chandra>Book-type monsters should be weak to fire. Ufufufu...")
  EndEventProcessing()
  0()



EVENT   34
 PAGE   1
  ShowMessageFace("",0,0,2,1)
  ShowMessage("\\n<Guard>Ahead of here are the barracks.")
  0()



EVENT   35
 PAGE   1
  ShowMessageFace("",0,0,2,1)
  ShowMessage("\\n<Guard>Outsiders are prohibited from going any further.")
  355("actor_label_jump")
  EndEventProcessing()
  DefineLabel("77")
  ShowMessageFace("jeid_fc1",0,0,2,2)
  ShowMessage("\\n<Jaide>Detecting a power reaction ahead of current position.")
  EndEventProcessing()
  DefineLabel("80")
  ShowMessageFace("orc_fc1",1,0,2,3)
  ShowMessage("\\n<Hip>I can sense treasure inside there!")
  EndEventProcessing()
  DefineLabel("94")
  ShowMessageFace("luksl_fc1",0,0,2,4)
  ShowMessage("\\n<Luxuru>My insides feels strange. There's a weird power reaction ahead of us.")
  EndEventProcessing()
  0()
 PAGE   2
  // condition: variable 1022 >= 6
  0()



EVENT   37
 PAGE   1
  // condition: variable 1022 >= 6
  ChangeSelfSwitch("A",0)
  PictureDisplay(5,"80_saniria_st01",0,0,0,0,100,100,0,0)
  PictureMove(5,null,0,0,0,0,100,100,255,0,30,true)
  ShowMessageFace("saniria_fc1",0,0,2,1)
  ShowMessage("\\n<King of San Ilia>...Hmm. I believe I understand your circumstances now. Parallel worlds, eh? To think such mysterious things exist.")
  ShowMessageFace("",0,0,2,2)
  ShowMessage("We told the Pope everything we learned. He took us seriously, and without dismissal.")
  ShowMessageFace("saniria_fc1",0,0,2,3)
  ShowMessage("\\n<King of San Ilia>Well, for this world's sake, we cannot stand on the sidelines. San Ilia will add its strength to yours.")
  ShowMessageFace("saniria_fc1",0,0,2,4)
  ShowMessage("\\n<King of San Ilia>So... I shall accompany you.")
  If(0,6,0)
   ShowMessageFace("sonia_fc3",2,0,2,5)
   ShowMessage("\\n<Sonya>Eh?! Your Holiness will personally–?!")
   0()
  Else()
   ShowMessageFace("ruka_fc1",0,0,2,6)
   ShowMessage("\\n<Luka>Eh?! No way! Your Holiness is–?!")
   0()
  EndIf()
  250(bytes(0x04,0x08,0x6f,0x3a,0x0c,0x52,0x50,0x47,0x3a,0x3a,0x53,0x45,0x08,0x3a,0x0a,0x40,0x6e,0x61,0x6d,0x65,0x49,0x22,0x0c,0x4d,0x61,0x63,0x68,0x69,0x6e,0x65,0x06,0x3a,0x06,0x45,0x54,0x3a,0x0b,0x40,0x70,0x69,0x74,0x63,0x68,0x69,0x69,0x3a,0x0c,0x40,0x76,0x6f,0x6c,0x75,0x6d,0x65,0x69,0x55))
  PictureDisplay(5,"80_saniria_st12",0,0,0,0,100,100,255,0)
  ChangeSwitch(31,31,0)
  ShowMessageFace("saniria_fc2",0,0,2,7)
  ShowMessage("\\n<King of San Ilia>Are you dissatisfied? I won't be left behind by you fleshlings.")
  PictureDisplay(5,"80_saniria_st11",0,0,0,0,100,100,255,0)
  ShowMessageFace("saniria_fc2",0,0,2,8)
  ShowMessage("\\n<King of San Ilia>Well then, I'll be in your care.")
  PictureClear(5)
  205(32,bytes(0x04,0x08,0x6f,0x3a,0x13,0x52,0x50,0x47,0x3a,0x3a,0x4d,0x6f,0x76,0x65,0x52,0x6f,0x75,0x74,0x65,0x09,0x3a,0x0c,0x40,0x72,0x65,0x70,0x65,0x61,0x74,0x46,0x3a,0x0f,0x40,0x73,0x6b,0x69,0x70,0x70,0x61,0x62,0x6c,0x65,0x46,0x3a,0x0a,0x40,0x77,0x61,0x69,0x74,0x54,0x3a,0x0a,0x40,0x6c,0x69,0x73,0x74,0x5b,0x0d,0x6f,0x3a,0x15,0x52,0x50,0x47,0x3a,0x3a,0x4d,0x6f,0x76,0x65,0x43,0x6f,0x6d,0x6d,0x61,0x6e,0x64,0x07,0x3a,0x0a,0x40,0x63,0x6f,0x64,0x65,0x69,0x2a,0x3a,0x10,0x40,0x70,0x61,0x72,0x61,0x6d,0x65,0x74,0x65,0x72,0x73,0x5b,0x00,0x6f,0x3b,0x0a,0x07,0x3b,0x0b,0x69,0x07,0x3b,0x0c,0x5b,0x00,0x6f,0x3b,0x0a,0x07,0x3b,0x0b,0x69,0x06,0x3b,0x0c,0x5b,0x00,0x6f,0x3b,0x0a,0x07,0x3b,0x0b,0x69,0x06,0x3b,0x0c,0x5b,0x00,0x6f,0x3b,0x0a,0x07,0x3b,0x0b,0x69,0x08,0x3b,0x0c,0x5b,0x00,0x6f,0x3b,0x0a,0x07,0x3b,0x0b,0x69,0x2c,0x3b,0x0c,0x5b,0x00,0x6f,0x3b,0x0a,0x07,0x3b,0x0b,0x69,0x2b,0x3b,0x0c,0x5b,0x00,0x6f,0x3b,0x0a,0x07,0x3b,0x0b,0x69,0x00,0x3b,0x0c,0x5b,0x00))
  ChangeSwitch(31,31,1)
  249(bytes(0x04,0x08,0x6f,0x3a,0x0c,0x52,0x50,0x47,0x3a,0x3a,0x4d,0x45,0x08,0x3a,0x0a,0x40,0x6e,0x61,0x6d,0x65,0x49,0x22,0x0c,0x66,0x61,0x6e,0x66,0x61,0x6c,0x65,0x06,0x3a,0x06,0x45,0x54,0x3a,0x0b,0x40,0x70,0x69,0x74,0x63,0x68,0x69,0x69,0x3a,0x0c,0x40,0x76,0x6f,0x6c,0x75,0x6d,0x65,0x69,0x69))
  ShowMessageFace("",0,0,2,9)
  ShowMessage("The King of San Ilia joined the party!")
  Wait(60)
  If(4,72,0)
   ShowMessageFace("phoenix_fc1",1,0,2,10)
   ShowMessage("\\n<Mini>Yaay, Pooope's with us now!")
   0()
  EndIf()
  ShowMessageFace("ruka_fc1",0,0,2,11)
  ShowMessage("\\n<Luka>Is this really all right? If your Holiness leaves San Ilia...")
  ShowMessageFace("saniria_fc2",0,0,2,12)
  ShowMessage("\\n<King of San Ilia>Don't worry, it's no problem at all. I actually thought something like this might happen. Knight Commander, please get the stand-in.")
  ShowMessageFace("",0,0,2,13)
  ShowMessage("\\n<Knight Commander>Yes sir! We prepared it as you instructed.")
  205(36,bytes(0x04,0x08,0x6f,0x3a,0x13,0x52,0x50,0x47,0x3a,0x3a,0x4d,0x6f,0x76,0x65,0x52,0x6f,0x75,0x74,0x65,0x09,0x3a,0x0c,0x40,0x72,0x65,0x70,0x65,0x61,0x74,0x46,0x3a,0x0f,0x40,0x73,0x6b,0x69,0x70,0x70,0x61,0x62,0x6c,0x65,0x46,0x3a,0x0a,0x40,0x77,0x61,0x69,0x74,0x54,0x3a,0x0a,0x40,0x6c,0x69,0x73,0x74,0x5b,0x08,0x6f,0x3a,0x15,0x52,0x50,0x47,0x3a,0x3a,0x4d,0x6f,0x76,0x65,0x43,0x6f,0x6d,0x6d,0x61,0x6e,0x64,0x07,0x3a,0x0a,0x40,0x63,0x6f,0x64,0x65,0x69,0x07,0x3a,0x10,0x40,0x70,0x61,0x72,0x61,0x6d,0x65,0x74,0x65,0x72,0x73,0x5b,0x00,0x6f,0x3b,0x0a,0x07,0x3b,0x0b,0x69,0x07,0x3b,0x0c,0x5b,0x00,0x6f,0x3b,0x0a,0x07,0x3b,0x0b,0x69,0x00,0x3b,0x0c,0x5b,0x00))
  250(bytes(0x04,0x08,0x6f,0x3a,0x0c,0x52,0x50,0x47,0x3a,0x3a,0x53,0x45,0x08,0x3a,0x0a,0x40,0x6e,0x61,0x6d,0x65,0x49,0x22,0x0c,0x4d,0x61,0x63,0x68,0x69,0x6e,0x65,0x06,0x3a,0x06,0x45,0x54,0x3a,0x0b,0x40,0x70,0x69,0x74,0x63,0x68,0x69,0x69,0x3a,0x0c,0x40,0x76,0x6f,0x6c,0x75,0x6d,0x65,0x69,0x55))
  TeleportEvent(32,0,7,17,2)
  205(32,bytes(0x04,0x08,0x6f,0x3a,0x13,0x52,0x50,0x47,0x3a,0x3a,0x4d,0x6f,0x76,0x65,0x52,0x6f,0x75,0x74,0x65,0x09,0x3a,0x0c,0x40,0x72,0x65,0x70,0x65,0x61,0x74,0x46,0x3a,0x0f,0x40,0x73,0x6b,0x69,0x70,0x70,0x61,0x62,0x6c,0x65,0x46,0x3a,0x0a,0x40,0x77,0x61,0x69,0x74,0x54,0x3a,0x0a,0x40,0x6c,0x69,0x73,0x74,0x5b,0x07,0x6f,0x3a,0x15,0x52,0x50,0x47,0x3a,0x3a,0x4d,0x6f,0x76,0x65,0x43,0x6f,0x6d,0x6d,0x61,0x6e,0x64,0x07,0x3a,0x0a,0x40,0x63,0x6f,0x64,0x65,0x69,0x2d,0x3a,0x10,0x40,0x70,0x61,0x72,0x61,0x6d,0x65,0x74,0x65,0x72,0x73,0x5b,0x00,0x6f,0x3b,0x0a,0x07,0x3b,0x0b,0x69,0x00,0x3b,0x0c,0x5b,0x00))
  PictureDisplay(5,"80_saniria_st01",0,0,0,0,100,100,0,0)
  PictureMove(5,null,0,0,0,0,100,100,255,0,30,true)
  ShowMessageFace("saniria_fc1",0,0,2,14)
  ShowMessage("\\n<Mecha Pope>Booting up... Body-double mode activated...")
  ShowMessageFace("saniria_fc1",0,0,2,15)
  ShowMessage("\\n<Mecha Pope>Travelers, thank you for coming here. Now, allow me to help guide you...")
  PictureClear(5)
  ShowMessageFace("",0,0,2,16)
  ShowMessage("\\n<Knight Commander>We've already finished the live tests. As long as everyone stays at least one meter away, no one should notice.")
  205(36,bytes(0x04,0x08,0x6f,0x3a,0x13,0x52,0x50,0x47,0x3a,0x3a,0x4d,0x6f,0x76,0x65,0x52,0x6f,0x75,0x74,0x65,0x09,0x3a,0x0c,0x40,0x72,0x65,0x70,0x65,0x61,0x74,0x46,0x3a,0x0f,0x40,0x73,0x6b,0x69,0x70,0x70,0x61,0x62,0x6c,0x65,0x46,0x3a,0x0a,0x40,0x77,0x61,0x69,0x74,0x54,0x3a,0x0a,0x40,0x6c,0x69,0x73,0x74,0x5b,0x09,0x6f,0x3a,0x15,0x52,0x50,0x47,0x3a,0x3a,0x4d,0x6f,0x76,0x65,0x43,0x6f,0x6d,0x6d,0x61,0x6e,0x64,0x07,0x3a,0x0a,0x40,0x63,0x6f,0x64,0x65,0x69,0x08,0x3a,0x10,0x40,0x70,0x61,0x72,0x61,0x6d,0x65,0x74,0x65,0x72,0x73,0x5b,0x00,0x6f,0x3b,0x0a,0x07,0x3b,0x0b,0x69,0x08,0x3b,0x0c,0x5b,0x00,0x6f,0x3b,0x0a,0x07,0x3b,0x0b,0x69,0x16,0x3b,0x0c,0x5b,0x00,0x6f,0x3b,0x0a,0x07,0x3b,0x0b,0x69,0x00,0x3b,0x0c,0x5b,0x00))
  If(0,6,0)
   ShowMessageFace("sonia_fc3",2,0,2,17)
   ShowMessage("\\n<Sonya>......")
   0()
  EndIf()
  If(0,5,0)
   ShowMessageFace("iriasu_fc4",2,0,2,18)
   ShowMessage("\\n<Ilias>I feel like crying. When was the pure faith was lost...")
   0()
  EndIf()
  ShowMessageFace("saniria_fc2",0,0,2,19)
  ShowMessage("\\n<King of San Ilia>Also, there's a research lab with cutting edge technology in this castle. There's something I want to give you in there, so let's visit it.")
  If(4,62,0)
   ShowMessageFace("gob_fc1",0,0,2,20)
   ShowMessage("\\n<Gob>Yay, we're gonna get something?")
   0()
  EndIf()
  ShowMessageFace("saniria_fc2",0,0,2,21)
  ShowMessage("\\n<King of San Ilia>A journey to save the world... It's enough to make even my mechanical body hot blooded. Now, let's go fulfill our destiny.")
  355("gain_medal(21)")
  If(1,1023,0,1,2)
   ShowMessageFace("",0,0,2,22)
   ShowMessage("\\n<Knight Commander>Your Holiness, I have a report to make before you leave about the manor we spoke of earlier. We've lost our second suppression team as well.")
   ShowMessageFace("saniria_fc2",0,0,2,23)
   ShowMessage("\\n<King of San Ilia>What? Those were elite soldiers... As I thought, whatever's in there isn't ordinary.")
   If(0,6,0)
    ShowMessageFace("sonia_fc2",2,0,2,24)
    ShowMessage("\\n<Sonya>Um, what happened, Your Holiness?")
    0()
   Else()
    ShowMessageFace("ruka_fc1",0,0,2,25)
    ShowMessage("\\n<Luka>Er, what happened?")
    0()
   EndIf()
   ShowMessageFace("saniria_fc2",0,0,2,26)
   ShowMessage("\\n<King of San Ilia>North of this castle is a supposedly uninhabited manor which has lately been plagued with zombie and ghost sightings.")
   ShowMessageFace("saniria_fc2",0,0,2,27)
   ShowMessage("\\n<King of San Ilia>We've sent two suppression teams to investigate, but apparently they've both failed. It seems a dangerous monster is lurking within.")
   ShowMessageFace("ruka_fc1",0,0,2,28)
   ShowMessage("\\n<Luka>Then we'll go in there!")
   ShowMessageFace("saniria_fc2",0,0,2,29)
   ShowMessage("\\n<King of San Ilia>I would be grateful for that. Since I'm your companion now, I shall lend you my strength as well.")
   ShowMessageFace("saniria_fc2",0,0,2,30)
   ShowMessage("\\n<King of San Ilia>To get to the manor in question, you have to go west of San Ilia, and then turn north before crossing the bridge. From there just follow the road until you reach the manor.")
   ShowMessageFace("",0,0,2,31)
   ShowMessage("A mysterious monster lurking in the manor to the north. I really want to beat it before heading into the Forest of Spirits.")
   0()
  EndIf()
  EndEventProcessing()
  0()
 PAGE   2
  // condition: self-switch A is ON
  0()



EVENT   38
 PAGE   1
  // condition: variable 1022 >= 6
  ShowMessageFace("",0,0,2,1)
  ShowMessage("\\n<Guard>Ahead of here is the advanced technology research laboratory. Please, feel free to go in.")
  0()



EVENT   27
 PAGE   1
  ShowMessageFace("",0,0,2,1)
  ShowMessage("Two priests are arguing about the current war.")
  ShowMessageFace("",0,0,2,2)
  ShowMessage("\\n<Priest A>We should immediately leave the alliance and withdraw our forces! How many will be sacrificed if we perpetuate this conflict by joining it?!")
  ShowMessageFace("",0,0,2,3)
  ShowMessage("\\n<Priest B>Our participation in the alliance is necessitated by the military situation! If Grangold annexes Grand Noah, we will be attacked next!")
  If(1,1028,0,7,2)
   ShowMessageFace("",0,0,2,4)
   ShowMessage("\\n<Priest A>But now that Sabasa has withdrawn from the alliance, Grand Noah's defeat is inevitable! The wiser course would be to strengthen our own defenses while we still can!")
   ShowMessageFace("",0,0,2,5)
   ShowMessage("\\n<Priest B>It'd be a great folly to focus so much on defense that we sacrifice our ability to counterattack! No matter how dismal the situation is, far more hope lies in fighting alongside Grand Noah!")
   0()
  EndIf()
  If(1,1028,0,8,1)
   ShowMessageFace("",0,0,2,6)
   ShowMessage("\\n<Priest A>However, even with Sabasa rejoining the alliance, it remains inconceivable for Grand Noah to win! The wiser course would be to strengthen our own defenses while we still can!")
   ShowMessageFace("",0,0,2,7)
   ShowMessage("\\n<Priest B>It'd be a great folly to focus so much on defense that we sacrifice our ability to counterattack! No matter how dismal the situation is, far more hope lies in fighting alongside Grand Noah!")
   0()
  EndIf()
  ShowMessageFace("",0,0,2,8)
  ShowMessage("The argument is getting heated...")
  0()



EVENT   28
 PAGE   1
  ShowMessageFace("",0,0,2,1)
  ShowMessage("Two priests are arguing about the current war.")
  ShowMessageFace("",0,0,2,2)
  ShowMessage("\\n<Priest A>We should immediately leave the alliance and withdraw our forces! How many will be sacrificed if we perpetuate this conflict by joining it?!")
  ShowMessageFace("",0,0,2,3)
  ShowMessage("\\n<Priest B>Our participation in the alliance is necessitated by the military situation! If Grangold annexes Grand Noah, we will be attacked next!")
  ShowMessageFace("",0,0,2,4)
  ShowMessage("\\n<Priest A>But now that Sabasa has withdrawn from the alliance, Grand Noah's defeat is inevitable! The wiser course would be to strengthen our own defenses while we still can!")
  ShowMessageFace("",0,0,2,5)
  ShowMessage("\\n<Priest B>It'd be a great folly to focus so much on defense that we sacrifice our ability to counterattack! No matter how dismal the situation is, far more hope lies in fighting alongside Grand Noah!")
  ShowMessageFace("",0,0,2,6)
  ShowMessage("The argument is getting heated...")
  0()



EVENT   40
 PAGE   1
  ShowMessageFace("",0,0,2,1)
  ShowMessage("\\n<Scholar>This castle's underground library has the largest collection of books in the world. So it's not an exaggeration to say it contains the world's knowledge.")
  ShowMessageFace("",0,0,2,2)
  ShowMessage("\\n<Scholar>However, the second level and below are currently off limits. It seems monsters have occupied them.")
  ShowMessageFace("",0,0,2,3)
  ShowMessage("\\n<Scholar>The Underground Library is down the passage to the right. Go down the large staircase, and you'll be there.")
  355("actor_label_jump")
  EndEventProcessing()
  DefineLabel("5")
  ShowMessageFace("alice_fc5",0,0,2,4)
  ShowMessage("\\n<Alice>This invasion wasn't on my orders, of course. Either some monster clan has gone rogue, or mother has...")
  EndEventProcessing()
  DefineLabel("103")
  ShowMessageFace("kamuro_fc1",0,0,2,5)
  ShowMessage("\\n<Kamuro>The library is being occupied by monsters? I wonder if the monsters are just really enthusiastic about studying?")
  EndEventProcessing()
  0()



EVENT   42
 PAGE   1
  ShowMessageFace("",0,0,2,1)
  ShowMessage("\\n<Guard>Do you wish to pray in the cathedral? It's straight ahead you.")
  0()



EVENT   43
 PAGE   1
  If(1,1023,0,1,2)
   ShowMessageFace("",0,0,2,1)
   ShowMessage("\\n<Knight>There was a report that zombies and ghosts or something appeared in that manor to the north. A suppression team went there immediately, but they haven't returned...")
   ShowMessageFace("",0,0,2,2)
   ShowMessage("\\n<Knight>Now a second suppression team is heading there. I hope they come back safe.")
   EndEventProcessing()
   0()
  EndIf()
  If(1,1023,0,2,1)
   ShowMessageFace("",0,0,2,3)
   ShowMessage("\\n<Knight>The suppression teams that went to the northern manor have all returned safely. I heard whom we have to thank for that too.")
   ShowMessageFace("",0,0,2,4)
   ShowMessage("\\n<Knight>Thank you very much for saving our comrades. Everyone here is extremely grateful to you.")
   355("actor_label_jump")
   EndEventProcessing()
   DefineLabel("134")
   ShowMessageFace("chrom_fc2",0,0,2,5)
   ShowMessage("\\n<Chrome>They were rampaging through the manor, so I had to confine them. I took proper care of them, though, and regularly squeezed their semen for them.")
   EndEventProcessing()
   0()
  EndIf()
  0()



EVENT   44
 PAGE   1
  ShowMessageFace("",0,0,2,1)
  ShowMessage("\\n<Knight>Whenever a suppression team is dispatched to get rid of evil monsters, a lot of them go missing, but there are several cases where the missing soldiers actually survive.")
  ShowMessageFace("",0,0,2,2)
  ShowMessage("\\n<Knight>You know how some monsters catch humans and do... those kinds of things to them. Surprisingly, there's often some among the missing soldiers who aren't immediately killed by it.")
  ShowMessageFace("",0,0,2,3)
  ShowMessage("\\n<Knight>Among them, there are some who even return with a new family... Er, wait, I can't say any more, or my own purity might be questioned.")
  355("actor_label_jump")
  EndEventProcessing()
  DefineLabel("83")
  ShowMessageFace("hapy_a_fc1",0,0,2,4)
  ShowMessage("\\n<Reina>It's fine. That's a good thing!")
  EndEventProcessing()
  DefineLabel("109")
  ShowMessageFace("kani_fc1",0,0,2,5)
  ShowMessage("\\n<Soapy>It's good when things are lively.")
  EndEventProcessing()
  0()



EVENT   45
 PAGE   1
  ShowMessageFace("",0,0,2,1)
  ShowMessage("\\n<Knight>The ladies love temple knights. To really make them squeal, though, I need to pay special attention to my grooming.")
  ShowMessageFace("",0,0,2,2)
  ShowMessage("\\n<Knight>Hm, I can't let my helmet tilt too low... I need to raise it a little, let my bangs peek out.")
  355("actor_label_jump")
  EndEventProcessing()
  DefineLabel("95")
  ShowMessageFace("delh_a_fc1",0,0,2,3)
  ShowMessage("\\n<Lona>Is it really okay to just care about your looks?")
  EndEventProcessing()
  DefineLabel("112")
  ShowMessageFace("utubo_fc1",0,0,2,4)
  ShowMessage("\\n<Kazura>You'll all look the same after you've been melted.")
  EndEventProcessing()
  0()



EVENT   41
 PAGE   1
  ShowMessageFace("",0,0,2,1)
  ShowMessage("\\n<Guard>Ahead of here are the facilities for us soldiers. While they're open to visitors, it's not much fun to just watch a bunch of guys train.")
  0()



EVENT   46
 PAGE   1
  ShowMessageFace("",0,0,2,1)
  ShowMessage("\\n<Guard>I'm patrolling the castle. There are no abnormalities!")
  355("actor_label_jump")
  EndEventProcessing()
  DefineLabel("77")
  ShowMessageFace("jeid_fc1",0,0,2,2)
  ShowMessage("\\n<Jaide>Shall I relieve you and take over your patrol?")
  ShowMessageFace("",0,0,2,3)
  ShowMessage("\\n<Guard>What? No, you can't do that!")
  EndEventProcessing()
  0()



EVENT   47
 PAGE   1
  ShowMessageFace("",0,0,2,1)
  ShowMessage("\\n<Guard>I still haven't been inside the Ancient Temple's Ruins. There's very few guards who are allowed in there.")
  ShowMessageFace("",0,0,2,2)
  ShowMessage("\\n<Guard>I wonder how divine those ruins are... Ahh, I want to see them.")
  0()



EVENT   48
 PAGE   1
  ShowMessageFace("",0,0,2,1)
  ShowMessage("\\n<Priest>On the day of assassination, I saw it. The pitiful, bloodied appearance of His Holiness when he was transported to the medical office.")
  ShowMessageFace("",0,0,2,2)
  ShowMessage("\\n<Priest>No matter how highly you think of His Holiness, no one could have survived such wounds. And why are they saying that they were just minor injuries?")
  ShowMessageFace("",0,0,2,3)
  ShowMessage("\\n<Priest>Honestly, I suspect a body double. Either a body double was the one blown away back then, or the current Pope is actually...")
  ShowMessageFace("",0,0,2,4)
  ShowMessage("\\n<Priest>Sorry. Forget about it. It's just the foolish talk of a priest whose faith has been shaken.")
  355("actor_label_jump")
  EndEventProcessing()
  DefineLabel("531")
  ShowMessageFace("saniria_fc2",0,0,2,5)
  ShowMessage("\\n<King of San Ilia>One day I'll have to publish the truth about my body. I'm already under suspicion as is...")
  EndEventProcessing()
  0()



EVENT   49
 PAGE   1
  ShowMessageFace("",0,0,2,1)
  ShowMessage("\\n<Priest>The person behind His Holiness the Pope's assassination attempt hasn't been caught yet. However, there are whispered rumors in the streets that the anti-machina faction was behind it.")
  ShowMessageFace("",0,0,2,2)
  ShowMessage("\\n<Priest>Honestly, though, I don't think they were involved with it. After all, while I was investigating... Wait, that's confidential.")
  ShowMessageFace("",0,0,2,3)
  ShowMessage("\\n<Priest>What I meant was, there's no way an anti-machina fanatic would use a bomb. It was a crime perpetrated by someone else.")
  ShowMessageFace("",0,0,2,4)
  ShowMessage("\\n<Priest>The main suspect is a man named Lazarus. But, without any evidence, we've got no grounds to arrest him.")
  355("actor_label_jump")
  EndEventProcessing()
  DefineLabel("525")
  ShowMessageFace("sonia_fc2",2,0,2,5)
  ShowMessage("\\n<Sonya>It's a false accusation anyway. He just looks really shady, is all.")
  EndEventProcessing()
  0()



EVENT   50
 PAGE   1
  ShowMessageFace("",0,0,2,1)
  ShowMessage("\\n<Guard>Welcome to San Ilia Castle! We're open to everyone.")
  355("actor_label_jump")
  EndEventProcessing()
  DefineLabel("143")
  ShowMessageFace("eva_fc1",0,0,2,2)
  ShowMessage("\\n<Eva>Everyone? Then can I live here forever?!")
  ShowMessageFace("",0,0,2,3)
  ShowMessage("\\n<Guard>Er, no, living here would be a bit much.")
  EndEventProcessing()
  DefineLabel("531")
  ShowMessageFace("saniria_fc2",0,0,2,4)
  ShowMessage("\\n<King of San Ilia>Mhm, keep up the good work.")
  EndEventProcessing()
  0()



EVENT   26
 PAGE   1
  ShowMessageFace("",0,0,2,1)
  ShowMessage("\\n<Guard>The guards inside San Ilia are carefully selected. Only the truly pious and brave are recruited.")
  ShowMessageFace("",0,0,2,2)
  ShowMessage("\\n<Guard>It's the dream of knights all over the world.")
  355("actor_label_jump")
  EndEventProcessing()
  DefineLabel("95")
  ShowMessageFace("delh_a_fc1",0,0,2,3)
  ShowMessage("\\n<Lona>I'd pass on it. Having to be this place's security sounds stifling.")
  EndEventProcessing()
  0()



EVENT   51
 PAGE   1
  ShowMessageFace("",0,0,2,1)
  ShowMessage("\\n<Old Man>What, are even the priests fighting now?")
  355("actor_label_jump")
  EndEventProcessing()
  DefineLabel("86")
  ShowMessageFace("name_s_fc1",2,0,2,2)
  ShowMessage("\\n<Rosary>For priests to fight amongst themselves...")
  EndEventProcessing()
  DefineLabel("122")
  ShowMessageFace("sisterlamia_fc1",2,0,2,3)
  ShowMessage("\\n<Sofia>Troubling, isn't it.")
  EndEventProcessing()
  0()



EVENT   52
 PAGE   1
  ShowMessageFace("",0,0,2,1)
  ShowMessage("\\n<Old Woman>I hope they don't settle this with their fists...")
  355("actor_label_jump")
  EndEventProcessing()
  DefineLabel("93")
  ShowMessageFace("liot_fc1",0,0,2,2)
  ShowMessage("\\n<Riot>The strongest is the one who's right. No matter where you go, this law remains unchanged.")
  EndEventProcessing()
  DefineLabel("101")
  ShowMessageFace("cent2_fc1",0,0,2,3)
  ShowMessage("\\n<Lihitinu>They should just settle this with a race.")
  EndEventProcessing()
  0()



EVENT   53
 PAGE   1
  If(1,1022,0,1,2)
   ShowMessageFace("",0,0,2,1)
   ShowMessage("\\n<Priest>The Marc Knight Troop is usually in charge of escorting His Holiness when he travels, but currently they're out on an expedition. Normally they would have returned by now...")
   ShowMessageFace("",0,0,2,2)
   ShowMessage("\\n<Priest>Dear me, this is troubling. We don't have nearly enough skilled soldiers.")
   EndEventProcessing()
   0()
  EndIf()
  If(1,1022,0,5,2)
   ShowMessageFace("",0,0,2,3)
   ShowMessage("\\n<Priest>You people are in charge of escorting the Pope to his ritual, aren't you. Apparently, after thorough investigation, you were proven to be reliable.")
   ShowMessageFace("",0,0,2,4)
   ShowMessage("\\n<Priest>Please take care of His Holiness the Pope. And be careful.")
   EndEventProcessing()
   0()
  EndIf()
  If(1,1022,0,6,1)
   ShowMessageFace("",0,0,2,5)
   ShowMessage("\\n<Priest>So, you now know the church's secret. It's still too early to make it public, so be careful.")
   ShowMessageFace("",0,0,2,6)
   ShowMessage("\\n<Priest>We don't want to spread fear and unnecessary confusion in the world. Please, try to understand that.")
   EndEventProcessing()
   0()
  EndIf()
  0()



EVENT   54
 PAGE   1
  ShowMessageFace("",0,0,2,1)
  ShowMessage("\\n<Priest>San Ilia is at a crossroads. It's at times like these that we need to have strong faith in our hearts.")
  0()



EVENT   57
 PAGE   1
  ShowMessageFace("",0,0,2,1)
  ShowMessage("\\n<Priest>I thought of going to Luddite Village, but in the end, I decided to stay in San Ilia.")
  ShowMessageFace("",0,0,2,2)
  ShowMessage("\\n<Priest>I believe that a humble and simple life differs from a primitive one. I've also started to wonder whether Ilias really wished for this schism.")
  ShowMessageFace("",0,0,2,3)
  ShowMessage("\\n<Priest>I will live the way I believe in and the way my faith dictates. After all, how can those who don't believe in themselves believe in the Goddess?")
  0()



EVENT   58
 PAGE   1
  ShowMessageFace("",0,0,2,1)
  ShowMessage("\\n<Priest>The majority of the knights have left for the war. Most of the remaining troops have left to suppress evil monsters too.")
  ShowMessageFace("",0,0,2,2)
  ShowMessage("\\n<Priest>I wonder if a day will come when we shall also be forced to run around with weapons. Just in case, I've been doing muscle training in secret.")
  355("actor_label_jump")
  EndEventProcessing()
  DefineLabel("112")
  ShowMessageFace("utubo_fc1",0,0,2,3)
  ShowMessage("\\n<Kazura>(If I'm going to eat him, I'd better wait until he fattens up a bit...)")
  EndEventProcessing()
  0()



EVENT   60
 PAGE   1
  ShowMessageFace("",0,0,2,1)
  ShowMessage("\\n<Maid>Ilias, please bring peace to this world...")
  0()



EVENT   61
 PAGE   1
  ShowMessageFace("",0,0,2,1)
  ShowMessage("\\n<Youth>......")
  ShowMessageFace("",0,0,2,2)
  ShowMessage("The Youth is praying seriously. Or at least, he's pretending to. He's actually staring at the maid's butt!")
  0()



EVENT   59
 PAGE   1
  ShowMessageFace("",0,0,2,1)
  ShowMessage("\\n<Middle-Aged Man>......")
  ShowMessageFace("",0,0,2,2)
  ShowMessage("The man is praying seriously.")
  0()



EVENT   62
 PAGE   1
  ShowMessageFace("",0,0,2,1)
  ShowMessage("\\n<Old Man>......")
  ShowMessageFace("",0,0,2,2)
  ShowMessage("The old man is praying quietly.")
  0()



EVENT   63
 PAGE   1
  ShowMessageFace("",0,0,2,1)
  ShowMessage("\\n<Boy>Please heal dad's strained back...")
  355("actor_label_jump")
  EndEventProcessing()
  DefineLabel("166")
  ShowMessageFace("narcubus_fc1",0,0,2,2)
  ShowMessage("\\n<Manako>If he has a strained back, he should rest. It'll heal even if you don't pray to the Goddess.")
  EndEventProcessing()
  0()



EVENT   66
 PAGE   1
  ShowMessageFace("",0,0,2,1)
  ShowMessage("\\n<Traveling Merchant>Just earlier, I was shown the way by the Pope.")
  ShowMessageFace("",0,0,2,2)
  ShowMessage("\\n<Traveling Merchant>He's right, I never showed my gratitude to my parents. I should go settle down in my hometown for a while.")
  355("actor_label_jump")
  EndEventProcessing()
  DefineLabel("71")
  ShowMessageFace("okami_fc1",0,0,2,3)
  ShowMessage("\\n<Amara>Uga! Filial piety is important!")
  EndEventProcessing()
  DefineLabel("98")
  ShowMessageFace("minikani_fc1",2,0,2,4)
  ShowMessage("\\n<Amy>I want to meet my mom too! Uwaann!")
  EndEventProcessing()
  0()



EVENT   67
 PAGE   1
  ShowMessageFace("",0,0,2,1)
  ShowMessage("\\n<Dapper Gentleman>Oh Goddess... Please, grant Her Majesty ethics, and make her a woman worth serving...")
  ShowMessageFace("",0,0,2,2)
  ShowMessage("\\n<Dapper Gentleman>How could such a thing happen... Until recently, she was a talented woman with such deep respect for her father!")
  355("actor_label_jump")
  EndEventProcessing()
  DefineLabel("113")
  ShowMessageFace("lamia_fc1",0,0,2,3)
  ShowMessage("\\n<Anastasia>Oh my, he trying to correct some stubborn tomboy princess?")
  EndEventProcessing()
  0()
 PAGE   2
  // condition: variable 1028 >= 8
  0()



EVENT   68
 PAGE   1
  ShowMessageFace("",0,0,2,1)
  ShowMessage("\\n<Student>I beg you, let me pass the test this time... I beg you, I beg you... It's my last chance... Please...")
  355("actor_label_jump")
  EndEventProcessing()
  DefineLabel("41")
  ShowMessageFace("stein_fc2",0,0,2,2)
  ShowMessage("\\n<Promestein>If he has time to pray to the Goddess, then he has time to study instead.")
  EndEventProcessing()
  DefineLabel("525")
  ShowMessageFace("sonia_fc2",2,0,2,3)
  ShowMessage("\\n<Sonya>He seems kinda too earnest to me...")
  EndEventProcessing()
  0()



EVENT   69
 PAGE   1
  ShowMessageFace("",0,0,2,1)
  ShowMessage("\\n<Female Priest>......")
  ShowMessageFace("",0,0,2,2)
  ShowMessage("The female priest is praying quietly.")
  0()



EVENT   64
 PAGE   1
  ShowMessageFace("",0,0,2,1)
  ShowMessage("\\n<Woman>I wonder what I should make for dinner tonight...")
  0()



EVENT   70
 PAGE   1
  ShowMessageFace("",0,0,2,1)
  ShowMessage("\\n<Samurai>I don't want to work...")
  355("actor_label_jump")
  EndEventProcessing()
  DefineLabel("143")
  ShowMessageFace("eva_fc1",2,0,2,2)
  ShowMessage("\\n<Eva>Me neither...")
  EndEventProcessing()
  0()



EVENT   65
 PAGE   1
  ShowMessageFace("",0,0,2,1)
  ShowMessage("\\n<Traveling Warrior>So this is the great cathedral! Wonderful... My long journey was well worth it.")
  0()



EVENT   71
 PAGE   1
  ShowMessageFace("",0,0,2,1)
  ShowMessage("\\n<Thief>Please, let my next job go off without a hitch...")
  0()



EVENT   72
 PAGE   1
  ShowMessageFace("",0,0,2,1)
  ShowMessage("\\n<Craftsman>I get all fired up whenever I come here!")
  355("actor_label_jump")
  EndEventProcessing()
  DefineLabel("66")
  ShowMessageFace("vgirl_fc1",2,0,2,2)
  ShowMessage("\\n<Vanilla>And all my energy drains whenever I come here.")
  EndEventProcessing()
  0()



EVENT   74
 PAGE   1
  ShowMessageFace("",0,0,2,1)
  ShowMessage("\\n<Youth>Please hear me, Father. I've fallen for a girl living next door to me...")
  0()



EVENT   75
 PAGE   1
  ShowMessageFace("",0,0,2,1)
  ShowMessage("\\n<City Girl>Please hear me, Father. I'm being stalked by a man who lives next door to me...")
  0()



EVENT   76
 PAGE   1
  ShowMessageFace("",0,0,2,1)
  ShowMessage("\\n<Nun>Even if just once, I want to go on a pilgrimage to St. Amos Mountain, but... It's impossible for this weak body of mine.")
  355("actor_label_jump")
  EndEventProcessing()
  DefineLabel("123")
  ShowMessageFace("sisccubus_fc1",0,0,2,2)
  ShowMessage("\\n<Christie>May I take you there?")
  EndEventProcessing()
  DefineLabel("125")
  ShowMessageFace("grizzly_fc1",0,0,2,3)
  ShowMessage("\\n<Aisha>You should be fine. There's only a few bears around there!")
  EndEventProcessing()
  0()



EVENT   9
 PAGE   1
  250(bytes(0x04,0x08,0x6f,0x3a,0x0c,0x52,0x50,0x47,0x3a,0x3a,0x53,0x45,0x08,0x3a,0x0a,0x40,0x6e,0x61,0x6d,0x65,0x49,0x22,0x0a,0x49,0x74,0x65,0x6d,0x31,0x06,0x3a,0x06,0x45,0x54,0x3a,0x0b,0x40,0x70,0x69,0x74,0x63,0x68,0x69,0x69,0x3a,0x0c,0x40,0x76,0x6f,0x6c,0x75,0x6d,0x65,0x69,0x55))
  ChangeSelfSwitch("A",0)
  ChangeInventoryWeapon(8,0,0,1,false)
  0()
 PAGE   2
  // condition: self-switch A is ON
  0()



EVENT   10
 PAGE   1
  ShowMessageFace("",0,0,2,1)
  ShowMessage("\\n<Priest>Pray solemnly and in tranquility, and surely the Goddess will forgive your sins.")
  0()



EVENT   55
 PAGE   1
  ShowMessageFace("",0,0,2,1)
  ShowMessage("\\n<Priest>The Goddess is right by your side. Now, let us pray in silence...")
  0()



EVENT   77
 PAGE   1
  // condition: variable 1022 >= 6
  ChangeSwitch(2120,2120,0)
  If(0,6,0)
   ShowMessageFace("sonia_fc1",0,0,2,1)
   ShowMessage("\\n<Sonya>The research lab is west of here, right? The pope said he had something for us in there, so let's go take a look.")
   0()
  Else()
   ShowMessageFace("ruka_fc1",0,0,2,2)
   ShowMessage("\\n<Luka>I think the research lab is west of here. The Pope said he had something for us in there.")
   0()
  EndIf()
  0()
 PAGE   2
  // condition: player has item #606
  0()
 PAGE   3
  // condition: switch 2120 is ON
  0()



EVENT   82
 PAGE   1
  ShowMessageFace("",0,0,2,1)
  ShowMessage("\\n<Priest>The Underground Library houses several masterpieces and rare books. It's absolutely unbearable for it to have become a dungeon!")
  0()



EVENT   78
 PAGE   1
  // condition: variable 1022 >= 6
  ChangeSwitch(2120,2120,0)
  If(0,6,0)
   ShowMessageFace("sonia_fc1",0,0,2,1)
   ShowMessage("\\n<Sonya>The research lab is west of here, right? The pope said he had something for us in there, so let's go take a look.")
   0()
  Else()
   ShowMessageFace("ruka_fc1",0,0,2,2)
   ShowMessage("\\n<Luka>I think the research lab is west of here. The Pope said he had something for us in there.")
   0()
  EndIf()
  0()
 PAGE   2
  // condition: player has item #606
  0()
 PAGE   3
  // condition: switch 2120 is ON
  0()



EVENT   80
 PAGE   1
  // condition: variable 1022 >= 6
  ChangeSwitch(2120,2120,0)
  If(0,6,0)
   ShowMessageFace("sonia_fc1",0,0,2,1)
   ShowMessage("\\n<Sonya>The research lab is west of here, right? The pope said he had something for us in there, so let's go take a look.")
   0()
  Else()
   ShowMessageFace("ruka_fc1",0,0,2,2)
   ShowMessage("\\n<Luka>I think the research lab is west of here. The Pope said he had something for us in there.")
   0()
  EndIf()
  0()
 PAGE   2
  // condition: player has item #606
  0()
 PAGE   3
  // condition: switch 2120 is ON
  0()



EVENT   81
 PAGE   1
  // condition: variable 1022 >= 6
  ChangeSwitch(2120,2120,0)
  If(0,6,0)
   ShowMessageFace("sonia_fc1",0,0,2,1)
   ShowMessage("\\n<Sonya>The research lab is west of here, right? The pope said he had something for us in there, so let's go take a look.")
   0()
  Else()
   ShowMessageFace("ruka_fc1",0,0,2,2)
   ShowMessage("\\n<Luka>I think the research lab is west of here. The Pope said he had something for us in there.")
   0()
  EndIf()
  0()
 PAGE   2
  // condition: player has item #606
  0()
 PAGE   3
  // condition: switch 2120 is ON
  0()



EVENT   79
 PAGE   1
  If(1,1022,0,5,2)
   ShowMessageFace("",0,0,2,1)
   ShowMessage("\\n<Old Woman>In a few days, I will have an audience with the Pope. It's far more than I deserve. I'm so nervous it feels like my heart might stop.")
   EndEventProcessing()
   0()
  EndIf()
  If(1,1022,0,6,1)
   ShowMessageFace("",0,0,2,2)
   ShowMessage("\\n<Old Woman>I had my audience with the Pope. Our conversation was absolutely wonderful, and so very inspiring.")
   ShowMessageFace("",0,0,2,3)
   ShowMessage("\\n<Old Woman>However, the Knight Commander was coughing a lot. I hope His Holiness won't catch anything from him.")
   EndEventProcessing()
   0()
  EndIf()
  0()



EVENT   36
 PAGE   1
  If(1,1022,0,0,0)
   ShowMessageFace("",0,0,2,1)
   ShowMessage("\\n<Knight Commander>I am charged with protecting His Holiness the Pope. Even if it costs me my life, I shall protect His Holiness.")
   ShowMessageFace("",0,0,2,2)
   ShowMessage("\\n<Knight Commander>However, that assassination attempt showed me my own incompetence. If only I had taken that blast instead of His Holiness!")
   ShowMessageFace("saniria_fc1",0,0,2,3)
   ShowMessage("\\n<King of San Ilia>Our lives are the most important thing given to us by Ilias. You shouldn't ever wish you had lost it.")
   ShowMessageFace("",0,0,2,4)
   ShowMessage("\\n<Knight Commander>Yes, Your Holiness, I apologize. But, that attack was... Your Holiness was...")
   EndEventProcessing()
   0()
  EndIf()
  If(1,1022,0,1,0)
   If(8,153)
    If(1,1021,0,2,0)
     ShowMessageFace("",0,0,2,5)
     ShowMessage("\\n<Knight Commander>It seems you have acquired Mithril. If you have enough skill to do that, you should be able to overcome the danger that awaits you.")
     ShowMessageFace("",0,0,2,6)
     ShowMessage("\\n<Knight Commander>Furthermore, I can sense you have received an even greater power than mere Mithril...")
     ShowMessageFace("",0,0,2,7)
     ShowMessage("\\n<Knight Commander>In any case, I will no longer block your path. Please feel free to speak with His Holiness.")
     0()
    Else()
     ShowMessageFace("",0,0,2,8)
     ShowMessage("\\n<Knight Commander>It seems you have acquired Mithril. If you have enough skill to do that, you should be able to overcome the danger that awaits you.")
     ShowMessageFace("",0,0,2,9)
     ShowMessage("\\n<Knight Commander>I apologize for doubting your strength and courage. Please feel free to speak with His Holiness.")
     0()
    EndIf()
    EndEventProcessing()
    0()
   Else()
    If(0,2067,0)
     If(2,"A",1)
      ChangeSelfSwitch("A",0)
      ChangeVariable(1021,1021,0,0,1)
      ShowMessageFace("",0,0,2,10)
      ShowMessage("\\n<Knight Commander>First of all, I apologize for my discourtesy. We are the ones asking for aid, so my interfering and insulting you was the epitome of rudeness.")
      If(4,62,0)
       ShowMessageFace("gob_fc1",0,0,2,11)
       ShowMessage("\\n<Gob>No problem. You're just worried, right?")
       ShowMessageFace("",0,0,2,12)
       ShowMessage("\\n<Knight Commander>Yes. It's an extremely dangerous mission, so please, understand that this is to protect you as well.")
       0()
      Else()
       ShowMessageFace("",0,0,2,13)
       ShowMessage("\\n<Knight Commander>However, this is an extremely dangerous mission. Please understand that this is to protect you as well. ")
       0()
      EndIf()
      ShowMessageFace("",0,0,2,14)
      ShowMessage("\\n<Knight Commander>Mithril equipment isn't normally sold to the general public. You'll need to bring Mithril ore to the blacksmith and have it custom-made.")
      ShowMessageFace("",0,0,2,15)
      ShowMessage("\\n<Knight Commander>You can acquire Mithril north of here, on St. Amos Mountain. It's peak is said to be the closest place to heaven in the Natalia Region.")
      ShowMessageFace("",0,0,2,16)
      ShowMessage("\\n<Knight Commander>A permit is required to mine Mithril ore, but I will handle the formalities, so you need not concern yourselves with that.")
      ShowMessageFace("",0,0,2,17)
      ShowMessage("\\n<Knight Commander>Once you leave the castle, you'll see a mountain range to the north. If you circle around it from the east, then go north, you'll be able to climb St. Amos Mountain.")
      ShowMessageFace("ruka_fc1",0,0,2,18)
      ShowMessage("\\n<Luka>And there I'll be able to mine Mithril ore, after which the blacksmith will make Mithril equipment for us.")
      If(4,72,0)
       ShowMessageFace("phoenix_fc1",1,0,2,19)
       ShowMessage("\\n<Mini>Well, that's simple!")
       0()
      EndIf()
      ShowMessageFace("",0,0,2,20)
      ShowMessage("\\n<Knight Commander>If you've skill enough to do that, then I'll be put at ease and able to leave this mission to you without any concerns.")
      ShowMessageFace("",0,0,2,21)
      ShowMessage("Mithril equipment. Not only will it make the Knight Commander accept us, but it'll also probably be useful for our adventure.")
      If(4,68,0)
       ShowMessageFace("dragonp_fc1",0,0,2,22)
       ShowMessage("\\n<Papi>Well then, let's go climb the mountain!")
       If(4,118,0)
        ShowMessageFace("meia_fc1",2,0,2,23)
        ShowMessage("\\n<Meia>It's been a while since we were out on a picnic. I need to make lunch boxes.")
        0()
       EndIf()
       0()
      EndIf()
      If(0,5,0)
       ShowMessageFace("iriasu_fc4",2,0,2,24)
       ShowMessage("\\n<Ilias>......")
       ShowMessageFace("iriasu_fc4",2,0,2,25)
       ShowMessage("\\n<Ilias>Knight Commander, there's something Luka and I have to talk about, between just the two of us. Turn around and face the wall.")
       ShowMessageFace("",0,0,2,26)
       ShowMessage("\\n<Knight Commander>Er, v-very well...")
       205(0,bytes(0x04,0x08,0x6f,0x3a,0x13,0x52,0x50,0x47,0x3a,0x3a,0x4d,0x6f,0x76,0x65,0x52,0x6f,0x75,0x74,0x65,0x09,0x3a,0x0c,0x40,0x72,0x65,0x70,0x65,0x61,0x74,0x46,0x3a,0x0f,0x40,0x73,0x6b,0x69,0x70,0x70,0x61,0x62,0x6c,0x65,0x46,0x3a,0x0a,0x40,0x77,0x61,0x69,0x74,0x46,0x3a,0x0a,0x40,0x6c,0x69,0x73,0x74,0x5b,0x07,0x6f,0x3a,0x15,0x52,0x50,0x47,0x3a,0x3a,0x4d,0x6f,0x76,0x65,0x43,0x6f,0x6d,0x6d,0x61,0x6e,0x64,0x07,0x3a,0x0a,0x40,0x63,0x6f,0x64,0x65,0x69,0x18,0x3a,0x10,0x40,0x70,0x61,0x72,0x61,0x6d,0x65,0x74,0x65,0x72,0x73,0x5b,0x00,0x6f,0x3b,0x0a,0x07,0x3b,0x0b,0x69,0x00,0x3b,0x0c,0x5b,0x00))
       ShowMessageFace("iriasu_fc4",2,0,2,27)
       ShowMessage("\\n<Ilias>Luka, when we arrived here, I told you that there is something else we need to do while we're in this region.")
       ShowMessageFace("iriasu_fc4",2,0,2,28)
       ShowMessage("\\n<Ilias>As you have heard, St. Amos Mountain is very near to Heaven. Therefore, it's an optimal place from which to commune with it.")
       ShowMessageFace("iriasu_fc4",2,0,2,29)
       ShowMessage("\\n<Ilias>I don't believe that Heaven has actually vanished. Once we are atop St. Amos Mountain, I will prove so by contacting it.")
       ShowMessageFace("ruka_fc1",0,0,2,30)
       ShowMessage("\\n<Luka>So, we have one more goal alongside acquiring Mithril. Understood. Now, let's climb to the summit.")
       ShowMessageFace("iriasu_fc4",1,0,2,31)
       ShowMessage("\\n<Ilias>Escort me well, Luka.")
       ShowMessageFace("",0,0,2,32)
       ShowMessage("I guess we now have an errand on top of St. Amos Mountain too.")
       0()
      EndIf()
      EndEventProcessing()
      0()
     Else()
      ShowMessageFace("",0,0,2,33)
      ShowMessage("\\n<Knight Commander>Mithril equipment isn't normally sold to the general public. You'll need to bring Mithril ore to the blacksmith and have it custom-made.")
      ShowMessageFace("",0,0,2,34)
      ShowMessage("\\n<Knight Commander>You can acquire Mithril north of here, on St. Amos Mountain. It's peak is said to be the closest place to heaven in the Natalia Region.")
      ShowMessageFace("",0,0,2,35)
      ShowMessage("\\n<Knight Commander>Once you leave the castle, you'll see a mountain range to the north. If you circle around it from the east, then go north, you'll be able to climb St. Amos Mountain.")
      EndEventProcessing()
      0()
     EndIf()
     0()
    Else()
     ShowMessageFace("",0,0,2,36)
     ShowMessage("\\n<Knight Commander>......")
     ShowMessageFace("",0,0,2,37)
     ShowMessage("The Knight Commander seems to be lost in thought.")
     EndEventProcessing()
     0()
    EndIf()
    0()
   EndIf()
   0()
  EndIf()
  If(1,1022,0,2,0)
   ShowMessageFace("",0,0,2,38)
   ShowMessage("\\n<Knight Commander>Please be sure to protect His Holiness. I would join you, but I am responsible for protecting this castle, so I cannot leave this place.")
   EndEventProcessing()
   0()
  EndIf()
  If(1,1022,0,3,0)
   ShowMessageFace("",0,0,2,39)
   ShowMessage("\\n<Knight Commander>Oh? Why are you here? Have you yet to meet up with His Holiness?")
   EndEventProcessing()
   0()
  EndIf()
  If(1,1022,0,4,0)
   ShowMessageFace("",0,0,2,40)
   ShowMessage("\\n<Knight Commander>Oh? Why are you here? Have you yet to meet up with His Holiness?")
   EndEventProcessing()
   0()
  EndIf()
  If(1,1022,0,5,0)
   ShowMessageFace("",0,0,2,41)
   ShowMessage("\\n<Knight Commander>You've returned. Were your preparations lacking? Please, forgive me for being unable to lend you my strength.")
   EndEventProcessing()
   0()
  EndIf()
  If(1,1022,0,6,1)
   ShowMessageFace("",0,0,2,42)
   ShowMessage("\\n<Knight Commander>Don't worry, we have yet to be found out. When the double's mechanical sounds get loud, I cover it by loudly coughing.")
   If(0,1564,1)
    ShowMessageFace("",0,0,2,43)
    ShowMessage("\\n<Knight Commander>......")
    ShowMessageFace("",0,0,2,44)
    ShowMessage("\\n<Knight Commander>Should I come with you after all? With the aid of my [Ilias's Lightning] skill, I shall protect His Holiness. Oh, and you, of course.")
    ShowChoices(strings("Let him join","Decline for now"),0)
    IfPlayerPicksChoice(0,null)
     ShowMessageFace("",0,0,2,45)
     ShowMessage("\\n<Knight Commander>Thank you very much! San Ilia's Knight Commander, John, shall lend you his strength from now on!")
     205(0,bytes(0x04,0x08,0x6f,0x3a,0x13,0x52,0x50,0x47,0x3a,0x3a,0x4d,0x6f,0x76,0x65,0x52,0x6f,0x75,0x74,0x65,0x09,0x3a,0x0c,0x40,0x72,0x65,0x70,0x65,0x61,0x74,0x46,0x3a,0x0f,0x40,0x73,0x6b,0x69,0x70,0x70,0x61,0x62,0x6c,0x65,0x46,0x3a,0x0a,0x40,0x77,0x61,0x69,0x74,0x54,0x3a,0x0a,0x40,0x6c,0x69,0x73,0x74,0x5b,0x09,0x6f,0x3a,0x15,0x52,0x50,0x47,0x3a,0x3a,0x4d,0x6f,0x76,0x65,0x43,0x6f,0x6d,0x6d,0x61,0x6e,0x64,0x07,0x3a,0x0a,0x40,0x63,0x6f,0x64,0x65,0x69,0x2a,0x3a,0x10,0x40,0x70,0x61,0x72,0x61,0x6d,0x65,0x74,0x65,0x72,0x73,0x5b,0x00,0x6f,0x3b,0x0a,0x07,0x3b,0x0b,0x69,0x0f,0x3b,0x0c,0x5b,0x00,0x6f,0x3b,0x0a,0x07,0x3b,0x0b,0x69,0x2c,0x3b,0x0c,0x5b,0x00,0x6f,0x3b,0x0a,0x07,0x3b,0x0b,0x69,0x00,0x3b,0x0c,0x5b,0x00))
     355("add_actor_ex(564)")
     249(bytes(0x04,0x08,0x6f,0x3a,0x0c,0x52,0x50,0x47,0x3a,0x3a,0x4d,0x45,0x08,0x3a,0x0a,0x40,0x6e,0x61,0x6d,0x65,0x49,0x22,0x0c,0x66,0x61,0x6e,0x66,0x61,0x6c,0x65,0x06,0x3a,0x06,0x45,0x54,0x3a,0x0b,0x40,0x70,0x69,0x74,0x63,0x68,0x69,0x69,0x3a,0x0c,0x40,0x76,0x6f,0x6c,0x75,0x6d,0x65,0x69,0x69))
     ShowMessageFace("",0,0,2,46)
     ShowMessage("John joined the party!")
     Wait(60)
     ChangeSwitch(2140,2140,0)
     EndEventProcessing()
     0()
    IfPlayerPicksChoice(1,null)
     ShowMessageFace("",0,0,2,47)
     ShowMessage("\\n<Knight Commander>Is that so. Then, I leave His Holiness in your care.")
     EndEventProcessing()
     0()
    404()
    0()
   EndIf()
   0()
  EndIf()
  0()
 PAGE   2
  // condition: switch 2140 is ON
  // condition: party contains actor #564
  0()



EVENT   39
 PAGE   1
  ShowMessageFace("",0,0,2,1)
  ShowMessage("\\n<Guard>San Ilia Castle once had a sword called the [Goddess Sword]. It's supposed to be bestowed upon a true hero who is worthy of it.")
  ShowMessageFace("",0,0,2,2)
  ShowMessage("\\n<Guard>However, it was apparently lost several years ago. Frankly, it all seems a bit ominous to me.")
  355("actor_label_jump")
  EndEventProcessing()
  DefineLabel("26")
  ShowMessageFace("iriasu_fc4",2,0,2,3)
  ShowMessage("\\n<Ilias>In reality, the sword was merely symbolic. It was made so that humanity would not lose sight of what it represents.")
  EndEventProcessing()
  DefineLabel("531")
  ShowMessageFace("saniria_fc2",0,0,2,4)
  ShowMessage("\\n<King of San Ilia>Confidentially, the Sword was actually just an ordinary Mithril sword.")
  ShowMessageFace("saniria_fc2",0,0,2,5)
  ShowMessage("\\n<King of San Ilia>It was a good sword, mind you, but hardly a weapon of legends. I wonder why it garnered such a legendary reputation?")
  ShowMessageFace("saniria_fc2",0,0,2,6)
  ShowMessage("\\n<King of San Ilia>Regardless, officially, the Sword has been lost. In reality, it has been hidden in the back of a warehouse.")
  EndEventProcessing()
  0()



EVENT   56
 PAGE   1
  ShowMessageFace("",0,0,2,1)
  ShowMessage("\\n<Priest>Our duty is guide those who have begun to lose their faith. As such, we cannot allow ourselves to have any doubt in Ilias.")
  ShowMessageFace("",0,0,2,2)
  ShowMessage("\\n<Priest>The Goddess is with us at all times. The Goddess will always respond to our prayers.")
  355("actor_label_jump")
  EndEventProcessing()
  DefineLabel("26")
  ShowMessageFace("iriasu_fc4",0,0,2,3)
  ShowMessage("\\n<Ilias>Indeed. Just continue to single-mindedly believe in me.")
  EndEventProcessing()
  0()



EVENT   73
 PAGE   1
  ShowMessageFace("",0,0,2,1)
  ShowMessage("\\n<Noble's Daughter>A poor church doesn't fit me at all. It must be at least as glorious as this cathedral!")
  355("actor_label_jump")
  EndEventProcessing()
  DefineLabel("26")
  ShowMessageFace("iriasu_fc4",2,0,2,2)
  ShowMessage("\\n<Ilias>How utterly foolish. She's completely forgotten the heavenly virtue of honorable poverty.")
  If(4,41,0)
   ShowMessageFace("stein_fc2",0,0,2,3)
   ShowMessage("\\n<Promestein>So, why is the foremost cathedral of a religion which espouses the virtues of poverty this luxurious?")
   ShowMessageFace("iriasu_fc4",2,0,2,4)
   ShowMessage("\\n<Ilias>(I really need to remember where that cave I locked her in was...)")
   0()
  EndIf()
  EndEventProcessing()
  DefineLabel("91")
  ShowMessageFace("candle_fc1",1,0,2,5)
  ShowMessage("\\n<Chandra>As I thought, things are better when they're luxurious. Maybe I should gather my friends so we can provide illumination here.")
  EndEventProcessing()
  0()