﻿


EVENT   1
 PAGE   1
  0()



EVENT   2
 PAGE   1
  // condition: switch 4 is ON
  0()
 PAGE   2
  // condition: switch 5 is ON
  0()



EVENT   3
 PAGE   1
  // condition: switch 1079 is ON
  0()



EVENT   4
 PAGE   1
  0()



EVENT   5
 PAGE   1
  // condition: switch 6 is ON
  0()



EVENT   6
 PAGE   1
  // condition: switch 4 is ON
  Wait(60)
  222()
  ShowMessageFace("alice_fc5",0,0,2,1)
  ShowMessage("\\n<Alice>Now then, let's begin the strategy meeting.")
  ShowMessageFace("ruka_fc1",0,0,2,2)
  ShowMessage("\\n<Luka>Once again, we need to decide how to proceed. I'm still mixed up from all the weird stuff we've seen...")
  If(0,6,0)
   ShowMessageFace("sonia_fc2",2,0,2,3)
   ShowMessage("\\n<Sonya>Me too. This all feels like one big nightmare. I mean, going to a different world, crazy...")
   0()
  EndIf()
  If(0,1079,0)
   205(3,bytes(0x04,0x08,0x6f,0x3a,0x13,0x52,0x50,0x47,0x3a,0x3a,0x4d,0x6f,0x76,0x65,0x52,0x6f,0x75,0x74,0x65,0x09,0x3a,0x0c,0x40,0x72,0x65,0x70,0x65,0x61,0x74,0x46,0x3a,0x0f,0x40,0x73,0x6b,0x69,0x70,0x70,0x61,0x62,0x6c,0x65,0x46,0x3a,0x0a,0x40,0x77,0x61,0x69,0x74,0x46,0x3a,0x0a,0x40,0x6c,0x69,0x73,0x74,0x5b,0x08,0x6f,0x3a,0x15,0x52,0x50,0x47,0x3a,0x3a,0x4d,0x6f,0x76,0x65,0x43,0x6f,0x6d,0x6d,0x61,0x6e,0x64,0x07,0x3a,0x0a,0x40,0x63,0x6f,0x64,0x65,0x69,0x13,0x3a,0x10,0x40,0x70,0x61,0x72,0x61,0x6d,0x65,0x74,0x65,0x72,0x73,0x5b,0x07,0x69,0x00,0x69,0x00,0x6f,0x3b,0x0a,0x07,0x3b,0x0b,0x69,0x13,0x3b,0x0c,0x5b,0x07,0x69,0x00,0x69,0x00,0x6f,0x3b,0x0a,0x07,0x3b,0x0b,0x69,0x00,0x3b,0x0c,0x5b,0x00))
   ShowMessageFace("nuruko_fc1",0,0,2,4)
   ShowMessage("\\n<Nuruko>Kyuu! Kyuu!")
   ShowMessageFace("alice_fc5",0,0,2,5)
   ShowMessage("\\n<Alice>Why is SHE here...? Whatever.")
   0()
  EndIf()
  PictureDisplay(5,"80_alice_st71",0,0,0,0,100,100,0,0)
  PictureMove(5,null,0,0,0,0,100,100,255,0,30,true)
  ShowMessageFace("alice_fc5",0,0,2,6)
  ShowMessage("\\n<Alice>You guys were roped into this mess just recently, but it all began for me when that rabbit changed me into this form.")
  PictureDisplay(5,"80_alice_st74",0,0,0,0,100,100,255,0)
  ShowMessageFace("alice_fc5",3,0,2,7)
  ShowMessage("\\n<Alice>That was my problem alone, and I was simply borrowing your help to solve it.")
  If(0,6,0)
   ShowMessageFace("sonia_fc2",2,0,2,8)
   ShowMessage("\\n<Sonya>But it's not that simple anymore. I mean, I saw my own grave...")
   0()
  Else()
   ShowMessageFace("ruka_fc1",0,0,2,9)
   ShowMessage("\\n<Luka>It's a lot more complicated than that now. I mean, I saw my own grave...")
   0()
  EndIf()
  PictureDisplay(5,"80_alice_st71",0,0,0,0,100,100,255,0)
  ShowMessageFace("alice_fc5",0,0,2,10)
  ShowMessage("\\n<Alice>Yes, and now this concerns you too. No, perhaps it's better to say this concerns everyone in the world.")
  ShowMessageFace("alice_fc5",0,0,2,11)
  ShowMessage("\\n<Alice>Tamamo always told me that in times like these, we need to break down our problems and analyze them individually. That should guide us towards what needs to be done next.")
  ChangeVariable(10,18,0,0,0)
  DefineLabel("0")
  ShowMessageFace("",0,0,2,12)
  ShowMessage("What would you like to discuss?")
  355("unlimited_choices(11, [\"The rabbit\",")
  655("\"Tartarus\",\"Other world\",")
  655("\"Reasons other world destroyed\",\"Luka's powers\",")
  655("\"Alice's subordinates\", \"What to do next\"])")
  If(1,11,0,0,0)
   PictureDisplay(5,"80_alice_st71",0,0,0,0,100,100,255,0)
   ShowMessageFace("alice_fc5",0,0,2,13)
   ShowMessage("\\n<Alice>The rabbit showed up at my castle out of the blue and transformed me for reasons unknown.")
   PictureDisplay(5,"80_alice_st74",0,0,0,0,100,100,255,0)
   ShowMessageFace("alice_fc5",3,0,2,14)
   ShowMessage("\\n<Alice>She says that her duty is to guide the Monster Lord, and from what we've seen, she's certainly devoted to doing so...")
   If(0,6,0)
    ShowMessageFace("sonia_fc2",2,0,2,15)
    ShowMessage("\\n<Sonya>We ended up in that other world because we were following her. Did she really lead us there on purpose?")
    0()
   Else()
    ShowMessageFace("ruka_fc1",0,0,2,16)
    ShowMessage("\\n<Luka>We ended up in that other world because we were following her. It seems she led us there on purpose.")
    0()
   EndIf()
   PictureDisplay(5,"80_alice_st71",0,0,0,0,100,100,255,0)
   ShowMessageFace("alice_fc5",0,0,2,17)
   ShowMessage("\\n<Alice>It appears that she wants to show me things. Perhaps what we saw there is related to the impending crisis in our world.")
   If(0,6,0)
    ShowMessageFace("sonia_fc2",2,0,2,18)
    ShowMessage("\\n<Sonya>But who in the world is she? She must be pretty powerful to toy with the Monster Lord...")
    0()
   Else()
    ShowMessageFace("ruka_fc1",0,0,2,19)
    ShowMessage("\\n<Luka>But who in the world is she? She must be pretty powerful to toy with the Monster Lord...")
    0()
   EndIf()
   ShowMessageFace("alice_fc5",0,0,2,20)
   ShowMessage("\\n<Alice>Don't remind me... Anyway, I do remember hearing a story about a white rabbit guiding Alice.")
   PictureDisplay(5,"80_alice_st74",0,0,0,0,100,100,255,0)
   ShowMessageFace("alice_fc5",3,0,2,21)
   ShowMessage("\\n<Alice>If she exists just to guide me, it would make sense that she could travel between worlds.")
   PictureDisplay(5,"80_alice_st71",0,0,0,0,100,100,255,0)
   ShowMessageFace("alice_fc5",0,0,2,22)
   ShowMessage("\\n<Alice>At any rate, one of our objectives is to keep following her. As much as it pains me to be led around by the nose, I don't see what choice we have.")
   If(1,15,0,0,0)
    ChangeVariable(10,10,1,0,1)
    0()
   EndIf()
   ChangeVariable(15,15,0,0,1)
   JumpToLabel("0")
   0()
  EndIf()
  If(1,11,0,1,0)
   PictureDisplay(5,"80_alice_st74",0,0,0,0,100,100,255,0)
   ShowMessageFace("alice_fc5",3,0,2,23)
   ShowMessage("\\n<Alice>Tartarus is a tear in spacetime that appeared during the Great Disaster 30 years ago. Everything about it has been shrouded in mystery...")
   PictureDisplay(5,"80_alice_st71",0,0,0,0,100,100,255,0)
   ShowMessageFace("alice_fc5",0,0,2,24)
   ShowMessage("\\n<Alice>But now we've successfully gone through it. Who would have thought there'd be another world so similar to our own though...")
   ShowMessageFace("ruka_fc1",0,0,2,25)
   ShowMessage("\\n<Luka>In other words, Tartarus is a tunnel to another world. That still doesn't explain why it exists...")
   ShowMessageFace("alice_fc5",0,0,2,26)
   ShowMessage("\\n<Alice>We know that Tartarus appeared at the same time as the Great Disaster, but we have no idea how they're related.")
   ShowMessageFace("alice_fc5",0,0,2,27)
   ShowMessage("\\n<Alice>Did the opening of the tunnel cause the disaster? Or perhaps the disaster caused the tunnel to open?")
   ShowMessageFace("alice_fc5",0,0,2,28)
   ShowMessage("\\n<Alice>Let's not forget that Tartarus is full of monsters that even I've never seen or heard of before.")
   If(0,6,0)
    ShowMessageFace("sonia_fc2",2,0,2,29)
    ShowMessage("\\n<Sonya>They were all really weird kinds of monsters too...")
    0()
   Else()
    ShowMessageFace("ruka_fc1",0,0,2,30)
    ShowMessage("\\n<Luka>They were all rather bizarre monsters too...")
    0()
   EndIf()
   ShowMessageFace("alice_fc5",0,0,2,31)
   ShowMessage("\\n<Alice>The impression I got was that holy and dark energies had blended together chaotically...")
   ShowMessageFace("alice_fc5",0,0,2,32)
   ShowMessage("\\n<Alice>On top of that, we saw a human transformed into a monster before our very eyes. It's possible that all the monsters we saw used to be human.")
   If(0,6,0)
    If(0,1079,0)
     ShowMessageFace("nuruko_fc1",0,0,2,33)
     ShowMessage("\\n<Nuruko>Kyuu! Kyuu!")
     ShowMessageFace("sonia_fc2",2,0,2,34)
     ShowMessage("\\n<Sonya>Would that include Nuruko?")
     PictureDisplay(5,"80_alice_st74",0,0,0,0,100,100,255,0)
     ShowMessageFace("alice_fc5",3,0,2,35)
     ShowMessage("\\n<Alice>I don't know, but I get the feeling that she's different somehow.")
     0()
    EndIf()
    0()
   EndIf()
   PictureDisplay(5,"80_alice_st71",0,0,0,0,100,100,255,0)
   ShowMessageFace("alice_fc5",0,0,2,36)
   ShowMessage("\\n<Alice>The transformed monsters seemed to recognize us as enemies. It's possible that their job is to repel foreign invaders.")
   ShowMessageFace("alice_fc5",0,0,2,37)
   ShowMessage("\\n<Alice>However, it didn't look like they were living in any kind of organized society there. We have absolutely no idea what happens when we're not there...")
   ShowMessageFace("ruka_fc1",0,0,2,38)
   ShowMessage("\\n<Luka>The part that makes the least sense to me is that there's a town in there, and not just any town, but Remina itself.")
   ShowMessageFace("alice_fc5",0,0,2,39)
   ShowMessage("\\n<Alice>A town that should have been destroyed 30 years ago, yet a section of it still remains inside Tartarus.")
   PictureDisplay(5,"80_alice_st74",0,0,0,0,100,100,255,0)
   ShowMessageFace("alice_fc5",3,0,2,40)
   ShowMessage("\\n<Alice>It looked bizarre, as if it were being eroded by space itself, and the inhabitants acted like they had gone insane.")
   If(0,6,0)
    ShowMessageFace("sonia_fc2",2,0,2,41)
    ShowMessage("\\n<Sonya>I don't understand any of this...")
    0()
   Else()
    ShowMessageFace("ruka_fc1",0,0,2,42)
    ShowMessage("\\n<Luka>We understand just about nothing then...")
    0()
   EndIf()
   PictureDisplay(5,"80_alice_st71",0,0,0,0,100,100,255,0)
   ShowMessageFace("alice_fc5",0,0,2,43)
   ShowMessage("\\n<Alice>We don't understand because we don't have enough information. With what we know now, we aren't in any position to make firm conclusions.")
   ShowMessageFace("alice_fc5",0,0,2,44)
   ShowMessage("\\n<Alice>We're going to have to investigate Tartarus more thoroughly. Not just that Tartarus, but the other ones as well.")
   If(1,12,0,0,0)
    ChangeVariable(10,10,1,0,1)
    0()
   EndIf()
   ChangeVariable(12,12,0,0,1)
   JumpToLabel("0")
   0()
  EndIf()
  If(1,11,0,2,0)
   PictureDisplay(5,"80_alice_st71",0,0,0,0,100,100,255,0)
   ShowMessageFace("alice_fc5",0,0,2,45)
   ShowMessage("\\n<Alice>We discovered a different world after passing through Tartarus. The other world is strange, yet closely resembles our own.")
   If(0,6,0)
    ShowMessageFace("sonia_fc2",2,0,2,46)
    ShowMessage("\\n<Sonya>Except that our village was destroyed and Luka and I were dead...")
    ShowMessageFace("sonia_fc4",0,0,2,47)
    ShowMessage("\\n<Sonya>That freaks me out even knowing that it happened in another world.")
    0()
   Else()
    ShowMessageFace("ruka_fc1",0,0,2,48)
    ShowMessage("\\n<Luka>Except that our village was destroyed and I was dead...")
    ShowMessageFace("ruka_fc1",0,0,2,49)
    ShowMessage("\\n<Luka>Even knowing that happened in another world doesn't sit well with me.")
    0()
   EndIf()
   PictureDisplay(5,"80_alice_st71",0,0,0,0,100,100,255,0)
   ShowMessageFace("alice_fc5",0,0,2,50)
   ShowMessage("\\n<Alice>Yes, despite the similarities, a number of things were different in that world. It is 10 years into the future, and Luka appears to have failed in his adventure.")
   If(0,6,0)
    ShowMessageFace("sonia_fc2",2,0,2,51)
    ShowMessage("\\n<Sonya>Whatever happened there isn't going to repeat itself here, is it? If that world represents our future, then...")
    0()
   Else()
    ShowMessageFace("ruka_fc1",0,0,2,52)
    ShowMessage("\\n<Luka>Whatever happened there isn't going to repeat itself here, is it? If that world represents our future, then...")
    0()
   EndIf()
   ShowMessageFace("alice_fc5",0,0,2,53)
   ShowMessage("\\n<Alice>We can't say for certain, but some things have already happened differently here, at least.")
   ShowMessageFace("alice_fc5",0,0,2,54)
   ShowMessage("\\n<Alice>For example, according to the diary we found, you met Granberia in Iliasburg and then returned to your village.")
   ShowMessageFace("alice_fc5",0,0,2,55)
   ShowMessage("\\n<Alice>Of course, that didn't happen to us.")
   ShowMessageFace("alice_fc5",0,0,2,56)
   ShowMessage("\\n<Alice>Not only was Granberia not in Iliasburg, we've continued adventuring since.")
   ShowMessageFace("ruka_fc1",0,0,2,57)
   ShowMessage("\\n<Luka>That's true. The diary didn't match up with our experiences.")
   ShowMessageFace("alice_fc5",0,0,2,58)
   ShowMessage("\\n<Alice>That world is extremely similar, but not the same. It's possible that it represents one future that could have been ours...")
   If(0,6,0)
    ShowMessageFace("sonia_fc2",2,0,2,59)
    ShowMessage("\\n<Sonya>Something else has been bothering me for a while. There are 7 Tartarus locations, right? Do you think all of them connect to that world?")
    0()
   Else()
    ShowMessageFace("ruka_fc1",0,0,2,60)
    ShowMessage("\\n<Luka>Something else has been bothering me for a while. There are 7 Tartarus locations, right? Do you think all of them connect to that world?")
    0()
   EndIf()
   ShowMessageFace("alice_fc5",0,0,2,61)
   ShowMessage("\\n<Alice>They might... Or they might connect to different worlds instead.")
   ShowMessageFace("ruka_fc1",0,0,2,62)
   ShowMessage("\\n<Luka>You mean there could be more alternate worlds besides that one!? Possibly even 6 more of them?")
   ShowMessageFace("alice_fc5",0,0,2,63)
   ShowMessage("\\n<Alice>It's not guaranteed, but we can't discount the possibility. I do think it's worth finding out, at least.")
   If(0,6,0)
    ShowMessageFace("sonia_fc2",2,0,2,64)
    ShowMessage("\\n<Sonya>We should investigate the other Tartarus locations then? But wait, some of them are completely inaccessible, aren't they?")
    0()
   Else()
    ShowMessageFace("ruka_fc1",0,0,2,65)
    ShowMessage("\\n<Luka>We should investigate the other Tartarus locations then? But wait, there's no way to get to some of them.")
    0()
   EndIf()
   ShowMessageFace("alice_fc5",0,0,2,66)
   ShowMessage("\\n<Alice>It will be impossible to investigate them all any time soon, but it's worth considering as one of our objectives.")
   If(1,13,0,0,0)
    ChangeVariable(10,10,1,0,1)
    0()
   EndIf()
   ChangeVariable(13,13,0,0,1)
   JumpToLabel("0")
   0()
  EndIf()
  If(1,11,0,3,0)
   PictureDisplay(5,"80_alice_st71",0,0,0,0,100,100,255,0)
   ShowMessageFace("alice_fc5",0,0,2,67)
   ShowMessage("\\n<Alice>As we saw firsthand, Iliasville was destroyed in the other world. It was almost certainly the work of angels, too.")
   If(0,6,0)
    ShowMessageFace("sonia_fc2",2,0,2,68)
    ShowMessage("\\n<Sonya>Why would angels destroy Iliasville? It must have been done on the Goddess' orders, right?")
    0()
   Else()
    ShowMessageFace("ruka_fc1",0,0,2,69)
    ShowMessage("\\n<Luka>Why would angels destroy Iliasville? And did the Goddess order them to do it...?")
    0()
   EndIf()
   ShowMessageFace("alice_fc5",0,0,2,70)
   ShowMessage("\\n<Alice>I can't imagine the angels would act on their own, so yes, it's a safe bet that they were acting on her orders.")
   ShowMessageFace("alice_fc5",0,0,2,71)
   ShowMessage("\\n<Alice>Why would Ilias resort to such barbarism, though? Does it have anything to do with the tiny Ilias running around in our world?")
   ShowMessageFace("ruka_fc1",0,0,2,72)
   ShowMessage("\\n<Luka>There's so much we don't know and so little that makes sense...")
   ShowMessageFace("alice_fc5",0,0,2,73)
   ShowMessage("\\n<Alice>It might make more sense to separate the other world itself from the disaster we saw when we think about them.")
   ShowMessageFace("alice_fc5",0,0,2,74)
   ShowMessage("\\n<Alice>I still can't help but believe that what happened there was one possibility for our future.")
   If(0,6,0)
    ShowMessageFace("sonia_fc2",2,0,2,75)
    ShowMessage("\\n<Sonya>You mean the tunnel connects us to a world where Ilias ends up destroying Iliasville?")
    0()
   Else()
    ShowMessageFace("ruka_fc1",0,0,2,76)
    ShowMessage("\\n<Luka>You mean the tunnel connects us to a world where Ilias ends up destroying Iliasville?")
    0()
   EndIf()
   PictureDisplay(5,"80_alice_st74",0,0,0,0,100,100,255,0)
   ShowMessageFace("alice_fc5",3,0,2,77)
   ShowMessage("\\n<Alice>She's capable of it... Anyway, it's just a hunch.")
   PictureDisplay(5,"80_alice_st71",0,0,0,0,100,100,255,0)
   ShowMessageFace("alice_fc5",0,0,2,78)
   ShowMessage("\\n<Alice>In the end, we don't know anything for certain, and it's too dangerous to explore over there.")
   ShowMessageFace("ruka_fc1",0,0,2,79)
   ShowMessage("\\n<Luka>I'm guessing the people there don't know anything about us either. They probably think their world is the only one that exists.")
   ShowMessageFace("alice_fc5",0,0,2,80)
   ShowMessage("\\n<Alice>That's very likely. Since they can't pass through the door in Tartarus, they can't travel to other worlds.")
   PictureDisplay(5,"80_alice_st74",0,0,0,0,100,100,255,0)
   ShowMessageFace("alice_fc5",3,0,2,81)
   ShowMessage("\\n<Alice>Well... maybe the Luka of that world could have. Due to his untimely demise, we'll probably never know.")
   PictureDisplay(5,"80_alice_st71",0,0,0,0,100,100,255,0)
   ShowMessageFace("alice_fc5",0,0,2,82)
   ShowMessage("\\n<Alice>In summary, all we know is that the destruction was wrought by Ilias. So do the other Tartarus rifts lead to that same world, or...")
   If(1,14,0,0,0)
    ChangeVariable(10,10,1,0,1)
    0()
   EndIf()
   ChangeVariable(14,14,0,0,1)
   JumpToLabel("0")
   0()
  EndIf()
  If(1,11,0,4,0)
   PictureDisplay(5,"80_alice_st71",0,0,0,0,100,100,255,0)
   ShowMessageFace("alice_fc5",0,0,2,83)
   ShowMessage("\\n<Alice>Luka has the ability to open doors to alternate worlds. That much seems certain.")
   ShowMessageFace("alice_fc5",0,0,2,84)
   ShowMessage("\\n<Alice>Doors like those can't be opened by any normal means. That rabbit even said that a god couldn't open one.")
   If(0,6,0)
    ShowMessageFace("sonia_fc4",0,0,2,85)
    ShowMessage("\\n<Sonya>She may have said that, but she also hopped across worlds herself...")
    0()
   Else()
    ShowMessageFace("ruka_fc1",0,0,2,86)
    ShowMessage("\\n<Luka>She didn't appear to have any trouble traveling to that other world though...")
    0()
   EndIf()
   ShowMessageFace("alice_fc5",0,0,2,87)
   ShowMessage("\\n<Alice>Well, if she's the fabled guide she claims she is, I can understand her having that ability.")
   ShowMessageFace("alice_fc5",0,0,2,88)
   ShowMessage("\\n<Alice>You though? Why should a mere human be able to open those doors? That makes no sense.")
   ShowMessageFace("ruka_fc1",0,0,2,89)
   ShowMessage("\\n<Luka>I don't know any more than you do.")
   If(0,6,0)
    ShowMessageFace("sonia_fc2",2,0,2,90)
    ShowMessage("\\n<Sonya>Maybe it has something to do with his lineage? His father is a famous hero, his mother was beautiful...")
    PictureDisplay(5,"80_alice_st74",0,0,0,0,100,100,255,0)
    ShowMessageFace("alice_fc5",3,0,2,91)
    ShowMessage("\\n<Alice>And he acquired such power from heroism and beauty? We're talking about an ability even gods don't have...")
    0()
   EndIf()
   PictureDisplay(5,"80_alice_st71",0,0,0,0,100,100,255,0)
   ShowMessageFace("alice_fc5",0,0,2,92)
   ShowMessage("\\n<Alice>If Tamamo were here, I'd have her investigate. Gah, where is she and what is she even DOING right now?")
   ShowMessageFace("alice_fc5",0,0,2,93)
   ShowMessage("\\n<Alice>Anyway, I think our best bet is to ask your father. From what you've told me, he seemed to know a lot about what's going on.")
   ShowMessageFace("alice_fc5",0,0,2,94)
   ShowMessage("\\n<Alice>So it looks like we need to find him, after all. That was your goal in the first place, wasn't it?")
   If(1,16,0,0,0)
    ChangeVariable(10,10,1,0,1)
    0()
   EndIf()
   ChangeVariable(16,16,0,0,1)
   JumpToLabel("0")
   0()
  EndIf()
  If(1,11,0,5,0)
   PictureDisplay(5,"80_alice_st71",0,0,0,0,100,100,255,0)
   ShowMessageFace("alice_fc5",0,0,2,95)
   ShowMessage("\\n<Alice>Yeah, what ARE the four knights doing? Tamamo, at least, should have come to my aid by now.")
   If(0,6,0)
    ShowMessageFace("sonia_fc3",0,0,2,96)
    ShowMessage("\\n<Sonya>The disappearance of the Monster Lord should be a big deal to them, right? Maybe they just don't care about you or something...")
    0()
   Else()
    ShowMessageFace("ruka_fc1",0,0,2,97)
    ShowMessage("\\n<Luka>Your disappearance should be a big deal to them, right? Maybe they don't like you all that much or something...")
    0()
   EndIf()
   PictureDisplay(5,"80_alice_st77",0,0,0,0,100,100,255,0)
   ShowMessageFace("alice_fc5",6,0,2,98)
   ShowMessage("\\n<Alice>Y-you're wrong! I'm well-liked among all monsters!")
   PictureDisplay(5,"80_alice_st74",0,0,0,0,100,100,255,0)
   ShowMessageFace("alice_fc5",3,0,2,99)
   ShowMessage("\\n<Alice>...well, that might be pushing it. At any rate, I assure you that the four knights are loyal.")
   PictureDisplay(5,"80_alice_st71",0,0,0,0,100,100,255,0)
   ShowMessageFace("alice_fc5",0,0,2,100)
   ShowMessage("\\n<Alice>The average monster doesn't know I'm the Monster Lord, though. It helps ward off potential usurpers.")
   PictureDisplay(5,"80_alice_st74",0,0,0,0,100,100,255,0)
   ShowMessageFace("alice_fc5",3,0,2,101)
   ShowMessage("\\n<Alice>Not that I'm hiding my true identity or anything. I've told countless others that I am the Monster Lord lately.")
   PictureDisplay(5,"80_alice_st71",0,0,0,0,100,100,255,0)
   ShowMessageFace("alice_fc5",0,0,2,102)
   ShowMessage("\\n<Alice>Considering her ability in gathering information, I wouldn't have been surprised to see that sly kitsune Tamamo days ago.")
   PictureDisplay(5,"80_alice_st74",0,0,0,0,100,100,255,0)
   ShowMessageFace("alice_fc5",3,0,2,103)
   ShowMessage("\\n<Alice>Did that rabbit do something to her too? No, it's hard to believe she'd be waylaid that easily...")
   PictureDisplay(5,"80_alice_st71",0,0,0,0,100,100,255,0)
   ShowMessageFace("alice_fc5",0,0,2,104)
   ShowMessage("\\n<Alice>Anyway, it doesn't look like I can expect any aid. The Four Heavenly Knights must have problems of their own to deal with.")
   If(1,17,0,0,0)
    ChangeVariable(10,10,1,0,1)
    0()
   EndIf()
   ChangeVariable(17,17,0,0,1)
   JumpToLabel("0")
   0()
  EndIf()
  If(1,11,0,6,1)
   If(1,10,0,5,2)
    PictureDisplay(5,"80_alice_st71",0,0,0,0,100,100,255,0)
    ShowMessageFace("alice_fc5",0,0,2,105)
    ShowMessage("\\n<Alice>I don't think we've reviewed everything we know yet. Let's go over the situation in more detail before deciding on a course of action.")
    JumpToLabel("0")
    0()
   Else()
    PictureDisplay(5,"80_alice_st71",0,0,0,0,100,100,255,0)
    ShowMessageFace("alice_fc5",0,0,2,106)
    ShowMessage("\\n<Alice>Now then, what to do? If we put what we know together, our next steps should be clear.")
    ShowMessageFace("alice_fc5",0,0,2,107)
    ShowMessage("\\n<Alice>First, hunting down that rabbit. We still have questions for her, but her whereabouts are unknown.")
    ShowMessageFace("alice_fc5",0,0,2,108)
    ShowMessage("\\n<Alice>Next, searching for Luka's father. I suspect that he holds the key to understanding the big picture.")
    PictureDisplay(5,"80_alice_st74",0,0,0,0,100,100,255,0)
    ShowMessageFace("alice_fc5",3,0,2,109)
    ShowMessage("\\n<Alice>Unfortunately, we don't have a lead on either of them. All we can do is ask around everywhere we go.")
    PictureDisplay(5,"80_alice_st71",0,0,0,0,100,100,255,0)
    ShowMessageFace("ruka_fc1",0,0,2,110)
    ShowMessage("\\n<Luka>Yeah, we have to gather information as best we can. That was the plan from the beginning.")
    ShowMessageFace("alice_fc5",0,0,2,111)
    ShowMessage("\\n<Alice>We have added a few more concrete goals though, such as exploring all of the Tartarus rifts we can get to.")
    ShowMessageFace("alice_fc5",0,0,2,112)
    ShowMessage("\\n<Alice>There's another one on the eastern edge of this continent that I think we should target.")
    If(0,6,0)
     ShowMessageFace("sonia_fc2",2,0,2,113)
     ShowMessage("\\n<Sonya>You mean the one near Rostrum Village. Isn't it completely cut off by a mountain range?")
     0()
    Else()
     ShowMessageFace("ruka_fc1",0,0,2,114)
     ShowMessage("\\n<Luka>You mean the one near Rostrum Village. Isn't it completely cut off by a mountain range?")
     0()
    EndIf()
    If(1,1015,0,2,0)
     ShowMessageFace("alice_fc5",0,0,2,115)
     ShowMessage("\\n<Alice>There's a cave that leads through the mountains, but it won't be easy. Also, let's not forget the situation with the harpies.")
     0()
    Else()
     PictureDisplay(5,"80_alice_st74",0,0,0,0,100,100,255,0)
     ShowMessageFace("alice_fc5",3,0,2,116)
     ShowMessage("\\n<Alice>There's a cave that leads through the mountains, but it won't be easy. We might not be strong enough to safely make it to Rostrum yet.")
     PictureDisplay(5,"80_alice_st71",0,0,0,0,100,100,255,0)
     ShowMessageFace("alice_fc5",0,0,2,117)
     ShowMessage("\\n<Alice>I'd at least like to have golden equipment first. That should be enough to get us through.")
     ShowMessageFace("ruka_fc1",0,0,2,118)
     ShowMessage("\\n<Luka>Golden equipment? Oh right, I've heard that Midas Village to the north crafts it.")
     ShowMessageFace("alice_fc5",0,0,2,119)
     ShowMessage("\\n<Alice>It's a bit annoying to get to, though. First, we should go to the harpies' village east of Iliasburg.")
     ShowMessageFace("alice_fc5",0,0,2,120)
     ShowMessage("\\n<Alice>If we head north from there, we should reach Midas Village. It sounds easy, but the trip will be tough.")
     0()
    EndIf()
    If(0,6,0)
     ShowMessageFace("sonia_fc2",2,0,2,121)
     ShowMessage("\\n<Sonya>Oh yeah, it sounded like all the harpies just vanished one day, leaving their village empty.")
     0()
    Else()
     ShowMessageFace("ruka_fc1",0,0,2,122)
     ShowMessage("\\n<Luka>Oh yeah, it sounded like all the harpies just vanished one day, leaving their village empty.")
     0()
    EndIf()
    ShowMessageFace("alice_fc5",0,0,2,123)
    ShowMessage("\\n<Alice>That definitely has me worried. It's also possible that whatever happened to them is connected to a larger series of events.")
    ShowMessageFace("ruka_fc1",0,0,2,124)
    ShowMessage("\\n<Luka>I'd like to see if there's anything we can do, assuming we have time...")
    ShowMessageFace("alice_fc5",0,0,2,125)
    ShowMessage("\\n<Alice>Harpy Village is east of Iliasburg. Since Happiness Village is right beside it, we should ask around there first.")
    If(1,1015,0,2,0)
     ShowMessageFace("alice_fc5",0,0,2,126)
     ShowMessage("\\n<Alice>After we've taken care of that, we can finally get back to our main goal of going through the eastern mountains and into the remote Tartarus there.")
     0()
    Else()
     ShowMessageFace("alice_fc5",0,0,2,127)
     ShowMessage("\\n<Alice>After we've taken care of that, we can go north to Midas Village and buy some golden equipment.")
     ShowMessageFace("alice_fc5",0,0,2,128)
     ShowMessage("\\n<Alice>With that, we should have enough experience and gear to go through the eastern mountains and into the remote Tartarus there.")
     0()
    EndIf()
    PictureDisplay(5,"80_alice_st74",0,0,0,0,100,100,255,0)
    ShowMessageFace("alice_fc5",3,0,2,129)
    ShowMessage("\\n<Alice>That's just what I'd do, though. I'll leave the actual decision up to the rest of you.")
    PictureDisplay(5,"80_alice_st71",0,0,0,0,100,100,255,0)
    ShowMessageFace("alice_fc5",0,0,2,130)
    ShowMessage("\\n<Alice>If the side quests don't interest you, we may be able to go straight to the eastern Tartarus rift. That assumes we're strong enough already...")
    If(0,6,0)
     ShowMessageFace("sonia_fc1",0,0,2,131)
     ShowMessage("\\n<Sonya>It's Luka's decision then. I'm not any good at that kind of thing.")
     0()
    EndIf()
    ShowMessageFace("ruka_fc1",0,0,2,132)
    ShowMessage("\\n<Luka>All on me then... I'm a bit overwhelmed with all the choices.")
    If(0,1540,0)
     ShowMessageFace("alice_fc5",0,0,2,133)
     ShowMessage("\\n<Alice>If you want more information, you can rely on Amira. Just talk to her at the castle.")
     0()
    Else()
     ShowMessageFace("alice_fc5",0,0,2,134)
     ShowMessage("\\n<Alice>It'd be nice to have a skilled information broker with us, which reminds me that I haven't given Amira a piece of my mind yet.")
     ShowMessageFace("ruka_fc1",0,0,2,135)
     ShowMessage("\\n<Luka>You really hold a grudge, don't you... Her information may have been wrong, but it did lead us to the rabbit in the end.")
     0()
    EndIf()
    If(0,6,0)
     ShowMessageFace("sonia_fc1",0,0,2,136)
     ShowMessage("\\n<Sonya>All right, Luka. Lead on!")
     0()
    EndIf()
    If(0,1079,0)
     ShowMessageFace("nuruko_fc1",0,0,2,137)
     ShowMessage("\\n<Nuruko>Kyuu! Kyuu!")
     0()
    EndIf()
    ShowMessageFace("alice_fc5",1,0,2,138)
    ShowMessage("\\n<Alice>Our main objective is the eastern Tartarus rift. Let's get going!")
    221()
    PictureClear(5)
    211(1)
    If(1,1015,0,0,0)
     ChangeVariable(1015,1015,0,0,1)
     0()
    EndIf()
    ChangeVariable(1011,1011,0,0,1)
    ChangeVariable(1014,1014,0,0,1)
    281(1)
    ChangeVariable(21,21,0,0,2)
    ChangeVariable(22,22,0,0,296)
    ChangeVariable(23,23,0,0,356)
    TeleportPlayer(0,228,24,34,2,2)
    314(0,0)
    222()
    355("gain_medal(10)")
    EndEventProcessing()
    0()
   EndIf()
   0()
  EndIf()
  0()
 PAGE   2
  // condition: switch 5 is ON
  Wait(60)
  222()
  ShowMessageFace("iriasu_fc4",0,0,2,1)
  ShowMessage("\\n<Ilias>Now then, let us begin the evaluation meeting. Ahem, strategy. Strategy meeting.")
  ShowMessageFace("ruka_fc1",0,0,2,2)
  ShowMessage("\\n<Luka>We need to decide how to proceed from here, but I'm still mixed up from all the weird stuff we've seen...")
  If(0,6,0)
   ShowMessageFace("sonia_fc2",2,0,2,3)
   ShowMessage("\\n<Sonya>Me too. This all feels like one big nightmare. I mean, going to a different world, crazy...")
   0()
  EndIf()
  If(0,1079,0)
   205(3,bytes(0x04,0x08,0x6f,0x3a,0x13,0x52,0x50,0x47,0x3a,0x3a,0x4d,0x6f,0x76,0x65,0x52,0x6f,0x75,0x74,0x65,0x09,0x3a,0x0c,0x40,0x72,0x65,0x70,0x65,0x61,0x74,0x46,0x3a,0x0f,0x40,0x73,0x6b,0x69,0x70,0x70,0x61,0x62,0x6c,0x65,0x46,0x3a,0x0a,0x40,0x77,0x61,0x69,0x74,0x46,0x3a,0x0a,0x40,0x6c,0x69,0x73,0x74,0x5b,0x08,0x6f,0x3a,0x15,0x52,0x50,0x47,0x3a,0x3a,0x4d,0x6f,0x76,0x65,0x43,0x6f,0x6d,0x6d,0x61,0x6e,0x64,0x07,0x3a,0x0a,0x40,0x63,0x6f,0x64,0x65,0x69,0x13,0x3a,0x10,0x40,0x70,0x61,0x72,0x61,0x6d,0x65,0x74,0x65,0x72,0x73,0x5b,0x07,0x69,0x00,0x69,0x00,0x6f,0x3b,0x0a,0x07,0x3b,0x0b,0x69,0x13,0x3b,0x0c,0x5b,0x07,0x69,0x00,0x69,0x00,0x6f,0x3b,0x0a,0x07,0x3b,0x0b,0x69,0x00,0x3b,0x0c,0x5b,0x00))
   ShowMessageFace("nuruko_fc1",0,0,2,4)
   ShowMessage("\\n<Nuruko>Kyuu! Kyuu!")
   ShowMessageFace("iriasu_fc4",2,0,2,5)
   ShowMessage("\\n<Ilias>Wait, why are you acting like it's perfectly natural for you to be here!? Weird little tentacle creatures need to know their... Actually, forget it.")
   0()
  EndIf()
  PictureDisplay(5,"80_iriasu_st38",0,0,0,0,100,100,255,0)
  PictureMove(5,null,0,0,0,0,100,100,255,0,30,true)
  ShowMessageFace("iriasu_fc4",7,0,2,6)
  ShowMessage("\\n<Ilias>This all began for me when I was changed into this form. I set out to discover who had sealed me...")
  PictureDisplay(5,"80_iriasu_st33",0,0,0,0,100,100,255,0)
  ShowMessageFace("iriasu_fc4",2,0,2,7)
  ShowMessage("\\n<Ilias>That was my problem alone, and you were simply accompanying me...")
  If(0,6,0)
   ShowMessageFace("sonia_fc2",2,0,2,8)
   ShowMessage("\\n<Sonya>But it's not that simple anymore. I mean, I saw my own grave...")
   0()
  Else()
   ShowMessageFace("ruka_fc1",0,0,2,9)
   ShowMessage("\\n<Luka>It's a lot more complicated than that now. I mean, I saw my own grave...")
   0()
  EndIf()
  PictureDisplay(5,"80_iriasu_st38",0,0,0,0,100,100,255,0)
  ShowMessageFace("iriasu_fc4",7,0,2,10)
  ShowMessage("\\n<Ilias>And that brings us to now. You are definitely involved in all of this. Actually, every person on the planet could be said to be involved.")
  ShowMessageFace("iriasu_fc4",7,0,2,11)
  ShowMessage("\\n<Ilias>Let's discuss what we know and then formulate a plan of action. First, we need to assess the situation...")
  ChangeVariable(10,18,0,0,0)
  DefineLabel("0")
  ShowMessageFace("",0,0,2,12)
  ShowMessage("What would you like to discuss?")
  355("unlimited_choices(11, [\"The rabbit\",")
  655("\"Tartarus\",\"Other world\",")
  655("\"Reasons other world destroyed\",\"Luka's powers\",")
  655("\"Ilias's subordinates\",")
  655("\"What to do next\"])")
  If(1,11,0,0,0)
   PictureDisplay(5,"80_iriasu_st38",0,0,0,0,100,100,255,0)
   ShowMessageFace("iriasu_fc4",7,0,2,13)
   ShowMessage("\\n<Ilias>We know little about her besides the fact that she is hanging around near us. She undoubtedly has an intimate connection with the disaster, however.")
   ShowMessageFace("iriasu_fc4",7,0,2,14)
   ShowMessage("\\n<Ilias>Supposedly she weakened the Monster Lord and is trying to guide her somewhere, which has given us reason enough to pursue her.")
   If(0,6,0)
    ShowMessageFace("sonia_fc2",2,0,2,15)
    ShowMessage("\\n<Sonya>We ended up in that other world because we were following her. Did she really lead us there on purpose?")
    0()
   Else()
    ShowMessageFace("ruka_fc1",0,0,2,16)
    ShowMessage("\\n<Luka>We ended up in that other world because we were following her. It seems she led us there on purpose.")
    0()
   EndIf()
   ShowMessageFace("iriasu_fc4",7,0,2,17)
   ShowMessage("\\n<Ilias>Indeed, there is no chance in my mind that we ended up there by accident. Consequently, we learned of the existence of a parallel world.")
   If(0,6,0)
    ShowMessageFace("sonia_fc2",2,0,2,18)
    ShowMessage("\\n<Sonya>But who in the world is she? She must be pretty powerful to toy with the Monster Lord...")
    0()
   Else()
    ShowMessageFace("ruka_fc1",0,0,2,19)
    ShowMessage("\\n<Luka>But who in the world is she? She must be pretty powerful to toy with the Monster Lord...")
    0()
   EndIf()
   ShowMessageFace("iriasu_fc4",2,0,2,20)
   ShowMessage("\\n<Ilias>A white rabbit that guides Alice... I feel like that is very important for some reason...")
   PictureDisplay(5,"80_iriasu_st33",0,0,0,0,100,100,255,0)
   ShowMessageFace("iriasu_fc4",2,0,2,21)
   ShowMessage("\\n<Ilias>Since the Six Ancestors' Great Seal has affected my memory, I cannot remember why. At any rate, bad things are undoubtedly afoot.")
   PictureDisplay(5,"80_iriasu_st38",0,0,0,0,100,100,255,0)
   ShowMessageFace("iriasu_fc4",7,0,2,22)
   ShowMessage("\\n<Ilias>That rabbit clearly knows more than us, which makes following her a reasonable objective.")
   If(1,15,0,0,0)
    ChangeVariable(10,10,1,0,1)
    0()
   EndIf()
   ChangeVariable(15,15,0,0,1)
   JumpToLabel("0")
   0()
  EndIf()
  If(1,11,0,1,0)
   PictureDisplay(5,"80_iriasu_st33",0,0,0,0,100,100,255,0)
   ShowMessageFace("iriasu_fc4",2,0,2,23)
   ShowMessage("\\n<Ilias>Tartarus refers to the mysterious holes in the earth. They appeared in the Great Disaster 30 years ago... or so I've been told.")
   ShowMessageFace("iriasu_fc4",2,0,2,24)
   ShowMessage("\\n<Ilias>Since I have no memories of the past 30 years, my knowledge of Tartarus is based on what I have learned from people.")
   PictureDisplay(5,"80_iriasu_st38",0,0,0,0,100,100,255,0)
   ShowMessageFace("iriasu_fc4",7,0,2,25)
   ShowMessage("\\n<Ilias>Until recently, that is. We chased that rabbit through Tartarus and discovered a parallel world eerily similar to our own on the other side.")
   ShowMessageFace("ruka_fc1",0,0,2,26)
   ShowMessage("\\n<Luka>In other words, Tartarus is a tunnel to a parallel world. That still doesn't explain why it exists...")
   ShowMessageFace("iriasu_fc4",7,0,2,27)
   ShowMessage("\\n<Ilias>It has to be related to the Great Disaster somehow, at least. The Great Disaster itself could even be related to the parallel world...")
   ShowMessageFace("iriasu_fc4",7,0,2,28)
   ShowMessage("\\n<Ilias>Tartarus was also filled with monsters that are entirely different than the monsters that exist in our world.")
   If(0,6,0)
    ShowMessageFace("sonia_fc2",2,0,2,29)
    ShowMessage("\\n<Sonya>They were all really weird kinds of monsters too...")
    0()
   Else()
    ShowMessageFace("ruka_fc1",0,0,2,30)
    ShowMessage("\\n<Luka>They were all rather bizarre monsters too...")
    0()
   EndIf()
   ShowMessageFace("iriasu_fc4",7,0,2,31)
   ShowMessage("\\n<Ilias>We also witnessed humans being transformed into monsters first-hand through the apoptosis effect.")
   ShowMessageFace("iriasu_fc4",7,0,2,32)
   ShowMessage("\\n<Ilias>The underlying cause of the effect is holy and dark energies from a distortion in spacetime corrupting organisms.")
   ShowMessageFace("iriasu_fc4",7,0,2,33)
   ShowMessage("\\n<Ilias>They exist to repel foreign invaders, namely us. You can think of them like beings controlled by the will of space itself.")
   If(0,6,0)
    If(0,1079,0)
     ShowMessageFace("nuruko_fc1",0,0,2,34)
     ShowMessage("\\n<Nuruko>Kyuu! Kyuu!")
     ShowMessageFace("sonia_fc2",2,0,2,35)
     ShowMessage("\\n<Sonya>Would that include Nuruko?")
     PictureDisplay(5,"80_iriasu_st33",0,0,0,0,100,100,255,0)
     ShowMessageFace("iriasu_fc4",2,0,2,36)
     ShowMessage("\\n<Ilias>Perhaps... but I get the feeling that this weird thing is something else entirely.")
     0()
    EndIf()
    0()
   EndIf()
   ShowMessageFace("ruka_fc1",0,0,2,37)
   ShowMessage("\\n<Luka>The part that makes the least sense to me is that there's a town in there, and not just any town, but Remina itself.")
   PictureDisplay(5,"80_iriasu_st38",0,0,0,0,100,100,255,0)
   ShowMessageFace("iriasu_fc4",7,0,2,38)
   ShowMessage("\\n<Ilias>Remina was destroyed in the Great Disaster 30 years ago, yet a section of it exists inside Tartarus...")
   ShowMessageFace("iriasu_fc4",7,0,2,39)
   ShowMessage("\\n<Ilias>Moreover, spacetime is eroding the town itself, including the remaining citizens, and...")
   PictureDisplay(5,"80_iriasu_st33",0,0,0,0,100,100,255,0)
   ShowMessageFace("iriasu_fc4",2,0,2,40)
   ShowMessage("\\n<Ilias>Well, it's all quite unbelievable. Without my full memories, I am nearly as clueless as you.")
   If(0,6,0)
    ShowMessageFace("sonia_fc2",2,0,2,41)
    ShowMessage("\\n<Sonya>I don't understand any of this...")
    0()
   Else()
    ShowMessageFace("ruka_fc1",0,0,2,42)
    ShowMessage("\\n<Luka>We understand just about nothing then...")
    0()
   EndIf()
   ShowMessageFace("iriasu_fc4",2,0,2,43)
   ShowMessage("\\n<Ilias>We do not yet have enough data to reach a proper conclusion. We shall have to collect more information first.")
   ShowMessageFace("iriasu_fc4",2,0,2,44)
   ShowMessage("\\n<Ilias>To do so, we must continue to investigate Tartarus. Not just that one, but the others as well.")
   If(1,12,0,0,0)
    ChangeVariable(10,10,1,0,1)
    0()
   EndIf()
   ChangeVariable(12,12,0,0,1)
   JumpToLabel("0")
   0()
  EndIf()
  If(1,11,0,2,0)
   ShowMessageFace("iriasu_fc4",2,0,2,45)
   ShowMessage("\\n<Ilias>After exiting Tartarus, we discovered a parallel world very similar to our own, but also somewhat different...")
   If(0,6,0)
    ShowMessageFace("sonia_fc2",2,0,2,46)
    ShowMessage("\\n<Sonya>Except that our village was destroyed and Luka and I were dead...")
    ShowMessageFace("sonia_fc4",0,0,2,47)
    ShowMessage("\\n<Sonya>That freaks me out even knowing that it happened in another world.")
    0()
   Else()
    ShowMessageFace("ruka_fc1",0,0,2,48)
    ShowMessage("\\n<Luka>Except that our village was destroyed and I was dead...")
    ShowMessageFace("ruka_fc1",0,0,2,49)
    ShowMessage("\\n<Luka>Even knowing that happened in another world doesn't sit well with me.")
    0()
   EndIf()
   PictureDisplay(5,"80_iriasu_st38",0,0,0,0,100,100,255,0)
   ShowMessageFace("iriasu_fc4",7,0,2,50)
   ShowMessage("\\n<Ilias>Be that as it may, it was different in many respects. First of all, that world's timeline is ten years ahead of ours.")
   If(0,6,0)
    ShowMessageFace("sonia_fc2",2,0,2,51)
    ShowMessage("\\n<Sonya>Whatever happened there isn't going to repeat itself here, is it? If that world represents our future, then...")
    0()
   Else()
    ShowMessageFace("ruka_fc1",0,0,2,52)
    ShowMessage("\\n<Luka>Whatever happened there isn't going to repeat itself here, is it? If that world represents our future, then...")
    0()
   EndIf()
   ShowMessageFace("iriasu_fc4",7,0,2,53)
   ShowMessage("\\n<Ilias>I cannot say it is impossible... However, we have experienced at least one significant difference already.")
   ShowMessageFace("iriasu_fc4",7,0,2,54)
   ShowMessage("\\n<Ilias>According to the diary we found, Luka encountered the Monster Swordsman Granberia in Iliasburg and was apparently defeated.")
   ShowMessageFace("iriasu_fc4",7,0,2,55)
   ShowMessage("\\n<Ilias>Clearly that did not occur in our world.")
   ShowMessageFace("iriasu_fc4",7,0,2,56)
   ShowMessage("\\n<Ilias>Granberia was not in Iliasburg, and we continued the adventure unimpeded.")
   ShowMessageFace("ruka_fc1",0,0,2,57)
   ShowMessage("\\n<Luka>That's true. The diary didn't match up with our experiences.")
   ShowMessageFace("iriasu_fc4",7,0,2,58)
   ShowMessage("\\n<Ilias>That world is extremely similar, but not the same. It's quite possible that it represents one future that could have been ours...")
   If(0,6,0)
    ShowMessageFace("sonia_fc2",2,0,2,59)
    ShowMessage("\\n<Sonya>Something else has been bothering me for a while. There are 7 Tartarus locations, right? Do you think all of them connect to that world?")
    0()
   Else()
    ShowMessageFace("ruka_fc1",0,0,2,60)
    ShowMessage("\\n<Luka>Something else has been bothering me for a while. There are 7 Tartarus locations, right? Do you think all of them connect to that world?")
    0()
   EndIf()
   ShowMessageFace("iriasu_fc4",7,0,2,61)
   ShowMessage("\\n<Ilias>They may... Or they may connect to other parallel worlds.")
   ShowMessageFace("ruka_fc1",0,0,2,62)
   ShowMessage("\\n<Luka>You mean there could be more alternate worlds besides that one!? Possibly even 6 more of them?")
   ShowMessageFace("iriasu_fc4",7,0,2,63)
   ShowMessage("\\n<Ilias>In theory, yes, it is possible. I believe we should travel to the other Tartarus locations and find out.")
   If(0,6,0)
    ShowMessageFace("sonia_fc2",2,0,2,64)
    ShowMessage("\\n<Sonya>But wait, some of them are completely inaccessible, aren't they?")
    0()
   Else()
    ShowMessageFace("ruka_fc1",0,0,2,65)
    ShowMessage("\\n<Luka>But wait, there's no way to get to some of them.")
    0()
   EndIf()
   ShowMessageFace("iriasu_fc4",7,0,2,66)
   ShowMessage("\\n<Ilias>It will be impossible to investigate them all any time soon, but it's worth considering as one of our objectives.")
   If(1,13,0,0,0)
    ChangeVariable(10,10,1,0,1)
    0()
   EndIf()
   ChangeVariable(13,13,0,0,1)
   JumpToLabel("0")
   0()
  EndIf()
  If(1,11,0,3,0)
   PictureDisplay(5,"80_iriasu_st33",0,0,0,0,100,100,255,0)
   ShowMessageFace("iriasu_fc4",2,0,2,67)
   ShowMessage("\\n<Ilias>From what we saw, the Iliasville of that world was clearly destroyed by angels.")
   If(0,6,0)
    ShowMessageFace("sonia_fc2",2,0,2,68)
    ShowMessage("\\n<Sonya>Why would angels destroy Iliasville? You're the only one who could order them to do something like that, right?")
    0()
   Else()
    ShowMessageFace("ruka_fc1",0,0,2,69)
    ShowMessage("\\n<Luka>Why would angels destroy Iliasville? And was that part of your plan...")
    0()
   EndIf()
   ShowMessageFace("iriasu_fc4",2,0,2,70)
   ShowMessage("\\n<Ilias>A parallel universe where the plan to recreate the world was carried out... That's hard enough to fathom, but to kill Luka too...")
   PictureDisplay(5,"80_iriasu_st31",0,0,0,0,100,100,255,0)
   ShowMessageFace("iriasu_fc4",0,0,2,71)
   ShowMessage("\\n<Ilias>Ahem... never mind. Just talking to myself. Forget I said anything.")
   ShowMessageFace("ruka_fc1",0,0,2,72)
   ShowMessage("\\n<Luka>As if I could...")
   PictureDisplay(5,"80_iriasu_st33",0,0,0,0,100,100,255,0)
   ShowMessageFace("iriasu_fc4",2,0,2,73)
   ShowMessage("\\n<Ilias>It's likely that the destruction we witnessed in that world is not connected to the Great Disaster. It's probably best to think of them separately.")
   ShowMessageFace("ruka_fc1",0,0,2,74)
   ShowMessage("\\n<Luka>You said that was one possible future though...")
   ShowMessageFace("iriasu_fc4",2,0,2,75)
   ShowMessage("\\n<Ilias>Just forget it already. That world's problems belong to it. The people there certainly do not know about us.")
   ShowMessageFace("iriasu_fc4",2,0,2,76)
   ShowMessage("\\n<Ilias>They probably think of their world as the only world, just as we did.")
   ShowMessageFace("iriasu_fc4",2,0,2,77)
   ShowMessage("\\n<Ilias>We had to pass through a door in Tartarus to learn the truth, after all. So as long as they don't come here...")
   PictureDisplay(5,"80_iriasu_st38",0,0,0,0,100,100,255,0)
   ShowMessageFace("iriasu_fc4",7,0,2,78)
   ShowMessage("\\n<Ilias>No, if we assume they have come...\nCould that have been the original cause of this paradox...?")
   ShowMessageFace("iriasu_fc4",2,0,2,79)
   ShowMessage("\\n<Ilias>Anyway, we cannot say anything for certain. Further investigations of Tartarus are necessary.")
   If(1,14,0,0,0)
    ChangeVariable(10,10,1,0,1)
    0()
   EndIf()
   ChangeVariable(14,14,0,0,1)
   JumpToLabel("0")
   0()
  EndIf()
  If(1,11,0,4,0)
   PictureDisplay(5,"80_iriasu_st33",0,0,0,0,100,100,255,0)
   ShowMessageFace("iriasu_fc4",2,0,2,80)
   ShowMessage("\\n<Ilias>Luka can open doors to parallel worlds. That's a fact, but not one that makes any sense to me.")
   ShowMessageFace("iriasu_fc4",2,0,2,81)
   ShowMessage("\\n<Ilias>Even I cannot travel between worlds, as that rabbit oh-so-helpfully pointed out.")
   If(0,6,0)
    ShowMessageFace("sonia_fc4",0,0,2,82)
    ShowMessage("\\n<Sonya>She may have said that, but she also hopped across worlds herself...")
    0()
   Else()
    ShowMessageFace("ruka_fc1",0,0,2,86)
    ShowMessage("\\n<Luka>She didn't appear to have any trouble traveling to that other world though...")
    0()
   EndIf()
   ShowMessageFace("iriasu_fc4",2,0,2,84)
   ShowMessage("\\n<Ilias>From what we observed, I think she may be an entity that exists to travel through spacetime.")
   ShowMessageFace("iriasu_fc4",2,0,2,85)
   ShowMessage("\\n<Ilias>It is also possible that she doesn't exist like we do at all. Rather, she may manifest simultaneously across a multiverse, like a universal phenomenon, cosmic constant, or something similar.")
   ShowMessageFace("ruka_fc1",0,0,2,86)
   ShowMessage("\\n<Luka>I understood a few of those words...")
   PictureDisplay(5,"80_iriasu_st38",0,0,0,0,100,100,255,0)
   ShowMessageFace("iriasu_fc4",7,0,2,87)
   ShowMessage("\\n<Ilias>It's not her I'm concerned about, but rather you. How can a mere human open doors to parallel worlds?")
   ShowMessageFace("ruka_fc1",0,0,2,88)
   ShowMessage("\\n<Luka>Don't ask me. It just happened...")
   If(0,6,0)
    ShowMessageFace("sonia_fc2",2,0,2,89)
    ShowMessage("\\n<Sonya>Maybe it has something to do with his lineage? His father is a famous hero, his mother was beautiful...")
    0()
   EndIf()
   PictureDisplay(5,"80_iriasu_st33",0,0,0,0,100,100,255,0)
   ShowMessageFace("iriasu_fc4",2,0,2,90)
   ShowMessage("\\n<Ilias>Luka's bloodline is certainly special, but that is not enough to explain his ability.")
   ShowMessageFace("iriasu_fc4",2,0,2,91)
   ShowMessage("\\n<Ilias>If you fully inherited from your mother's side, you could possibly travel within spacetime, but perceiving parallel worlds is out of the question.")
   ShowMessageFace("iriasu_fc4",2,0,2,92)
   ShowMessage("\\n<Ilias>It follows then that you should not be able to travel to them either, just as I cannot. It should not matter who your ancestors are.")
   ShowMessageFace("ruka_fc1",0,0,2,93)
   ShowMessage("\\n<Luka>Maybe my father knows something. If he had this strange ability as well, or...")
   ShowMessageFace("iriasu_fc4",2,0,2,94)
   ShowMessage("\\n<Ilias>Impossible. Your father Marcellus is completely human.")
   ShowMessageFace("iriasu_fc4",2,0,2,95)
   ShowMessage("\\n<Ilias>He may be an extraordinary hero, but he doesn't surpass the limits of humanity.")
   ShowMessageFace("iriasu_fc4",2,0,2,96)
   ShowMessage("\\n<Ilias>Although... He may actually know something, as you suggest. The reasons for his second adventure remain unclear to me.")
   ShowMessageFace("iriasu_fc4",2,0,2,97)
   ShowMessage("\\n<Ilias>I doubt he knows more about this than I do, but it could still be worth talking to him.")
   If(1,16,0,0,0)
    ChangeVariable(10,10,1,0,1)
    0()
   EndIf()
   ChangeVariable(16,16,0,0,1)
   JumpToLabel("0")
   0()
  EndIf()
  If(1,11,0,5,0)
   PictureDisplay(5,"80_iriasu_st33",0,0,0,0,100,100,255,0)
   ShowMessageFace("iriasu_fc4",2,0,2,98)
   ShowMessage("\\n<Ilias>While I scurry about the surface of the planet, what are my angel servants doing?")
   If(0,6,0)
    ShowMessageFace("sonia_fc3",0,0,2,99)
    ShowMessage("\\n<Sonya>Maybe they don't miss their Goddess all that much...")
    0()
   Else()
    ShowMessageFace("ruka_fc1",0,0,2,100)
    ShowMessage("\\n<Luka>Maybe they don't miss their Goddess all that much...")
    0()
   EndIf()
   PictureDisplay(5,"80_iriasu_st36",0,0,0,0,100,100,255,0)
   ShowMessageFace("iriasu_fc4",5,0,2,101)
   ShowMessage("\\n<Ilias>Th-that's not possible! All of my angels are faithfully devoted to me!")
   PictureDisplay(5,"80_iriasu_st33",0,0,0,0,100,100,255,0)
   ShowMessageFace("iriasu_fc4",2,0,2,102)
   ShowMessage("\\n<Ilias>If they knew the trouble I was in, they would come flying to me in an instant. Perhaps they simply cannot find me when my power is this weak...")
   ShowMessageFace("iriasu_fc4",2,0,2,103)
   ShowMessage("\\n<Ilias>I need to try calling to them from a point closer to Heaven so they can hear me. That is another of our objectives.")
   ShowMessageFace("iriasu_fc4",2,0,2,104)
   ShowMessage("\\n<Ilias>Iliasville was the most promising spot on this continent. Since I was not able to reach them from there, we shall have to cross the sea.")
   ShowMessageFace("iriasu_fc4",2,0,2,105)
   ShowMessage("\\n<Ilias>Perhaps Mt. Amos near San Ilia will suffice. Else we will need the point closest to Heaven: The Navel of the World.")
   If(0,6,0)
    ShowMessageFace("sonia_fc2",3,0,2,106)
    ShowMessage("\\n<Sonya>The Navel of the World? Gone.")
    0()
   Else()
    ShowMessageFace("ruka_fc1",0,0,2,107)
    ShowMessage("\\n<Luka>The Navel of the World? Gone.")
    0()
   EndIf()
   PictureDisplay(5,"80_iriasu_st36",0,0,0,0,100,100,255,0)
   ShowMessageFace("iriasu_fc4",5,0,2,108)
   ShowMessage("\\n<Ilias>Eeeeh!?")
   ShowMessageFace("ruka_fc1",0,0,2,109)
   ShowMessage("\\n<Luka>That's right, you aren't very familiar with the world post-Disaster. The center of Sentora is now an enormous Tartarus rift.")
   ShowMessageFace("ruka_fc1",0,0,2,110)
   ShowMessage("\\n<Luka>That's where the Navel of the World used to be, right? Well, the whole region was swallowed up by Tartarus.")
   PictureDisplay(5,"80_iriasu_st31",0,0,0,0,100,100,255,0)
   ShowMessageFace("iriasu_fc4",0,0,2,111)
   ShowMessage("\\n<Ilias>That should not pose a problem. Since Heaven is made of holy energy, the physical destruction of the area wouldn't...")
   PictureDisplay(5,"80_iriasu_st36",0,0,0,0,100,100,255,0)
   ShowMessageFace("iriasu_fc4",5,0,2,112)
   ShowMessage("\\n<Ilias>...wait, Tartarus dug a hole through space all the way to a parallel world. In that case, even Heaven...")
   If(0,6,0)
    ShowMessageFace("sonia_fc2",2,0,2,113)
    ShowMessage("\\n<Sonya>Maybe your voice wasn't reaching Heaven because Heaven itself...")
    0()
   Else()
    ShowMessageFace("ruka_fc1",0,0,2,114)
    ShowMessage("\\n<Luka>Maybe your voice wasn't reaching Heaven because Heaven itself...")
    0()
   EndIf()
   PictureDisplay(5,"80_iriasu_st38",0,0,0,0,100,100,255,0)
   ShowMessageFace("iriasu_fc4",7,0,2,115)
   ShowMessage("\\n<Ilias>No! Absolutely impossible!")
   PictureDisplay(5,"80_iriasu_st33",0,0,0,0,100,100,255,0)
   ShowMessageFace("iriasu_fc4",2,0,2,116)
   ShowMessage("\\n<Ilias>Heaven couldn't possibly... be destroyed...")
   PictureDisplay(5,"80_iriasu_st35",0,0,0,0,100,100,255,0)
   ShowMessageFace("iriasu_fc4",4,0,2,117)
   ShowMessage("\\n<Ilias>...*gulp*")
   If(0,6,0)
    If(0,1079,0)
     ShowMessageFace("nuruko_fc1",0,0,2,118)
     ShowMessage("\\n<Nuruko>Kyuu...")
     ShowMessageFace("sonia_fc1",4,0,2,119)
     ShowMessage("\\n<Sonya>Awww, look at Nuruko comfort her. She's so kind.")
     0()
    EndIf()
    0()
   EndIf()
   If(1,17,0,0,0)
    ChangeVariable(10,10,1,0,1)
    0()
   EndIf()
   ChangeVariable(17,17,0,0,1)
   JumpToLabel("0")
   0()
  EndIf()
  If(1,11,0,6,1)
   If(1,10,0,5,2)
    PictureDisplay(5,"80_iriasu_st33",0,0,0,0,100,100,255,0)
    ShowMessageFace("iriasu_fc4",2,0,2,120)
    ShowMessage("\\n<Ilias>We have yet to fully consider our present information. We should thoroughly examine the situation and only then decide on a course of action.")
    JumpToLabel("0")
    0()
   Else()
    PictureDisplay(5,"80_iriasu_st38",0,0,0,0,100,100,255,0)
    ShowMessageFace("iriasu_fc4",7,0,2,121)
    ShowMessage("\\n<Ilias>Now then, what to do? If we put what we know together, our next steps should be clear.")
    ShowMessageFace("iriasu_fc4",7,0,2,122)
    ShowMessage("\\n<Ilias>First, hunting down that rabbit. We still need to make her cough up what she knows.")
    ShowMessageFace("iriasu_fc4",7,0,2,123)
    ShowMessage("\\n<Ilias>Next, searching for Luka's father, the hero Marcellus. He may be worth talking to.")
    PictureDisplay(5,"80_iriasu_st33",0,0,0,0,100,100,255,0)
    ShowMessageFace("iriasu_fc4",2,0,2,124)
    ShowMessage("\\n<Ilias>Unfortunately, we don't have a lead on either of them. All we can do is ask around everywhere we go.")
    ShowMessageFace("ruka_fc1",0,0,2,125)
    ShowMessage("\\n<Luka>Yeah, we have to gather information as best we can. That was the plan from the beginning.")
    PictureDisplay(5,"80_iriasu_st31",0,0,0,0,100,100,255,0)
    ShowMessageFace("iriasu_fc4",0,0,2,126)
    ShowMessage("\\n<Ilias>We have added a few more concrete goals though, such as exploring all of the Tartarus rifts we can access.")
    ShowMessageFace("iriasu_fc4",0,0,2,127)
    ShowMessage("\\n<Ilias>There's another one on the eastern edge of this continent that I think we should target.")
    If(0,6,0)
     ShowMessageFace("sonia_fc2",2,0,2,128)
     ShowMessage("\\n<Sonya>You mean the one near Rostrum Village. Isn't it completely cut off by a mountain range?")
     0()
    Else()
     ShowMessageFace("ruka_fc1",0,0,2,129)
     ShowMessage("\\n<Luka>You mean the one near Rostrum Village. Isn't it completely cut off by a mountain range?")
     0()
    EndIf()
    PictureDisplay(5,"80_iriasu_st33",0,0,0,0,100,100,255,0)
    If(1,1015,0,2,0)
     ShowMessageFace("iriasu_fc4",2,0,2,130)
     ShowMessage("\\n<Ilias>There exists a cave through the mountains. Incidentally, the situation with the harpies has me concerned.")
     0()
    Else()
     ShowMessageFace("iriasu_fc4",2,0,2,131)
     ShowMessage("\\n<Ilias>There exists a cave through the mountains. However, we might not be strong enough to safely make it to Rostrum yet.")
     ShowMessageFace("iriasu_fc4",2,0,2,132)
     ShowMessage("\\n<Ilias>I'd at least like to have golden equipment first. That should be enough to get us through.")
     ShowMessageFace("ruka_fc1",0,0,2,133)
     ShowMessage("\\n<Luka>Golden equipment? Oh right, I've heard that Midas Village to the north crafts it.")
     ShowMessageFace("iriasu_fc4",2,0,2,134)
     ShowMessage("\\n<Ilias>Getting there will be a pain. First, we should go to the harpies' village east of Iliasburg.")
     ShowMessageFace("iriasu_fc4",2,0,2,135)
     ShowMessage("\\n<Ilias>If we head north from there, we should reach Midas Village. That's how to get there, but it is easier said than done.")
     0()
    EndIf()
    If(0,6,0)
     ShowMessageFace("sonia_fc2",2,0,2,136)
     ShowMessage("\\n<Sonya>Oh yeah, it sounded like all the harpies just vanished one day, leaving their village empty.")
     0()
    Else()
     ShowMessageFace("ruka_fc1",0,0,2,137)
     ShowMessage("\\n<Luka>Oh yeah, it sounded like all the harpies just vanished one day, leaving their village empty.")
     0()
    EndIf()
    ShowMessageFace("iriasu_fc4",2,0,2,138)
    ShowMessage("\\n<Ilias>As much as it gladdens me to see an entire village of monsters gone, I cannot help but wonder if their disappearance is connected to larger events.")
    ShowMessageFace("ruka_fc1",0,0,2,139)
    ShowMessage("\\n<Luka>I'd like to see if there's anything we can do, assuming we have time...")
    PictureDisplay(5,"80_iriasu_st31",0,0,0,0,100,100,255,0)
    ShowMessageFace("iriasu_fc4",0,0,2,140)
    ShowMessage("\\n<Ilias>Harpy Village is east of Iliasburg. Since Happiness Village is right beside it, we should ask around there first.")
    If(1,1015,0,2,0)
     ShowMessageFace("iriasu_fc4",0,0,2,141)
     ShowMessage("\\n<Ilias>Afterwards, we can finally get back to our main goal of going through the eastern mountains and into the remote Tartarus there.")
     0()
    Else()
     ShowMessageFace("iriasu_fc4",0,0,2,142)
     ShowMessage("\\n<Ilias>Afterwards, we can go north to Midas Village and buy some golden equipment.")
     ShowMessageFace("iriasu_fc4",0,0,2,143)
     ShowMessage("\\n<Ilias>With that, our levels and gear should be sufficient to cross the eastern mountains and explore the remote Tartarus there.")
     0()
    EndIf()
    ShowMessageFace("iriasu_fc4",0,0,2,144)
    ShowMessage("\\n<Ilias>That is simply what I would do. I shall entrust the actual decision to my faithful servants.")
    ShowMessageFace("iriasu_fc4",0,0,2,145)
    ShowMessage("\\n<Ilias>If the diversions are too much trouble, we can head straight to Tartarus. However, I would prefer not being wiped out because we are too weak.")
    If(0,6,0)
     ShowMessageFace("sonia_fc1",0,0,2,146)
     ShowMessage("\\n<Sonya>It's Luka's decision then. I'm not any good at that kind of thing.")
     0()
    EndIf()
    ShowMessageFace("ruka_fc1",0,0,2,147)
    ShowMessage("\\n<Luka>All on me then... I'm a bit overwhelmed with all the choices.")
    If(0,1540,0)
     ShowMessageFace("iriasu_fc4",0,0,2,148)
     ShowMessage("\\n<Ilias>If you want more information, you can rely on Amira. Just talk to her at the castle.")
     0()
    Else()
     PictureDisplay(5,"80_iriasu_st33",0,0,0,0,100,100,255,0)
     ShowMessageFace("iriasu_fc4",2,0,2,149)
     ShowMessage("\\n<Ilias>I would love to have a skilled information broker with us, which reminds me... That snake who fed me a pack of lies is still out there.")
     ShowMessageFace("ruka_fc1",0,0,2,150)
     ShowMessage("\\n<Luka>You really hold a grudge, don't you... Her information may have been wrong, but it did lead us to the rabbit in the end.")
     0()
    EndIf()
    If(0,6,0)
     ShowMessageFace("sonia_fc1",0,0,2,151)
     ShowMessage("\\n<Sonya>All right, Luka. Lead on!")
     0()
    EndIf()
    If(0,1079,0)
     ShowMessageFace("nuruko_fc1",0,0,2,152)
     ShowMessage("\\n<Nuruko>Kyuu! Kyuu!")
     0()
    EndIf()
    PictureDisplay(5,"80_iriasu_st31",0,0,0,0,100,100,255,0)
    ShowMessageFace("iriasu_fc4",0,0,2,153)
    ShowMessage("\\n<Ilias>Our main objective is the eastern Tartarus rift. Let's go!")
    221()
    PictureClear(5)
    211(1)
    ChangeVariable(1011,1011,0,0,1)
    If(1,1015,0,0,0)
     ChangeVariable(1015,1015,0,0,1)
     0()
    EndIf()
    ChangeVariable(1014,1014,0,0,1)
    281(1)
    ChangeVariable(21,21,0,0,2)
    ChangeVariable(22,22,0,0,296)
    ChangeVariable(23,23,0,0,356)
    TeleportPlayer(0,228,24,34,2,2)
    314(0,0)
    222()
    355("gain_medal(10)")
    EndEventProcessing()
    0()
   EndIf()
   0()
  EndIf()
  0()
